{
  "Request": {
    "ItemContainerTag": "",
    "ItemID": 17865,
    "ItemInDD": true,
    "ItemInfo": {
      "ItemHasRelation": true,
      "VarContainerID": 0,
      "VarSubIndex": 0
    },
    "ItemType": "VARIABLE"
  },
  "Response": {
    "CommandName": "GetItem",
    "CommandResponse": {
      "result": {
        "ItemContainerTag": "",
        "ItemHelp": "Class:Dynamic & Correction , Type:Float ,Display format , Pre read actions , Post userchange actions",
        "ItemID": 17865,
        "ItemInDD": true,
        "ItemInfo": {
          "ItemClass": 10,
          "ItemReadOnly": true,
          "VarInfo": {
            "VarUnit": "",
            "VarValDisplayFormat": "4.2f",
            "VarValEditFormat": "12.5f",
            "VarValIsINF": false,
            "VarValIsNAN": false,
            "VarValRange": [
              {
                "VarValMax": 3.4028230607370965e+38,
                "VarValMin": -3.4028230607370965e+38
              }
            ],
            "VarValType": "FLOAT",
            "VarValue": 3.4028230607370965e+38
          },
          "VarType": "ARITHMETIC"
        },
        "ItemLabel": "Pressure",
        "ItemType": "VARIABLE"
      }
    }
  }
}