{
  "Request": {
    "DeviceNodeAddress": 247
  },
  "Response": {
    "CommandName": "Connect",
    "CommandResponse": {
      "result": {
        "ItemContainerTag": "",
        "ItemHelp": "Top Level Root Menu For The Device",
        "ItemID": 0,
        "ItemInDD": false,
        "ItemInfo": {
          "ItemList": [
            {
              "ItemContainerTag": "",
              "ItemHelp": "",
              "ItemID": 132416,
              "ItemInDD": true,
              "ItemLabel": "Handheld Device Root Menu",
              "ItemType": "MENU"
            },
            {
              "ItemContainerTag": "",
              "ItemHelp": "Advanced Device Menu Options",
              "ItemID": 1,
              "ItemInDD": false,
              "ItemLabel": "Advanced",
              "ItemType": "MENU"
            }
          ]
        },
        "ItemLabel": "Device Menu",
        "ItemType": "MENU"
      }
    }
  }
}