{
  "Request": [
    {
      "ItemContainerTag": "",
      "ItemID": 12872,
      "ItemInDD": true,
      "ItemType": "MENU"
    },
    {
      "ItemContainerTag": "",
      "ItemID": 18069,
      "ItemInDD": false,
      "ItemType": "MENU"
    },
    {
      "ItemContainerTag": "",
      "ItemID": 18069,
      "ItemInDD": true,
      "ItemType": "VARIABLE"
    }
  ],
  "Response": [
    {
      "CommandName": "GetItem",
      "CommandResponse": {
        "error": {
          "code": 91004,
          "message": "Failed to fetch menu information from DD."
        }
      }
    },
    {
      "CommandName": "GetItem",
      "CommandResponse": {
        "error": {
          "code": 91002,
          "message": "Failed to fetch parameter attribute information."
        }
      }
    }
  ]
}