{
  "Request": [
    {
      "ItemContainerTag": "",
      "ItemID": 16603,
      "ItemInDD": true,
      "ItemType": "MENU"
    },
    {
      "ItemContainerTag": "",
      "ItemID": 0,
      "ItemInfo": {
        "VarValue": 0
      },
      "ItemReqType": "",
      "ItemType": "METHOD"
    },
    {
      "ItemContainerTag": "",
      "ItemID": 0,
      "ItemInfo": {
        "VarValue": 135.399993896484375
      },
      "ItemReqType": "",
      "ItemType": "METHOD"
    },
    {
      "ItemContainerTag": "",
      "ItemID": 0,
      "ItemInfo": {
        "VarValue": 1
      },
      "ItemReqType": "",
      "ItemType": "METHOD"
    },
    {
      "ItemContainerTag": "",
      "ItemID": 0,
      "ItemInfo": {
        "VarValue": 2
      },
      "ItemReqType": "",
      "ItemType": "METHOD"
    },
    {
      "ItemContainerTag": "",
      "ItemID": 16593,
      "ItemInDD": true,
      "ItemType": "MENU"
    }
  ],
  "Response": [
    {
      "CommandName": "ExecPostEditAction",
      "CommandResponse": {
        "error": {
          "code": 91105,
          "message": "Post Edit Action is in progress."
        }
      }
    },
    {
      "CommandName": "SetItem",
      "CommandResponse": {
        "result": "ok"
      }
    },
    {
      "CommandName": "SetItem",
      "CommandResponse": {
        "result": {
          "ItemContainerTag": "",
          "ItemHelp": "",
          "ItemID": 16593,
          "ItemInDD": true,
          "ItemInfo": {
            "ItemList": [
              {
                "ItemContainerTag": "",
                "ItemHelp": "",
                "ItemID": 16481,
                "ItemInDD": true,
                "ItemInfo": {
                  "ItemClass": 0,
                  "ItemReadOnly": true
                },
                "ItemLabel": "Edit Items Wao",
                "ItemType": "MENU"
              },
              {
                "ItemContainerTag": "",
                "ItemHelp": "",
                "ItemID": 16467,
                "ItemInDD": true,
                "ItemInfo": {
                  "ItemClass": 0,
                  "ItemReadOnly": true
                },
                "ItemLabel": "Edit Display",
                "ItemType": "MENU"
              },
              {
                "ItemContainerTag": "",
                "ItemHelp": "",
                "ItemID": 16603,
                "ItemInDD": true,
                "ItemInfo": {
                  "ItemClass": 0,
                  "ItemReadOnly": true
                },
                "ItemLabel": "Edit Actions",
                "ItemType": "MENU"
              }
            ]
          },
          "ItemLabel": "Test Edit Display",
          "ItemType": "MENU"
        }
      }
    }
  ],
  "Notification": [
    {
      "ItemContainerTag": "",
      "ItemHelp": "",
      "ItemID": 16386,
      "ItemInDD": true,
      "ItemInfo": {
        "Message": "",
        "NotificationType": "START"
      },
      "ItemLabel": "Post Edit Action 1",
      "ItemType": "METHOD"
    },
    {
      "ItemContainerTag": "",
      "ItemHelp": "",
      "ItemID": 16386,
      "ItemInDD": true,
      "ItemInfo": {
        "Message": "Post Edit Action 1 method begins.",
        "NotificationType": "ACK"
      },
      "ItemLabel": "Post Edit Action 1",
      "ItemType": "METHOD"
    },
    {
      "ItemContainerTag": "",
      "ItemHelp": "",
      "ItemID": 16386,
      "ItemInDD": true,
      "ItemInfo": {
        "ItemClass": 0,
        "Message": "Enter lower range value:",
        "MethodVarInfo": {
          "ItemContainerTag": "",
          "ItemHelp": "Class:Range , Type:Float , Display format , Edit format , Pre read actions, Post write actions, Pre write actions",
          "ItemID": 235,
          "ItemInDD": true,
          "ItemInfo": {
            "ItemClass": 0,
            "ItemReadOnly": false,
            "VarInfo": {
              "VarUnit": "",
              "VarValDisplayFormat": "3.3f",
              "VarValEditFormat": "5.3f",
              "VarValIsINF": false,
              "VarValIsNAN": false,
              "VarValRange": [
                {
                  "VarValMax": 3.4028230607370965e+38,
                  "VarValMin": -3.4028230607370965e+38
                }
              ],
              "VarValType": "FLOAT",
              "VarValue": 157.39999389648438
            },
            "VarType": "ARITHMETIC"
          },
          "ItemLabel": "PV LRV",
          "ItemType": "VARIABLE"
        },
        "NotificationType": "GETVALUE"
      },
      "ItemLabel": "Post Edit Action 1",
      "ItemType": "METHOD"
    },
    {
      "ItemContainerTag": "",
      "ItemHelp": "",
      "ItemID": 16386,
      "ItemInDD": true,
      "ItemInfo": {
        "ItemClass": 0,
        "Message": "Selection Options",
        "MethodVarInfo": {
          "ItemContainerTag": "",
          "ItemHelp": "",
          "ItemID": 0,
          "ItemInDD": true,
          "ItemInfo": {
            "ItemClass": 0,
            "ItemReadOnly": false,
            "VarInfo": {
              "VarEnumInfo": [
                {
                  "VarEnumHelp": "",
                  "VarEnumLabel": "Continue",
                  "VarEnumValue": 1
                },
                {
                  "VarEnumHelp": "",
                  "VarEnumLabel": " Abort(Single Method)",
                  "VarEnumValue": 2
                },
                {
                  "VarEnumHelp": "",
                  "VarEnumLabel": " Abort(Multiple Methods)",
                  "VarEnumValue": 3
                }
              ],
              "VarValType": "ENUMERATION",
              "VarValue": 1
            },
            "VarType": "ENUMERATION"
          },
          "ItemLabel": "",
          "ItemType": "VARIABLE"
        },
        "NotificationType": "SELECTION"
      },
      "ItemLabel": "Post Edit Action 1",
      "ItemType": "METHOD"
    },
    {
      "ItemContainerTag": "",
      "ItemHelp": "",
      "ItemID": 16386,
      "ItemInDD": true,
      "ItemInfo": {
        "Message": "Post Edit Action 1 method executed successfully.",
        "NotificationType": "ACK"
      },
      "ItemLabel": "Post Edit Action 1",
      "ItemType": "METHOD"
    },
    {
      "ItemContainerTag": "",
      "ItemHelp": "",
      "ItemID": 16386,
      "ItemInDD": true,
      "ItemInfo": {
        "Message": "",
        "NotificationType": "COMPLETED"
      },
      "ItemLabel": "Post Edit Action 1",
      "ItemType": "METHOD"
    },
    {
      "ItemContainerTag": "",
      "ItemHelp": "",
      "ItemID": 16387,
      "ItemInDD": true,
      "ItemInfo": {
        "Message": "",
        "NotificationType": "START"
      },
      "ItemLabel": "Post Edit Action 2",
      "ItemType": "METHOD"
    },
    {
      "ItemContainerTag": "",
      "ItemHelp": "",
      "ItemID": 16387,
      "ItemInDD": true,
      "ItemInfo": {
        "Message": "Post Edit Action 2 method begins.",
        "NotificationType": "ACK"
      },
      "ItemLabel": "Post Edit Action 2",
      "ItemType": "METHOD"
    },
    {
      "ItemContainerTag": "",
      "ItemHelp": "",
      "ItemID": 16387,
      "ItemInDD": true,
      "ItemInfo": {
        "ItemClass": 0,
        "Message": "Enter local variable value.",
        "MethodVarInfo": {
          "ItemContainerTag": "",
          "ItemHelp": "Class:Local , Default Value, Type:Integer , Display Format , Edit Format , Min Value , Max Value",
          "ItemID": 16417,
          "ItemInDD": true,
          "ItemInfo": {
            "ItemClass": 0,
            "ItemReadOnly": false,
            "VarInfo": {
              "VarUnit": "degC",
              "VarValDisplayFormat": "4d",
              "VarValEditFormat": "4d",
              "VarValRange": [
                {
                  "VarValMax": -50,
                  "VarValMin": -100
                },
                {
                  "VarValMax": 50,
                  "VarValMin": 1
                }
              ],
              "VarValType": "INTEGER",
              "VarValue": 4
            },
            "VarType": "ARITHMETIC"
          },
          "ItemLabel": "Integer",
          "ItemType": "VARIABLE"
        },
        "NotificationType": "GETVALUE"
      },
      "ItemLabel": "Post Edit Action 2",
      "ItemType": "METHOD"
    },
    {
      "ItemContainerTag": "",
      "ItemHelp": "",
      "ItemID": 16387,
      "ItemInDD": true,
      "ItemInfo": {
        "Message": "Post Edit Action 2 method executed successfully.",
        "NotificationType": "ACK"
      },
      "ItemLabel": "Post Edit Action 2",
      "ItemType": "METHOD"
    },
    {
      "ItemContainerTag": "",
      "ItemHelp": "",
      "ItemID": 16387,
      "ItemInDD": true,
      "ItemInfo": {
        "Message": "",
        "NotificationType": "COMPLETED"
      },
      "ItemLabel": "Post Edit Action 2",
      "ItemType": "METHOD"
    },
    {
      "ItemInfo": {
        "ItemID": 16603,
        "VarContainerID": 0,
        "VarSubIndex": 0
      },
      "ItemStatus": {
        "result": "ok"
      },
      "ItemStatusClass": "EDIT_ACTION"
    }
  ]
}