{
  "Request": [
    {"ItemContainerTag":"",
      "ItemID":167,
      "ItemInfo":{"VarValue":0},
      "ItemReqType":"WRITE","ItemType":"VARIABLE"
    },
    {"ItemContainerTag":"",
      "ItemID":167,
      "ItemInfo":{"VarValue":1},
      "ItemReqType":"WRITE","ItemType":"VARIABLE"
    }],

  "Response":
  {
    "CommandName" : "SetItem",
    "CommandResponse" : {
      "result" : "ok"
    }
  }
}