{"Request":
{"ItemContainerTag":"","ItemID":16962,"ItemInDD":true,"ItemType":"IMAGE"},

"Response":
{
	"CommandName": "GetItem",
	"CommandResponse": {
		"result": {
			"ItemContainerTag": "",
			"ItemHelp": "",
			"ItemID": 16962,
			"ItemInDD": true,
			"ItemInfo": {
				"ImagePath": "/home/fluke/Desktop/build90/digipro/build/x86/release/bin/16962sUwHxu"
			},
			"ItemLabel": "Device Image",
			"ItemType": "IMAGE"
		}
	}
}

}