{
  "Subscription": {
      "Create": {
          "Request": {
        "ItemAction":"create",
        "ItemList":[
          {"ItemContainerTag":"",
            "ItemID":163,
            "ItemInfo":{
              "VarBitIndex":0,
              "VarContainerID":0,
              "VarSubIndex":0}}
        ],
        "ItemRefreshRate":1},
          "Response": {
            "CommandName" : "ProcessSubscription",
            "CommandResponse" : {
              "result": {
                "ItemSubscriptionID": 2
              }
            }
          }},
      "Start": {
          "Request": {
              "ItemAction": "start",
              "ItemSubscriptionID" : 2
          },
          "Response": {
             "CommandName" : "ProcessSubscription",
             "CommandResponse" : {
                "result" : "ok"
            }
          }
      },
      "Stop": {
          "Request": {
              "ItemAction": "stop",
              "ItemSubscriptionID" : 2
          },
          "Response": {
             "CommandName" : "ProcessSubscription",
             "CommandResponse" : {
                "result" : "ok"
            }
          }
      },
      "Delete": {
          "Request": {
              "ItemAction": "delete",
              "ItemSubscriptionID" : 2
          },
          "Response":  {
             "CommandName" : "ProcessSubscription",
             "CommandResponse" : {
                "result" : "ok"
            }
          }
      },
     "Notify":
{
   "ItemList" : [
      {
         "ItemID" : 163,
          "ItemInfo" : {
            "VarInfo" : {
              "VarValue" : "644HART "
            }
          }
        }

   ],
   "ItemSubscriptionID" : 2,
   "ItemType" : "VARIABLE"
}

}
}








