{
  "Request":[
    {
      "ItemContainerTag": "",
      "ItemID": 210,
      "ItemInDD": true,
      "ItemType": "VARIABLE"
    },
    {"ItemContainerTag":"",
      "ItemID":210,
      "ItemInfo":{"VarValue":"HART-644"},
      "ItemReqType":"WRITE",
      "ItemType":"VARIABLE"},
    {"ItemContainerTag":"",
      "ItemID":210,
      "ItemInfo":{"VarValue":"r@HART-644#Fluke~//n'n*****Max length allowed is max of 32 ISO Latin 1 characters*****"},
      "ItemReqType":"WRITE",
      "ItemType":"VARIABLE"},
    {"ItemContainerTag":"",
      "ItemID":210,
      "ItemInfo":{"VarValue":-32},
      "ItemReqType":"WRITE",
      "ItemType":"VARIABLE"}
    ],

"Response":[
{
   "CommandName" : "GetItem",
   "CommandResponse" : {
      "result" : {
         "ItemContainerTag" : "",
         "ItemHelp" : "Long Tag- Functions exactly like Tag except the size is larger (max of 32 ISO Latin 1 characters).",
         "ItemID" : 210,
         "ItemInDD" : true,
         "ItemInfo" : {
            "ItemClass" : 2048,
            "ItemReadOnly" : false,
            "VarInfo" : {
              "VarCharSet" : "ISO Latin-1",
              "VarValLength": 32,
              "VarValType" : "ASCII",
               "VarValue" : "HART-644"
            },
            "VarType" : "STRING"
         },
         "ItemLabel" : "Long Tag",
         "ItemType" : "VARIABLE"
      }
   }
},
  {
    "CommandName": "SetItem",
    "CommandResponse": {
      "result": "ok"
    }
  },
  {
   "CommandName" : "SetItem",
   "CommandResponse" : {
      "error" : {
         "code" : 91101,
         "message" : "Failed to write value to the device."
      }
   }
},
  {
   "CommandName" : "GetItem",
   "CommandResponse" : {
      "result" : {
         "ItemContainerTag" : "",
         "ItemHelp" : "Long Tag- Functions exactly like Tag except the size is larger (max of 32 ISO Latin 1 characters).",
         "ItemID" : 210,
         "ItemInDD" : true,
         "ItemInfo" : {
            "ItemClass" : 2048,
            "ItemReadOnly" : false,
            "VarInfo" : {
               "VarCharSet" : "ISO Latin-1",
               "VarValLength" : 32,
               "VarValType" : "ASCII",
               "VarValue" : "r@HART-644#Fluke~//n'n*****Max l"
            },
            "VarType" : "STRING"
         },
         "ItemLabel" : "Long Tag",
         "ItemType" : "VARIABLE"
      }
   }
}

  ]
}

