{
  "Request": {
    "ItemContainerTag": "",
    "ItemID": 16969,
    "ItemInDD": true,
    "ItemType": "Menu"
  },
  "Response": {
    "CommandName" : "GetItem",
    "CommandResponse" : {
      "error" : {
        "code" : 91001,
        "message" : "Failed to fetch item information."
      }
    }
  }

}
