{
  "Request":[
{"ItemContainerTag":"",
  "ItemID":163,
  "ItemInDD":true,
  "ItemType":"VARIABLE"
},
    {"ItemContainerTag":"",
      "ItemID":163,
      "ItemInfo":{"VarValue":"644HART"},
      "ItemReqType":"WRITE",
      "ItemType":"VARIABLE"
  },

{"ItemContainerTag": "",
"ItemID": 163,
"ItemInfo": {
"VarValue": "644HARTDEVICE"},
"ItemReqType": "WRITE",
"ItemType": "VARIABLE"}

],

"Response":[
{
   "CommandName" : "GetItem",
   "CommandResponse" : {
      "result" : {
         "ItemContainerTag" : "",
         "ItemHelp" : "Tag- Text that is associated with the Field Device installation. This text can be used by the user in any way. A recommended use is as a unique label to a plant that correlates to a Field Device label: a plant drawing, or on a Control System. This variable is also used as a type of data link layer address handle.",
         "ItemID" : 163,
         "ItemInDD" : true,
         "ItemInfo" : {
            "ItemClass" : 2048,
            "ItemReadOnly" : false,
            "VarInfo" : {
               "VarCharSet" : "ISO Latin-1",
               "VarValLength" : 8,
               "VarValType" : "PACKED_ASCII",
               "VarValue" : "644HART "
            },
            "VarType" : "STRING"
         },
         "ItemLabel" : "Tag",
         "ItemType" : "VARIABLE"
      }
   }
},

  {
    "CommandName": "SetItem",
    "CommandResponse": {
      "result": "ok"
    }
  },

  {"CommandName": "SetItem", "CommandResponse": {"error": {"code": 91101, "message": "Failed to write value to the device."}}},{
   "CommandName" : "GetItem",
   "CommandResponse" : {
      "result" : {
         "ItemContainerTag" : "",
         "ItemHelp" : "Tag- Text that is associated with the Field Device installation. This text can be used by the user in any way. A recommended use is as a unique label to a plant that correlates to a Field Device label: a plant drawing, or on a Control System. This variable is also used as a type of data link layer address handle.",
         "ItemID" : 163,
         "ItemInDD" : true,
         "ItemInfo" : {
            "ItemClass" : 2048,
            "ItemReadOnly" : false,
            "VarInfo" : {
               "VarCharSet" : "ISO Latin-1",
               "VarValLength" : 8,
               "VarValType" : "PACKED_ASCII",
               "VarValue" : "644HARTD"
            },
            "VarType" : "STRING"
         },
         "ItemLabel" : "Tag",
         "ItemType" : "VARIABLE"
      }
   }
}
]
}
