{
  "Request":[
    {"ItemContainerTag":"",
      "ItemID":167,
      "ItemInDD":true,
      "ItemType":"VARIABLE"
    },

    {"ItemContainerTag":"",
      "ItemID":167,
      "ItemInfo":{"VarValue":1},
      "ItemReqType":"WRITE",
      "ItemType":"VARIABLE"
    },


    {"ItemContainerTag":"",
      "ItemID":167,
      "ItemInDD":true,
      "ItemType":"VARIABLE"
    },

    {"ItemContainerTag":"",
      "ItemID":167,
      "ItemInfo":{"VarValue":0},
      "ItemReqType":"WRITE",
      "ItemType":"VARIABLE"
    }
  ],

  "Response": [
    {
      "CommandName" : "GetItem",
      "CommandResponse" : {
        "result" : {
          "ItemContainerTag" : "",
          "ItemHelp" : "Write Protect Mode- Indicates whether variables can be written to the Field Device, or whether commands that cause actions, to be performed in the Field Device, can or cannot occur. Depending on the Field Device, this is a mode that is controllable by the user, either via the Field Device hardware or the HART Protocol.",
          "ItemID" : 167,
          "ItemInDD" : true,
          "ItemInfo" : {
            "ItemClass" : 2048,
            "ItemReadOnly" : false,
            "VarInfo" : {
              "VarValEnum" : 0,
              "VarValType" : "ENUMERATION",
              "VarValue" : [
                {
                  "VarEnumHelp" : "",
                  "VarEnumLabel" : "Off",
                  "VarEnumValue" : 0
                },
                {
                  "VarEnumHelp" : "",
                  "VarEnumLabel" : "On",
                  "VarEnumValue" : 1
                }
              ]
            },
            "VarType" : "ENUMERATION"
          },
          "ItemLabel" : "Software Write Protect",
          "ItemType" : "VARIABLE"
        }
      }
    },
    {
      "CommandName": "SetItem",
      "CommandResponse": {
        "result": "ok"
      }
    },
    {
      "CommandName" : "GetItem",
      "CommandResponse" : {
        "result" : {
          "ItemContainerTag" : "",
          "ItemHelp" : "Write Protect Mode- Indicates whether variables can be written to the Field Device, or whether commands that cause actions, to be performed in the Field Device, can or cannot occur. Depending on the Field Device, this is a mode that is controllable by the user, either via the Field Device hardware or the HART Protocol.",
          "ItemID" : 167,
          "ItemInDD" : true,
          "ItemInfo" : {
            "ItemClass" : 2048,
            "ItemReadOnly" : false,
            "VarInfo" : {
              "VarValEnum" : 1,
              "VarValType" : "ENUMERATION",
              "VarValue" : [
                {
                  "VarEnumHelp" : "",
                  "VarEnumLabel" : "Off",
                  "VarEnumValue" : 0
                },
                {
                  "VarEnumHelp" : "",
                  "VarEnumLabel" : "On",
                  "VarEnumValue" : 1
                }
              ]
            },
            "VarType" : "ENUMERATION"
          },
          "ItemLabel" : "Software Write Protect",
          "ItemType" : "VARIABLE"
        }
      }
    },
    {
      "CommandName": "SetItem",
      "CommandResponse": {
        "result": "ok"
      }
    }

  ]
}