{"Request":
{"ItemContainerTag":"","ItemID":16969,"ItemInDD":true,"ItemType":"IMAGE"},

	"Response":
	{
		"CommandName": "GetItem",
		"CommandResponse": {
			"result": {
				"ItemContainerTag": "",
				"ItemHelp": "",
				"ItemID": 16969,
				"ItemInDD": true,
				"ItemInfo": {
					"ImagePath": "/home/fluke/Desktop/build90/digipro/build/x86/release/bin/16969NPbJpa"
				},
				"ItemLabel": "Alert Image",
				"ItemType": "IMAGE"
			}
		}
	}
}