{
   "Request":
   {"ItemContainerTag":"","ItemID":16518,"ItemInDD":true,"ItemType":"VARIABLE"},

   "Response":
   {
      "CommandName" : "GetItem",
      "CommandResponse" : {
         "result" : {
            "ItemContainerTag" : "",
            "ItemHelp" : "Upper Sensor Limit Value- Defines the maximum usable value for the Upper Range Value.",
            "ItemID" : 16518,
            "ItemInDD" : true,
            "ItemInfo" : {
               "ItemClass" : 8,
               "ItemReadOnly" : true,
               "VarInfo" : {
                  "VarUnit" : "Ohms",
                  "VarValDisplayFormat" : "3.2f",
                  "VarValEditFormat" : "12.5f",
                  "VarValIsINF" : false,
                  "VarValIsNAN" : false,
                  "VarValType" : "FLOAT",
                  "VarValRange": [{"VarValMax": 3.4028230607370965e+38, "VarValMin": -3.4028230607370965e+38}],
                  "VarValue" : 2000.0
               },
               "VarType" : "ARITHMETIC"
            },
            "ItemLabel" : "Upper Sensor Limit",
            "ItemType" : "VARIABLE"
         }
      }
   }

}