{
  "FF": {
    "Request": {
      "Protocol": "HART"
    },
    "Response": {
      "CommandName": "SetProtocolType",
      "CommandResponse": {
        "error": {
          "code": 90100,
          "message": "Set protocol failed."
        }
      }
    }
  }
}
