{
  "Request": [
    {
      "ItemContainerTag": "",
      "ItemID": 4211,
      "ItemInDD": true,
      "ItemType": "METHOD"
    },
    {
      "ItemContainerTag": "",
      "ItemID": 0,
      "ItemInfo": {
        "VarValue": 1
      },
      "ItemReqType": "",
      "ItemType": "METHOD"
    }
  ],
  "Response": [
    {
      "CommandName": "GetItem",
      "CommandResponse": {
        "result": "ok"
      }
    },
    {
      "CommandName": "SetItem",
      "CommandResponse": {
        "result": "ok"
      }
    }
  ],
  "Notification": [
    {
      "ItemContainerTag": "",
      "ItemHelp": "Lock/Unlock",
      "ItemID": 4211,
      "ItemInDD": true,
      "ItemInfo": {
        "Message": "",
        "NotificationType": "START"
      },
      "ItemLabel": "Lock/Unlock",
      "ItemType": "METHOD"
    },
    {
      "ItemContainerTag": "",
      "ItemHelp": "Lock/Unlock",
      "ItemID": 4211,
      "ItemInDD": true,
      "ItemInfo": {
        "ItemClass": 0,
        "Message": "If locked, the device must be unlocked before changing configuration.",
        "MethodVarInfo": {
          "ItemContainerTag": "",
          "ItemHelp": "If unlocked, the device can be accessed by any host.If lock is selected, all writes to the transmitter configuration are prevented, until any host unlocks the device.",
          "ItemID": 17595,
          "ItemInDD": true,
          "ItemInfo": {
            "ItemClass": 0,
            "ItemReadOnly": false,
            "VarInfo": {
              "VarEnumInfo": [
                {
                  "VarEnumHelp": "",
                  "VarEnumLabel": "Unlock",
                  "VarEnumValue": 1
                },
                {
                  "VarEnumHelp": "",
                  "VarEnumLabel": "Lock",
                  "VarEnumValue": 2
                }
              ],
              "VarValType": "ENUMERATION",
              "VarValue": 2
            },
            "VarType": "ENUMERATION"
          },
          "ItemLabel": "HART Lock",
          "ItemType": "VARIABLE"
        },
        "NotificationType": "GETVALUE"
      },
      "ItemLabel": "Lock/Unlock",
      "ItemType": "METHOD"
    },
    {
      "ItemContainerTag": "",
      "ItemHelp": "Lock/Unlock",
      "ItemID": 4211,
      "ItemInDD": true,
      "ItemInfo": {
        "Message": "Method Complete",
        "NotificationType": "DISPLAY"
      },
      "ItemLabel": "Lock/Unlock",
      "ItemType": "METHOD"
    },
    {
      "ItemContainerTag": "",
      "ItemHelp": "Lock/Unlock",
      "ItemID": 4211,
      "ItemInDD": true,
      "ItemInfo": {
        "Message": "",
        "NotificationType": "COMPLETED"
      },
      "ItemLabel": "Lock/Unlock",
      "ItemType": "METHOD"
    }
  ]
}



