{
  "Request": [
    {
      "ItemContainerTag": "",
      "ItemID": 0,
      "ItemInfo": {
        "VarValue": 1
      },
      "ItemReqType": "SELECTION",
      "ItemType": "METHOD"
    },
    {
      "ItemContainerTag": "",
      "ItemID": 0,
      "ItemInfo": {
        "VarValue": 0
      },
      "ItemReqType": "",
      "ItemType": "METHOD"
    }
  ],
  "Response": [
    {
      "CommandName": "SetItem",
      "CommandResponse": {
        "result": "ok"
      }
    },
    {
      "CommandName": "SetItem",
      "CommandResponse": {
        "result": "ok"
      }
    }
  ],
  "Notification": [
    {
      "ItemContainerTag": "",
      "ItemHelp": "Loop test- Allows the User to manually manipulate the Analog Output to a selected constant output value.",
      "ItemID": 4131,
      "ItemInDD": true,
      "ItemInfo": {
        "Message": "Field device output is fixed at 4.000 mA.",
        "NotificationType": "ACK"
      },
      "ItemLabel": "Perform Loop Test",
      "ItemType": "METHOD"
    },
    {
      "ItemContainerTag": "",
      "ItemHelp": "Loop test- Allows the User to manually manipulate the Analog Output to a selected constant output value.",
      "ItemID": 4131,
      "ItemInDD": true,
      "ItemInfo": {
        "ItemClass": 0,
        "Message": "Choose Analog Output Level:",
        "MethodVarInfo": {
          "ItemContainerTag": "",
          "ItemHelp": "",
          "ItemID": 0,
          "ItemInDD": true,
          "ItemInfo": {
            "ItemClass": 0,
            "ItemReadOnly": false,
            "VarInfo": {
              "VarEnumInfo": [
                {
                  "VarEnumHelp": "",
                  "VarEnumLabel": "4 mA",
                  "VarEnumValue": 1
                },
                {
                  "VarEnumHelp": "",
                  "VarEnumLabel": "20 mA",
                  "VarEnumValue": 2
                },
                {
                  "VarEnumHelp": "",
                  "VarEnumLabel": "Simulate Alarm",
                  "VarEnumValue": 3
                },
                {
                  "VarEnumHelp": "",
                  "VarEnumLabel": "Other",
                  "VarEnumValue": 4
                },
                {
                  "VarEnumHelp": "",
                  "VarEnumLabel": "Exit",
                  "VarEnumValue": 5
                }
              ],
              "VarValType": "ENUMERATION",
              "VarValue": 1
            },
            "VarType": "ENUMERATION"
          },
          "ItemLabel": "",
          "ItemType": "VARIABLE"
        },
        "NotificationType": "SELECTION"
      },
      "ItemLabel": "Perform Loop Test",
      "ItemType": "METHOD"
    }
  ]
}
