{
  "Request": [
    {
      "ItemContainerTag": "",
      "ItemID": 17118,
      "ItemInDD": true,
      "ItemType": "METHOD"
    },
    {
      "ItemContainerTag": "",
      "ItemID": 0,
      "ItemInfo": {
        "VarValue": 0
      },
      "ItemReqType": "",
      "ItemType": "METHOD"
    }
  ],
  "Response": [
    {
      "CommandName": "GetItem",
      "CommandResponse": {
        "result": "ok"
      }
    },
    {
      "CommandName": "SetItem",
      "CommandResponse": {
        "result": "ok"
      }
    }
  ],
  "Notification": [
    {
      "ItemContainerTag": "",
      "ItemHelp": "Configure Display",
      "ItemID": 17118,
      "ItemInDD": true,
      "ItemInfo": {
        "Message": "",
        "NotificationType": "START"
      },
      "ItemLabel": "Configure Display",
      "ItemType": "METHOD"
    },
    {
      "ItemContainerTag": "",
      "ItemHelp": "Configure Display",
      "ItemID": 17118,
      "ItemInDD": true,
      "ItemInfo": {
        "Message": "Aborting - Write Protection is enabled, it must be disabled prior to this operation.",
        "NotificationType": "ACK"
      },
      "ItemLabel": "Configure Display",
      "ItemType": "METHOD"
    },
    {
      "ItemContainerTag": "",
      "ItemHelp": "Configure Display",
      "ItemID": 17118,
      "ItemInDD": true,
      "ItemInfo": {
        "Message": "",
        "NotificationType": "COMPLETED"
      },
      "ItemLabel": "Configure Display",
      "ItemType": "METHOD"
    }
  ]
}