{
  "Request": [
    {
      "ItemContainerTag": "",
      "ItemID": 17118,
      "ItemInDD": true,
      "ItemType": "METHOD"
    },
    {
      "ItemContainerTag": "",
      "ItemID": 0,
      "ItemInfo": {
        "VarValue": 1
      },
      "ItemReqType": "",
      "ItemType": "METHOD"
    },
    {
      "ItemContainerTag": "",
      "ItemID": 0,
      "ItemInfo": {
        "VarValue": ""
      },
      "ItemReqType": "ABORT",
      "ItemType": "METHOD"
    }
  ],
  "Response": [
    {
      "CommandName": "GetItem",
      "CommandResponse": {
        "result": "ok"
      }
    },
    {
      "CommandName": "SetItem",
      "CommandResponse": {
        "result": "ok"
      }
    }
  ],
  "Notification": [
    {
      "ItemContainerTag": "",
      "ItemHelp": "Configure Display",
      "ItemID": 17118,
      "ItemInDD": true,
      "ItemInfo": {
        "Message": "",
        "NotificationType": "START"
      },
      "ItemLabel": "Configure Display",
      "ItemType": "METHOD"
    },
    {
      "ItemContainerTag": "",
      "ItemHelp": "Configure Display",
      "ItemID": 17118,
      "ItemInDD": true,
      "ItemInfo": {
        "ItemClass": 0,
        "Message": "Please select the variables to be displayed.\\n\\nVariables Displayed:",
        "MethodVarInfo": {
          "ItemContainerTag": "",
          "ItemHelp": "Meter Type - Display options for the LCD Meter.\\nNote - A meter does NOT have to be present to be configured. PV will display the xmtr variable that is mapped to it.",
          "ItemID": 17183,
          "ItemInDD": true,
          "ItemInfo": {
            "ItemClass": 0,
            "ItemReadOnly": false,
            "VarInfo": {
              "VarEnumInfo": [
                {
                  "VarEnumHelp": "",
                  "VarEnumLabel": "Sensor 1",
                  "VarEnumValue": 1
                },
                {
                  "VarEnumHelp": "",
                  "VarEnumLabel": "Terminal Temperature",
                  "VarEnumValue": 2
                },
                {
                  "VarEnumHelp": "",
                  "VarEnumLabel": "Primary Variable Temperature",
                  "VarEnumValue": 3
                },
                {
                  "VarEnumHelp": "",
                  "VarEnumLabel": "Percent of Range",
                  "VarEnumValue": 4
                },
                {
                  "VarEnumHelp": "",
                  "VarEnumLabel": "Analog Output",
                  "VarEnumValue": 5
                }
              ],
              "VarValType": "BITENUMERATION",
              "VarValue": 3
            },
            "VarType": "ENUMERATION"
          },
          "ItemLabel": "Variables Displayed",
          "ItemType": "VARIABLE"
        },
        "NotificationType": "GETVALUE"
      },
      "ItemLabel": "Configure Display",
      "ItemType": "METHOD"
    },
    {
      "ItemContainerTag": "",
      "ItemHelp": "Configure Display",
      "ItemID": 17118,
      "ItemInDD": true,
      "ItemInfo": {
        "ItemClass": 0,
        "Message": "Decimal Places:",
        "MethodVarInfo": {
          "ItemContainerTag": "",
          "ItemHelp": "Defines numerical precision, or how many digits to display to the right of the decimal point on the LCD meter.",
          "ItemID": 16604,
          "ItemInDD": true,
          "ItemInfo": {
            "ItemClass": 0,
            "ItemReadOnly": false,
            "VarInfo": {
              "VarEnumInfo": [
                {
                  "VarEnumHelp": "",
                  "VarEnumLabel": "Floating",
                  "VarEnumValue": 1
                },
                {
                  "VarEnumHelp": "",
                  "VarEnumLabel": "One",
                  "VarEnumValue": 2
                },
                {
                  "VarEnumHelp": "",
                  "VarEnumLabel": "Two",
                  "VarEnumValue": 3
                },
                {
                  "VarEnumHelp": "",
                  "VarEnumLabel": "Three",
                  "VarEnumValue": 4
                },
                {
                  "VarEnumHelp": "",
                  "VarEnumLabel": "Four",
                  "VarEnumValue": 5
                }
              ],
              "VarValType": "ENUMERATION",
              "VarValue": 1
            },
            "VarType": "ENUMERATION"
          },
          "ItemLabel": "Decimal Places",
          "ItemType": "VARIABLE"
        },
        "NotificationType": "GETVALUE"
      },
      "ItemLabel": "Configure Display",
      "ItemType": "METHOD"
    },
    {
      "ItemContainerTag": "",
      "ItemHelp": "Configure Display",
      "ItemID": 17118,
      "ItemInDD": true,
      "ItemInfo": {
        "Message": "",
        "NotificationType": "COMPLETED"
      },
      "ItemLabel": "Configure Display",
      "ItemType": "METHOD"
    }
  ]
}