{
  "Request": {
  },
  "Response": {
    "CommandName": "GetBusParameters",
    "CommandResponse": {
      "result": {
        "HART_BUS_PARAMS": {
          "Preamble": 5,
          "masterType": 1
        }
      }
    }
  }
}

