{
  "Request": [
    {
      "DeviceNodeAddress": 0
    },
    {
      "DeviceNodeAddress": 1
    },
    {
      "DeviceNodeAddress": 2
    },
    {
      "DeviceNodeAddress": 3
    },
    {
      "DeviceNodeAddress": 4
    },
    {
      "DeviceNodeAddress": 5
    },
    {
      "DeviceNodeAddress": 6
    },
    {
      "DeviceNodeAddress": 7
    }
  ],
  "Response": [
    {
      "CommandName": "Connect",
      "CommandResponse": {
        "error": {
          "code": 90600,
          "message": "Failed to connect to device."
        }
      }
    }
  ]
}


