{
  "Request": {
    "DeviceNodeAddress": 2
  },
  "Response": {
    "CommandName": "Connect",
    "CommandResponse": {
      "error": {
        "code": 90600,
        "message": "Failed to connect to device."
      }
    }
  }
}