{
  "Request": {
  },
  "Response": {
    "CommandName": "Initialize",
    "CommandResponse": {
      "error": {
        "code": 90102,
        "message": "Protocol is not set within CPM application and client tries to initialize the same."
      }
    }
  }
}
