{
  "Request": [
    {
      "HART_BUS_PARAMS": {
        "masterType": 22
      }
    },
    {
      "HART_BUS_PARAMS": {
        "masterType": -1
      }
    },
    {
      "HART_BUS_PARAMS": {
        "masterType": 1.2536
      }
    },
    {
      "HART_BUS_PARAMS": {
        "masterType": 3.2536
      }
    },
    {
      "HART_BUS_PARAMS": {
        "masterType": "SRT#$@HYJ"
      }
    }
  ],
  "Response": [
    {
      "CommandName": "SetBusParameters",
      "CommandResponse": {
        "error": {
          "code": 90305,
          "message": "Failed to set bus parameters into persistent storage."
        }
      }
    },
    {
      "CommandName": "SetBusParameters",
      "CommandResponse": {
        "result": "ok"
      }
    }
  ]
}

