{
  "Request": {
  },
  "Response": {
    "CommandName": "GetBusParameters",
    "CommandResponse": {
      "error": {
        "code": 90300,
        "message": "Failed to get bus parameters."
      }
    }
  }
}


