{
  "Request": {
    "DeviceNodeAddress": " "
  },
  "Response": {
    "CommandName": "Disconnect",
    "CommandResponse": {
      "error": {
        "code": 90601,
        "message": "Failed to disconnect from device."
      }
    }
  }
}
