{
  "FF": {
    "Request": {
      "DeviceNodeAddress": 33
    },
    "Response": {
      "CommandName": "Connect",
      "CommandResponse": {
        "error": {
          "code": 90104,
          "message": "Protocol stack is not initialized."
        }
      }
    }
  }
}
