{
  "Request": {
  },
  "Response": {
    "CommandName": "Initialize",
    "CommandResponse": {
      "error": {
        "code": 90102,
        "message": "GENERIC_ERR_CPM_PROTOCOL_NOT_SET_STR"
      }
    }
  }
}
