{
  "FF": {
    "Request": {
      "DeviceNodeAddress": 33
    },
    "Response": {
      "CommandName": "Connect",
      "CommandResponse": {
        "error": {
          "code": 90600,
          "message": "Failed to connect to device."
        }
      }
    }
  }
}
