{
  "StartScan": {
    "Request": {
    },
    "Response": {
      "CommandName": "StartScan",
      "CommandResponse": {
        "error": {
          "code": 90104,
          "message": "Protocol stack is not initialized."
        }
      }
    }
  }
}