{
  "Request": {
  },
  "Response": {
    "CommandName": "Shutdown",
    "CommandResponse": {
      "error": {
        "code": 90104,
        "message": "Protocol stack is not initialized."
      }
    }
  }
}

