{
  "Request": [
    {
      "ItemContainerTag": "",
      "ItemID": 166,
      "ItemInDD": true,
      "ItemType": "VARIABLE"
    },
    {
      "ItemContainerTag": "",
      "ItemID": 166,
      "ItemInfo": {
        "VarValue": 1525026600
      },
      "ItemReqType": "WRITE",
      "ItemType": "VARIABLE"
    },
    {
      "ItemContainerTag": "",
      "ItemID": 166,
      "ItemInfo": {
        "VarValue": 234.565
      },
      "ItemReqType": "WRITE",
      "ItemType": "VARIABLE"
    },
    {
      "ItemContainerTag": "",
      "ItemID": 166,
      "ItemInfo": {
        "VarValue": -1525026600
      },
      "ItemReqType": "WRITE",
      "ItemType": "VARIABLE"
    },
    {
      "ItemContainerTag": "",
      "ItemID": 166,
      "ItemInfo": {
        "VarValue": "DATE"
      },
      "ItemReqType": "WRITE",
      "ItemType": "VARIABLE"
    }
  ],
  "Response": [
    {
      "CommandName": "GetItem",
      "CommandResponse": {
        "result": {
          "ItemContainerTag": "",
          "ItemHelp": "Date - A formatted (mm/dd/yyyy) field available to enter and store a static date.",
          "ItemID": 166,
          "ItemInDD": true,
          "ItemInfo": {
            "ItemClass": 2048,
            "ItemReadOnly": false,
            "VarInfo": {
              "VarValDisplayFormat": "",
              "VarValRange": [
                {
                  "VarValMax": 2034943,
                  "VarValMin": 65792
                }
              ],
              "VarValType": "DATE",
              "VarValue": 1525026600
            },
            "VarType": "DATE_TIME"
          },
          "ItemLabel": "Date",
          "ItemType": "VARIABLE"
        }
      }
    },
    {
      "CommandName": "SetItem",
      "CommandResponse": {
        "result": "ok"
      }
    },
    {
      "CommandName": "SetItem",
      "CommandResponse": {
        "error": {
          "code": 91101,
          "message": "Failed to write value to the device."
        }
      }
    }
  ]
}