{
  "Request": {
    "ItemContainerTag": "",
    "ItemID": 5014,
    "ItemInDD": true,
    "ItemType": "VARIABLE"
  },
  "Response": {
    "CommandName": "GetItem",
    "CommandResponse": {
      "result": {
        "ItemContainerTag": "",
        "ItemHelp": "Upper Range Value- The digital process variable at the 20 mA point.  This defines the operational endpoint for the 4-20 mA analog output, and the 100% point of the Percent Range calculation.",
        "ItemID": 5014,
        "ItemInDD": true,
        "ItemInfo": {
          "ItemClass": 32,
          "ItemReadOnly": false,
          "VarInfo": {
            "VarUnit": "Pa",
            "VarValDisplayFormat": "11.5e",
            "VarValEditFormat": "11.5e",
            "VarValIsINF": false,
            "VarValIsNAN": false,
            "VarValRange": [
              {
                "VarValMax": 3.4028230607370965e+38,
                "VarValMin": -3.4028230607370965e+38
              }
            ],
            "VarValType": "FLOAT",
            "VarValue": 108381.6015625
          },
          "VarType": "ARITHMETIC"
        },
        "ItemLabel": "Upper Range Value (20 mA)",
        "ItemType": "VARIABLE"
      }
    }
  }
}