{
  "Request": [
    {
      "ItemContainerTag": "",
      "ItemID": 163,
      "ItemInDD": true,
      "ItemType": "VARIABLE"
    },
    {
      "ItemContainerTag": "",
      "ItemID": 163,
      "ItemInfo": {
        "VarValue": "HART3051"
      },
      "ItemReqType": "WRITE",
      "ItemType": "VARIABLE"
    },
    {
      "ItemContainerTag": "",
      "ItemID": 163,
      "ItemInfo": {
        "VarValue": "HART5   $%^&HGJ//"
      },
      "ItemReqType": "WRITE",
      "ItemType": "VARIABLE"
    },
    {
      "ItemContainerTag": "",
      "ItemID": 163,
      "ItemInfo": {
        "VarValue": 3
      },
      "ItemReqType": "WRITE",
      "ItemType": "VARIABLE"
    }
  ],
  "Response": [
    {
      "CommandName": "GetItem",
      "CommandResponse": {
        "result": {
          "ItemContainerTag": "",
          "ItemHelp": "Tag - An eight character free-form text field typically used to identify a field device.",
          "ItemID": 163,
          "ItemInDD": true,
          "ItemInfo": {
            "ItemClass": 2048,
            "ItemReadOnly": false,
            "VarInfo": {
              "VarCharSet": "ISO Latin-1",
              "VarValLength": 8,
              "VarValType": "PACKED_ASCII",
              "VarValue": "HART3051"
            },
            "VarType": "STRING"
          },
          "ItemLabel": "Tag",
          "ItemType": "VARIABLE"
        }
      }
    },
    {
      "CommandName": "SetItem",
      "CommandResponse": {
        "result": "ok"
      }
    },
    {
      "CommandName": "SetItem",
      "CommandResponse": {
        "error": {
          "code": 91101,
          "message": "Failed to write value to the device."
        }
      }
    },
    {
      "CommandName": "GetItem",
      "CommandResponse": {
        "result": {
          "ItemContainerTag": "",
          "ItemHelp": "Tag - An eight character free-form text field typically used to identify a field device.",
          "ItemID": 163,
          "ItemInDD": true,
          "ItemInfo": {
            "ItemClass": 2048,
            "ItemReadOnly": false,
            "VarInfo": {
              "VarCharSet": "ISO Latin-1",
              "VarValLength": 8,
              "VarValType": "PACKED_ASCII",
              "VarValue": "HART5   "
            },
            "VarType": "STRING"
          },
          "ItemLabel": "Tag",
          "ItemType": "VARIABLE"
        }
      }
    }
  ]
}