{
  "Subscription": {
    "Create": {
      "Request": {
        "ItemAction": "create",
        "ItemList": [
          {
            "ItemContainerTag": "",
            "ItemID": 9092,
            "ItemInfo": {
              "VarBitIndex": 1,
              "VarContainerID": 0,
              "VarSubIndex": 0
            }
          }
        ],
        "ItemRefreshRate": 5
      },
      "Response": {
        "CommandName": "ProcessSubscription",
        "CommandResponse": {
          "result": {
            "ItemSubscriptionID": 2
          }
        }
      }
    },
    "Start": {
      "Request": {
        "ItemAction": "start",
        "ItemSubscriptionID": 2
      },
      "Response": {
        "CommandName": "ProcessSubscription",
        "CommandResponse": {
          "result": "ok"
        }
      }
    },
    "Stop": {
      "Request": {
        "ItemAction": "stop",
        "ItemSubscriptionID": 2
      },
      "Response": {
        "CommandName": "ProcessSubscription",
        "CommandResponse": {
          "result": "ok"
        }
      }
    },
    "Delete": {
      "Request": {
        "ItemAction": "stop",
        "ItemSubscriptionID": 2
      },
      "Response": {
        "CommandName": "ProcessSubscription",
        "CommandResponse": {
          "result": "ok"
        }
      }
    },
    "Notify": {
      "ItemList": [
        {
          "ItemID": 9092,
          "ItemInfo": {
            "VarInfo": {
              "VarBitIndex": 1,
              "VarValue": true
            }
          }
        }
      ],
      "ItemSubscriptionID": 2,
      "ItemType": "VARIABLE"
    }
  }
}







