{
  "Request": [
    {
      "ItemContainerTag": "",
      "ItemID": 156,
      "ItemInDD": true,
      "ItemType": "VARIABLE"
    },
    {
      "ItemContainerTag": "",
      "ItemID": 156,
      "ItemInfo": {
        "VarValue": 2
      },
      "ItemReqType": "WRITE",
      "ItemType": "VARIABLE"
    }
  ],
  "Response": [
    {
      "CommandName": "GetItem",
      "CommandResponse": {
        "result": {
          "ItemContainerTag": "",
          "ItemHelp": "Universal HART Revision",
          "ItemID": 156,
          "ItemInDD": true,
          "ItemInfo": {
            "ItemClass": 128,
            "ItemReadOnly": true,
            "VarInfo": {
              "VarUnit": "",
              "VarValDisplayFormat": "4u",
              "VarValEditFormat": "4u",
              "VarValRange": [
                {
                  "VarValMax": 253,
                  "VarValMin": 0
                }
              ],
              "VarValType": "UNSIGNED_INTEGER",
              "VarValue": 1
            },
            "VarType": "ARITHMETIC"
          },
          "ItemLabel": "Universal Revision",
          "ItemType": "VARIABLE"
        }
      }
    },
    {
      "CommandName": "SetItem",
      "CommandResponse": {
        "error": {
          "code": 91103,
          "message": "Failed to set value, parameter is read only."
        }
      }
    }
  ]
}