{
  "Request": [
    {
      "ItemContainerTag": "",
      "ItemID": 169,
      "ItemInDD": true,
      "ItemType": "VARIABLE"
    },
    {
      "ItemContainerTag": "",
      "ItemID": 169,
      "ItemInfo": {
        "VarValue": 232
      },
      "ItemReqType": "WRITE",
      "ItemType": "VARIABLE"
    },
    {
      "ItemContainerTag": "",
      "ItemID": 169,
      "ItemInfo": {
        "VarValue": -232
      },
      "ItemReqType": "WRITE",
      "ItemType": "VARIABLE"
    },
    {
      "ItemContainerTag": "",
      "ItemID": 169,
      "ItemInfo": {
        "VarValue": 16777216
      },
      "ItemReqType": "WRITE",
      "ItemType": "VARIABLE"
    },
    {
      "ItemContainerTag": "",
      "ItemID": 169,
      "ItemInfo": {
        "VarValue": "SetValue"
      },
      "ItemReqType": "WRITE",
      "ItemType": "VARIABLE"
    },
    {
      "ItemContainerTag": "",
      "ItemID": 169,
      "ItemInfo": {
        "VarValue": 3.4
      },
      "ItemReqType": "WRITE",
      "ItemType": "VARIABLE"
    }
  ],
  "Response": [
    {
      "CommandName": "GetItem",
      "CommandResponse": {
        "result": {
          "ItemContainerTag": "",
          "ItemHelp": "An identification number, commonly a manufacturer final assembly number,  associated with the overall field device.",
          "ItemID": 169,
          "ItemInDD": true,
          "ItemInfo": {
            "ItemClass": 2048,
            "ItemReadOnly": false,
            "VarInfo": {
              "VarUnit": "",
              "VarValDisplayFormat": "11u",
              "VarValEditFormat": "8u",
              "VarValRange": [
                {
                  "VarValMax": 16777215,
                  "VarValMin": 0
                }
              ],
              "VarValType": "UNSIGNED_INTEGER",
              "VarValue": 232
            },
            "VarType": "ARITHMETIC"
          },
          "ItemLabel": "Transmitter S/N",
          "ItemType": "VARIABLE"
        }
      }
    },
    {
      "CommandName": "SetItem",
      "CommandResponse": {
        "result": "ok"
      }
    },
    {
      "CommandName": "SetItem",
      "CommandResponse": {
        "error": {
          "code": 91101,
          "message": "Failed to write value to the device."
        }
      }
    },
    {
      "CommandName": "GetItem",
      "CommandResponse": {
        "result": {
          "ItemContainerTag": "",
          "ItemHelp": "An identification number, commonly a manufacturer final assembly number,  associated with the overall field device.",
          "ItemID": 169,
          "ItemInDD": true,
          "ItemInfo": {
            "ItemClass": 2048,
            "ItemReadOnly": false,
            "VarInfo": {
              "VarUnit": "",
              "VarValDisplayFormat": "11u",
              "VarValEditFormat": "8u",
              "VarValRange": [
                {
                  "VarValMax": 16777215,
                  "VarValMin": 0
                }
              ],
              "VarValType": "UNSIGNED_INTEGER",
              "VarValue": 3
            },
            "VarType": "ARITHMETIC"
          },
          "ItemLabel": "Transmitter S/N",
          "ItemType": "VARIABLE"
        }
      }
    }
  ]
}