{
  "Request": {
    "ItemContainerTag": "",
    "ItemID": 1,
    "ItemInDD": false,
    "ItemType": "MENU"
  },
  "Response1": {
    "CommandName": "GetItem",
    "CommandResponse": {
      "result": {
        "ItemContainerTag": "",
        "ItemHelp": "Advanced Device Menu Options",
        "ItemID": 1,
        "ItemInDD": false,
        "ItemInfo": {
          "ItemList": [
            {
              "ItemContainerTag": "__resource_block_2",
              "ItemHelp": "",
              "ItemID": 2147617520,
              "ItemInDD": true,
              "ItemLabel": "RESOURCE        FBK2___155118192",
              "ItemType": "BLOCK"
            },
            {
              "ItemContainerTag": "CHANNELTB",
              "ItemHelp": "",
              "ItemID": 131189,
              "ItemInDD": true,
              "ItemLabel": "CHANNELTB       FBK2___155118192",
              "ItemType": "BLOCK"
            },
            {
              "ItemContainerTag": "VISUALTB",
              "ItemHelp": "",
              "ItemID": 131219,
              "ItemInDD": true,
              "ItemLabel": "VISUALTB        FBK2___155118192",
              "ItemType": "BLOCK"
            },
            {
              "ItemContainerTag": "DATATYPESTB",
              "ItemHelp": "",
              "ItemID": 131252,
              "ItemInDD": true,
              "ItemLabel": "DATATYPESTB     FBK2___155118192",
              "ItemType": "BLOCK"
            },
            {
              "ItemContainerTag": "COND1TB",
              "ItemHelp": "",
              "ItemID": 131334,
              "ItemInDD": true,
              "ItemLabel": "COND1TB         FBK2___155118192",
              "ItemType": "BLOCK"
            },
            {
              "ItemContainerTag": "COND2TB",
              "ItemHelp": "",
              "ItemID": 131434,
              "ItemInDD": true,
              "ItemLabel": "COND2TB         FBK2___155118192",
              "ItemType": "BLOCK"
            },
            {
              "ItemContainerTag": "TESTFB",
              "ItemHelp": "",
              "ItemID": 131107,
              "ItemInDD": true,
              "ItemLabel": "TFB             FBK2___155118192",
              "ItemType": "BLOCK"
            },
            {
              "ItemContainerTag": "__analog_input_block",
              "ItemHelp": "",
              "ItemID": 2147615184,
              "ItemInDD": true,
              "ItemLabel": "ANALOG_INPUT    FBK2___155118192",
              "ItemType": "BLOCK"
            },
            {
              "ItemContainerTag": "__analog_output_block",
              "ItemHelp": "",
              "ItemID": 2147615216,
              "ItemInDD": true,
              "ItemLabel": "ANALOG_OUTPUT   FBK2___155118192",
              "ItemType": "BLOCK"
            },
            {
              "ItemContainerTag": "__discrete_input_block",
              "ItemHelp": "",
              "ItemID": 2147615248,
              "ItemInDD": true,
              "ItemLabel": "DISCRETE_INPUT  FBK2___155118192",
              "ItemType": "BLOCK"
            },
            {
              "ItemContainerTag": "__discrete_output_block",
              "ItemHelp": "",
              "ItemID": 2147615280,
              "ItemInDD": true,
              "ItemLabel": "DISCRETE_OUTPUT FBK2___155118192",
              "ItemType": "BLOCK"
            },
            {
              "ItemContainerTag": "__mai_block",
              "ItemHelp": "",
              "ItemID": 2147617200,
              "ItemInDD": true,
              "ItemLabel": "MULTIPLE_AI     FBK2___155118192",
              "ItemType": "BLOCK"
            },
            {
              "ItemContainerTag": "__mao_block",
              "ItemHelp": "",
              "ItemID": 2147617232,
              "ItemInDD": true,
              "ItemLabel": "MULTIPLE_AO     FBK2___155118192",
              "ItemType": "BLOCK"
            },
            {
              "ItemContainerTag": "__mdi_block",
              "ItemHelp": "",
              "ItemID": 2147617136,
              "ItemInDD": true,
              "ItemLabel": "MULTIPLE_DI     FBK2___155118192",
              "ItemType": "BLOCK"
            },
            {
              "ItemContainerTag": "__mdo_block",
              "ItemHelp": "",
              "ItemID": 2147617168,
              "ItemInDD": true,
              "ItemLabel": "MULTIPLE_DO     FBK2___155118192",
              "ItemType": "BLOCK"
            },
            {
              "ItemContainerTag": "__custom_in_block",
              "ItemHelp": "",
              "ItemID": 2147620864,
              "ItemInDD": true,
              "ItemLabel": "CUSTOM_IN       FBK2___155118192",
              "ItemType": "BLOCK"
            },
            {
              "ItemContainerTag": "__custom_cntrl_block",
              "ItemHelp": "",
              "ItemID": 2147621120,
              "ItemInDD": true,
              "ItemLabel": "CUSTOM_CNTRL    FBK2___155118192",
              "ItemType": "BLOCK"
            },
            {
              "ItemContainerTag": "__custom_out_block",
              "ItemHelp": "",
              "ItemID": 2147621376,
              "ItemInDD": true,
              "ItemLabel": "CUSTOM_OUT      FBK2___155118192",
              "ItemType": "BLOCK"
            },
            {
              "ItemContainerTag": "__custom_calc_block",
              "ItemHelp": "",
              "ItemID": 2147621632,
              "ItemInDD": true,
              "ItemLabel": "CUSTOM_CALC     FBK2___155118192",
              "ItemType": "BLOCK"
            }
          ]
        },
        "ItemLabel": "Advanced",
        "ItemType": "MENU"
      }
    }
  },
  "Response2": {
    "CommandName": "GetItem",
    "CommandResponse": {
      "result": {
        "ItemContainerTag": "",
        "ItemHelp": "Advanced Device Menu Options",
        "ItemID": 1,
        "ItemInDD": false,
        "ItemInfo": {
          "ItemList": [
            {
              "ItemContainerTag": "__resource_block_2",
              "ItemHelp": "",
              "ItemID": 2147617520,
              "ItemInDD": true,
              "ItemLabel": "RESOURCE        FBK2___171323687",
              "ItemType": "BLOCK"
            },
            {
              "ItemContainerTag": "CHANNELTB",
              "ItemHelp": "",
              "ItemID": 131189,
              "ItemInDD": true,
              "ItemLabel": "CHANNELTB       FBK2___171323687",
              "ItemType": "BLOCK"
            },
            {
              "ItemContainerTag": "VISUALTB",
              "ItemHelp": "",
              "ItemID": 131219,
              "ItemInDD": true,
              "ItemLabel": "VISUALTB        FBK2___171323687",
              "ItemType": "BLOCK"
            },
            {
              "ItemContainerTag": "DATATYPESTB",
              "ItemHelp": "",
              "ItemID": 131252,
              "ItemInDD": true,
              "ItemLabel": "DATATYPESTB     FBK2___171323687",
              "ItemType": "BLOCK"
            },
            {
              "ItemContainerTag": "COND1TB",
              "ItemHelp": "",
              "ItemID": 131334,
              "ItemInDD": true,
              "ItemLabel": "COND1TB         FBK2___171323687",
              "ItemType": "BLOCK"
            },
            {
              "ItemContainerTag": "COND2TB",
              "ItemHelp": "",
              "ItemID": 131434,
              "ItemInDD": true,
              "ItemLabel": "COND2TB         FBK2___171323687",
              "ItemType": "BLOCK"
            },
            {
              "ItemContainerTag": "TESTFB",
              "ItemHelp": "",
              "ItemID": 131107,
              "ItemInDD": true,
              "ItemLabel": "TFB             FBK2___171323687",
              "ItemType": "BLOCK"
            },
            {
              "ItemContainerTag": "__analog_input_block",
              "ItemHelp": "",
              "ItemID": 2147615184,
              "ItemInDD": true,
              "ItemLabel": "ANALOG_INPUT    FBK2___171323687",
              "ItemType": "BLOCK"
            },
            {
              "ItemContainerTag": "__analog_output_block",
              "ItemHelp": "",
              "ItemID": 2147615216,
              "ItemInDD": true,
              "ItemLabel": "ANALOG_OUTPUT   FBK2___171323687",
              "ItemType": "BLOCK"
            },
            {
              "ItemContainerTag": "__discrete_input_block",
              "ItemHelp": "",
              "ItemID": 2147615248,
              "ItemInDD": true,
              "ItemLabel": "DISCRETE_INPUT  FBK2___171323687",
              "ItemType": "BLOCK"
            },
            {
              "ItemContainerTag": "__discrete_output_block",
              "ItemHelp": "",
              "ItemID": 2147615280,
              "ItemInDD": true,
              "ItemLabel": "DISCRETE_OUTPUT FBK2___171323687",
              "ItemType": "BLOCK"
            },
            {
              "ItemContainerTag": "__mai_block",
              "ItemHelp": "",
              "ItemID": 2147617200,
              "ItemInDD": true,
              "ItemLabel": "MULTIPLE_AI     FBK2___171323687",
              "ItemType": "BLOCK"
            },
            {
              "ItemContainerTag": "__mao_block",
              "ItemHelp": "",
              "ItemID": 2147617232,
              "ItemInDD": true,
              "ItemLabel": "MULTIPLE_AO     FBK2___171323687",
              "ItemType": "BLOCK"
            },
            {
              "ItemContainerTag": "__mdi_block",
              "ItemHelp": "",
              "ItemID": 2147617136,
              "ItemInDD": true,
              "ItemLabel": "MULTIPLE_DI     FBK2___171323687",
              "ItemType": "BLOCK"
            },
            {
              "ItemContainerTag": "__mdo_block",
              "ItemHelp": "",
              "ItemID": 2147617168,
              "ItemInDD": true,
              "ItemLabel": "MULTIPLE_DO     FBK2___171323687",
              "ItemType": "BLOCK"
            },
            {
              "ItemContainerTag": "__custom_in_block",
              "ItemHelp": "",
              "ItemID": 2147620864,
              "ItemInDD": true,
              "ItemLabel": "CUSTOM_IN       FBK2___171323687",
              "ItemType": "BLOCK"
            },
            {
              "ItemContainerTag": "__custom_cntrl_block",
              "ItemHelp": "",
              "ItemID": 2147621120,
              "ItemInDD": true,
              "ItemLabel": "CUSTOM_CNTRL    FBK2___171323687",
              "ItemType": "BLOCK"
            },
            {
              "ItemContainerTag": "__custom_out_block",
              "ItemHelp": "",
              "ItemID": 2147621376,
              "ItemInDD": true,
              "ItemLabel": "CUSTOM_OUT      FBK2___171323687",
              "ItemType": "BLOCK"
            },
            {
              "ItemContainerTag": "__custom_calc_block",
              "ItemHelp": "",
              "ItemID": 2147621632,
              "ItemInDD": true,
              "ItemLabel": "CUSTOM_CALC     FBK2___171323687",
              "ItemType": "BLOCK"
            }
          ]
        },
        "ItemLabel": "Advanced",
        "ItemType": "MENU"
      }
    }
  }
}