{
  "Request": [
    {
      "ItemContainerTag": "",
      "ItemID": 16423,
      "ItemInfo": {
        "VarValue": 230400000
      },
      "ItemReqType": "WRITE",
      "ItemType": "VARIABLE"
    },
    {
      "ItemContainerTag": "",
      "ItemID": 16424,
      "ItemInfo": {
        "VarValue": 64000
      },
      "ItemReqType": "WRITE",
      "ItemType": "VARIABLE"
    },
    {
      "ItemContainerTag": "",
      "ItemID": 16425,
      "ItemInfo": {
        "VarValue": 3840000
      },
      "ItemReqType": "WRITE",
      "ItemType": "VARIABLE"
    },
    {
      "ItemContainerTag": "",
      "ItemID": 16426,
      "ItemInfo": {
        "VarValue": 230400000
      },
      "ItemReqType": "WRITE",
      "ItemType": "VARIABLE"
    },
    {
      "ItemContainerTag": "",
      "ItemID": 16423,
      "ItemInfo": {
        "VarValue": -232
      },
      "ItemReqType": "WRITE",
      "ItemType": "VARIABLE"
    },
    {
      "ItemContainerTag": "",
      "ItemID": 16423,
      "ItemInfo": {
        "VarValue": 4294967298
      },
      "ItemReqType": "WRITE",
      "ItemType": "VARIABLE"
    },
    {
      "ItemContainerTag": "",
      "ItemID": 16423,
      "ItemInfo": {
        "VarValue": 167772181212
      },
      "ItemReqType": "WRITE",
      "ItemType": "VARIABLE"
    },
    {
      "ItemContainerTag": "",
      "ItemID": 16423,
      "ItemInfo": {
        "VarValue": 3.4
      },
      "ItemReqType": "WRITE",
      "ItemType": "VARIABLE"
    },
    {
      "ItemContainerTag": "",
      "ItemID": 16423,
      "ItemInfo": {
        "VarValue": "1234"
      },
      "ItemReqType": "WRITE",
      "ItemType": "VARIABLE"
    }
  ],
  "Response": [
    {
      "CommandName": "SetItem",
      "CommandResponse": {
        "result": "ok"
      }
    },
    {
      "CommandName": "SetItem",
      "CommandResponse": {
        "error": {
          "code": 91101,
          "message": "Failed to write value to the device."
        }
      }
    }
  ]
}
