{
  "Request": [
    {
      "ItemContainerTag": "",
      "ItemID": 16574,
      "ItemInDD": true,
      "ItemInfo": {
        "VarContainerID": 0,
        "VarSubIndex": 0
      },
      "ItemType": "VARIABLE"
    },
    {
      "ItemContainerTag": "",
      "ItemID": 16574,
      "ItemInfo": {
        "VarContainerID": 0,
        "VarSubIndex": 0,
        "VarValue": 72057594037927935
      },
      "ItemReqType": "WRITE",
      "ItemType": "VARIABLE"
    },
    {
      "ItemContainerTag": "",
      "ItemID": 16574,
      "ItemInfo": {
        "VarContainerID": 0,
        "VarSubIndex": 0,
        "VarValue": 72057594037927939
      },
      "ItemReqType": "WRITE",
      "ItemType": "VARIABLE"
    },
    {
      "ItemContainerTag": "",
      "ItemID": 16574,
      "ItemInfo": {
        "VarContainerID": 0,
        "VarSubIndex": 0,
        "VarValue": -129
      },
      "ItemReqType": "WRITE",
      "ItemType": "VARIABLE"
    }
  ],
  "Response": [
    {
      "CommandName": "GetItem",
      "CommandResponse": {
        "result": {
          "ItemContainerTag": "",
          "ItemHelp": "Class:Local, Size 7",
          "ItemID": 16574,
          "ItemInDD": true,
          "ItemInfo": {
            "ItemClass": 4096,
            "ItemReadOnly": false,
            "VarInfo": {
              "VarUnit": "",
              "VarValDisplayFormat": "20u",
              "VarValEditFormat": "20u",
              "VarValRange": [
                {
                  "VarValMax": 72057594037927935,
                  "VarValMin": 0
                }
              ],
              "VarValType": "UNSIGNED_INTEGER",
              "VarValue": 72057594037927935
            },
            "VarType": "ARITHMETIC"
          },
          "ItemLabel": "UInt Size 7",
          "ItemType": "VARIABLE"
        }
      }
    },
    {
      "CommandName": "SetItem",
      "CommandResponse": {
        "result": "ok"
      }
    },
    {
      "CommandName": "SetItem",
      "CommandResponse": {
        "error": {
          "code": 91101,
          "message": "Failed to write value to the device."
        }
      }
    }
  ]
}
