{
  "SetItem": {
    "Request": {
      "ItemID": 234,
      "ItemInfo": {
        "VarValue": 90.5
      },
      "ItemReqType": "WRITE",
      "ItemType": "VARIABLE"
    },
    "Response": {
      "CommandName": "SetItem",
      "CommandResponse": {
        "result": "ok"
      }
    }
  },
  "GetItem": {
    "Request": {
      "ItemID": 234,
      "ItemInDD": true,
      "ItemType": "VARIABLE"
    },
    "Response": {
      "CommandName": "GetItem",
      "CommandResponse": {
        "result": {
          "ItemContainerTag": "",
          "ItemHelp": "Class:Range, Type:Float, Display format , Edit format , Scaling Factor 2, Pre write actions",
          "ItemID": 234,
          "ItemInDD": true,
          "ItemInfo": {
            "ItemClass": 32,
            "ItemReadOnly": false,
            "VarInfo": {
              "VarUnit": "",
              "VarValDisplayFormat": "3.3f",
              "VarValEditFormat": "5.3f",
              "VarValIsINF": false,
              "VarValIsNAN": false,
              "VarValRange": [
                {
                  "VarValMax": 3.4028230607370965e+38,
                  "VarValMin": -3.4028230607370965e+38
                }
              ],
              "VarValType": "FLOAT",
              "VarValue": 90.5
            },
            "VarType": "ARITHMETIC"
          },
          "ItemLabel": "PV URV",
          "ItemType": "VARIABLE"
        }
      }
    }
  }
}






