{
  "SetItem": {
    "Request": {
      "ItemID": 235,
      "ItemInfo": {
        "VarValue": 1
      },
      "ItemReqType": "WRITE",
      "ItemType": "VARIABLE"
    },
    "Response": {
      "CommandName": "SetItem",
      "CommandResponse": {
        "result": "ok"
      }
    }
  },
  "GetItem": {
    "Request": {
      "ItemID": 235,
      "ItemInDD": true,
      "ItemType": "VARIABLE"
    },
    "Response": {
      "CommandName": "GetItem",
      "CommandResponse": {
        "result": {
          "ItemContainerTag": "",
          "ItemHelp": "Class:Range , Type:Float , Display format , Edit format , Pre read actions, Post write actions, Pre write actions",
          "ItemID": 235,
          "ItemInDD": true,
          "ItemInfo": {
            "ItemClass": 32,
            "ItemReadOnly": false,
            "VarInfo": {
              "VarUnit": "",
              "VarValDisplayFormat": "3.3f",
              "VarValEditFormat": "5.3f",
              "VarValIsINF": false,
              "VarValIsNAN": false,
              "VarValRange": [
                {
                  "VarValMax": 3.4028230607370965e+38,
                  "VarValMin": -3.4028230607370965e+38
                }
              ],
              "VarValType": "FLOAT",
              "VarValue": 1.0
            },
            "VarType": "ARITHMETIC"
          },
          "ItemLabel": "PV LRV",
          "ItemType": "VARIABLE"
        }
      }
    }
  },
  "Subscription": {
    "Create": {
      "Request": {
        "ItemAction": "create",
        "ItemList": [
          {
            "ItemContainerTag": "",
            "ItemID": 235,
            "ItemInfo": {
              "VarBitIndex": 0,
              "VarContainerID": 0,
              "VarSubIndex": 0
            }
          }
        ],
        "ItemRefreshRate": 2
      },
      "Response": {
        "CommandName": "ProcessSubscription",
        "CommandResponse": {
          "result": {
            "ItemSubscriptionID": 2
          }
        }
      }
    },
    "Start": {
      "Request": {
        "ItemAction": "start",
        "ItemSubscriptionID": 2
      },
      "Response": {
        "CommandName": "ProcessSubscription",
        "CommandResponse": {
          "result": "ok"
        }
      }
    },
    "Stop": {
      "Request": {
        "ItemAction": "stop",
        "ItemSubscriptionID": 2
      },
      "Response": {
        "CommandName": "ProcessSubscription",
        "CommandResponse": {
          "result": "ok"
        }
      }
    },
    "Delete": {
      "Request": {
        "ItemAction": "stop",
        "ItemSubscriptionID": 2
      },
      "Response": {
        "CommandName": "ProcessSubscription",
        "CommandResponse": {
          "result": "ok"
        }
      }
    },
    "Notify": {
      "ItemList": [
        {
          "ItemID": 235,
          "ItemInfo": {
            "VarInfo": {
              "VarValIsINF": false,
              "VarValIsNAN": false,
              "VarValue": 37.099998474121094
            }
          }
        }
      ],
      "ItemSubscriptionID": 4,
      "ItemType": "VARIABLE"
    }
  }
}


