{
  "Request": [
    {
      "ItemContainerTag": "",
      "ItemID": 16562,
      "ItemInDD": true,
      "ItemInfo": {
        "VarContainerID": 0,
        "VarSubIndex": 0
      },
      "ItemType": "VARIABLE"
    },
    {
      "ItemContainerTag": "",
      "ItemID": 16562,
      "ItemInfo": {
        "VarContainerID": 0,
        "VarSubIndex": 0,
        "VarValue": 8388607
      },
      "ItemReqType": "WRITE",
      "ItemType": "VARIABLE"
    },
    {
      "ItemContainerTag": "",
      "ItemID": 16562,
      "ItemInfo": {
        "VarContainerID": 0,
        "VarSubIndex": 0,
        "VarValue": 9488607
      },
      "ItemReqType": "WRITE",
      "ItemType": "VARIABLE"
    },
    {
      "ItemContainerTag": "",
      "ItemID": 16562,
      "ItemInfo": {
        "VarContainerID": 0,
        "VarSubIndex": 0,
        "VarValue": -9488609
      },
      "ItemReqType": "WRITE",
      "ItemType": "VARIABLE"
    },
    {
      "ItemContainerTag": "",
      "ItemID": 16562,
      "ItemInfo": {
        "VarContainerID": 0,
        "VarSubIndex": 0,
        "VarValue": "jhj"
      },
      "ItemReqType": "WRITE",
      "ItemType": "VARIABLE"
    }
  ],
  "Response": [
    {
      "CommandName": "GetItem",
      "CommandResponse": {
        "result": {
          "ItemContainerTag": "",
          "ItemHelp": "Class:Local, Size 3",
          "ItemID": 16562,
          "ItemInDD": true,
          "ItemInfo": {
            "ItemClass": 4096,
            "ItemReadOnly": false,
            "VarInfo": {
              "VarUnit": "",
              "VarValDisplayFormat": "11d",
              "VarValEditFormat": "11d",
              "VarValRange": [
                {
                  "VarValMax": 8388607,
                  "VarValMin": -8388608
                }
              ],
              "VarValType": "INTEGER",
              "VarValue": 8388607
            },
            "VarType": "ARITHMETIC"
          },
          "ItemLabel": "Integer Size 3",
          "ItemType": "VARIABLE"
        }
      }
    },
    {
      "CommandName": "SetItem",
      "CommandResponse": {
        "result": "ok"
      }
    },
    {
      "CommandName": "SetItem",
      "CommandResponse": {
        "error": {
          "code": 91101,
          "message": "Failed to write value to the device."
        }
      }
    }
  ]
}