{
  "Request": [
    {
      "ItemID": 16413,
      "ItemReqType": "EDIT",
      "ItemType": "VARIABLE"
    },
    {
      "ItemID": 16552,
      "ItemReqType": "EDIT",
      "ItemType": "VARIABLE"
    },
    {
      "ItemContainerTag": "",
      "ItemID": 0,
      "ItemType": "METHOD",
      "ItemInfo": {
        "VarValue": 1
      },
      "ItemReqType": ""
    },
    {
      "ItemContainerTag": "",
      "ItemID": 0,
      "ItemType": "METHOD",
      "ItemInfo": {
        "VarValue": 0
      },
      "ItemReqType": ""
    },
    {
      "ItemContainerTag": "",
      "ItemID": 0,
      "ItemType": "METHOD",
      "ItemInfo": {
        "VarValue": 2
      },
      "ItemReqType": ""
    }
  ],
  "Response": [
    {
      "CommandName": "SetItem",
      "CommandResponse": {
        "error": {
          "code": 91107,
          "message": "No Pre Edit Action is configured."
        }
      }
    },
    {
      "CommandName": "SetItem",
      "CommandResponse": {
        "error": {
          "code": 91104,
          "message": "Pre Edit Action is in progress."
        }
      }
    },
    {
      "CommandName": "SetItem",
      "CommandResponse": {
        "result": "ok"
      }
    }
  ],
  "Notification": [
    {
      "ItemContainerTag": "",
      "ItemHelp": "",
      "ItemID": 16402,
      "ItemInDD": true,
      "ItemInfo": {
        "Message": "",
        "NotificationType": "START"
      },
      "ItemLabel": "Pre Edit Action1",
      "ItemType": "METHOD"
    },
    {
      "ItemContainerTag": "",
      "ItemHelp": "",
      "ItemID": 16402,
      "ItemInDD": true,
      "ItemInfo": {
        "Message": "Pre Edit Action 1 method begins.",
        "NotificationType": "ACK"
      },
      "ItemLabel": "Pre Edit Action1",
      "ItemType": "METHOD"
    },
    {
      "ItemContainerTag": "",
      "ItemHelp": "",
      "ItemID": 16402,
      "ItemInDD": true,
      "ItemInfo": {
        "ItemClass": 0,
        "Message": "Enter lower range value:",
        "MethodVarInfo": {
          "ItemContainerTag": "",
          "ItemHelp": "Class:Range , Type:Float , Display format , Edit format , Pre read actions, Post write actions, Pre write actions",
          "ItemID": 235,
          "ItemInDD": true,
          "ItemInfo": {
            "ItemClass": 0,
            "ItemReadOnly": false,
            "VarInfo": {
              "VarUnit": "",
              "VarValDisplayFormat": "3.3f",
              "VarValEditFormat": "5.3f",
              "VarValIsINF": false,
              "VarValIsNAN": false,
              "VarValRange": [
                {
                  "VarValMax": 3.4028230607370965e+38,
                  "VarValMin": -3.4028230607370965e+38
                }
              ],
              "VarValType": "FLOAT",
              "VarValue": 0.0
            },
            "VarType": "ARITHMETIC"
          },
          "ItemLabel": "PV LRV",
          "ItemType": "VARIABLE"
        },
        "NotificationType": "GETVALUE"
      },
      "ItemLabel": "Pre Edit Action1",
      "ItemType": "METHOD"
    },
    {
      "ItemContainerTag": "",
      "ItemHelp": "",
      "ItemID": 16402,
      "ItemInDD": true,
      "ItemInfo": {
        "ItemClass": 0,
        "Message": "Select the option below:",
        "MethodVarInfo": {
          "ItemContainerTag": "",
          "ItemHelp": "",
          "ItemID": 0,
          "ItemInDD": true,
          "ItemInfo": {
            "ItemClass": 0,
            "ItemReadOnly": false,
            "VarInfo": {
              "VarEnumInfo": [
                {
                  "VarEnumHelp": "",
                  "VarEnumLabel": "Continue",
                  "VarEnumValue": 1
                },
                {
                  "VarEnumHelp": "",
                  "VarEnumLabel": " Abort(Single Method)",
                  "VarEnumValue": 2
                },
                {
                  "VarEnumHelp": "",
                  "VarEnumLabel": " Abort(Multiple Methods)",
                  "VarEnumValue": 3
                }
              ],
              "VarValType": "ENUMERATION",
              "VarValue": 1
            },
            "VarType": "ENUMERATION"
          },
          "ItemLabel": "",
          "ItemType": "VARIABLE"
        },
        "NotificationType": "SELECTION"
      },
      "ItemLabel": "Pre Edit Action1",
      "ItemType": "METHOD"
    },
    {
      "ItemContainerTag": "",
      "ItemHelp": "",
      "ItemID": 16402,
      "ItemInDD": true,
      "ItemInfo": {
        "Message": "Pre Edit Action 1 method executed successfully.",
        "NotificationType": "ACK"
      },
      "ItemLabel": "Pre Edit Action1",
      "ItemType": "METHOD"
    },
    {
      "ItemContainerTag": "",
      "ItemHelp": "",
      "ItemID": 16402,
      "ItemInDD": true,
      "ItemInfo": {
        "Message": "",
        "NotificationType": "COMPLETED"
      },
      "ItemLabel": "Pre Edit Action1",
      "ItemType": "METHOD"
    },
    {
      "ItemInfo": {
        "ItemID": 16552,
        "VarContainerID": 0,
        "VarSubIndex": 0
      },
      "ItemStatus": {
        "result": "ok"
      },
      "ItemStatusClass": "EDIT_ACTION"
    },
    {
      "ItemContainerTag": "",
      "ItemHelp": "",
      "ItemID": 16402,
      "ItemInDD": true,
      "ItemInfo": {
        "Message": "Abort method 1 is executing.",
        "NotificationType": "ACK"
      },
      "ItemLabel": "Pre Edit Action1",
      "ItemType": "METHOD"
    },
    {
      "ItemInfo": {
        "ItemID": 16552,
        "VarContainerID": 0,
        "VarSubIndex": 0
      },
      "ItemStatus": {
        "result": "ok"
      },
      "ItemStatusClass": "EDIT_ACTION"
    }
  ]
}