{
  "Request": {
    "ItemContainerTag": "",
    "ItemID": 131178,
    "ItemInDD": true,
    "ItemType": "MENU"
  },
  "Response": {
    "CommandName": "GetItem",
    "CommandResponse": {
      "result": {
        "ItemContainerTag": "",
        "ItemHelp": "",
        "ItemID": 131178,
        "ItemInDD": true,
        "ItemInfo": {
          "ItemList": [
            {
              "ItemContainerTag": "__resource_block_2",
              "ItemHelp": "The user description of the intended application of the block.",
              "ItemID": 2147615104,
              "ItemInDD": true,
              "ItemInfo": {
                "ItemClass": 32768,
                "ItemHasRelation": true,
                "ItemReadOnly": false,
                "VarContainerID": 0,
                "VarInfo": {
                  "VarCharSet": "ISO EUC",
                  "VarValLength": 0,
                  "VarValType": "OCTETSTRING",
                  "VarValue": ""
                },
                "VarSubIndex": 0,
                "VarType": "STRING"
              },
              "ItemLabel": "Tag Description",
              "ItemType": "VARIABLE"
            },
            {
              "ItemContainerTag": "__resource_block_2",
              "ItemHelp": "The strategy field can be used to identify grouping of blocks.  This data is not checked or processed by the block.",
              "ItemID": 2147615102,
              "ItemInDD": true,
              "ItemInfo": {
                "ItemClass": 32768,
                "ItemHasRelation": true,
                "ItemReadOnly": false,
                "VarContainerID": 0,
                "VarInfo": {
                  "VarUnit": "",
                  "VarValDisplayFormat": "u",
                  "VarValEditFormat": "u",
                  "VarValType": "UNSIGNED_INTEGER",
                  "VarValue": 0
                },
                "VarSubIndex": 0,
                "VarType": "ARITHMETIC"
              },
              "ItemLabel": "Strategy",
              "ItemType": "VARIABLE"
            },
            {
              "ItemContainerTag": "__resource_block_2",
              "ItemHelp": "Alert key help local",
              "ItemID": 2147614775,
              "ItemInDD": true,
              "ItemInfo": {
                "ItemClass": 32768,
                "ItemHasRelation": true,
                "ItemReadOnly": false,
                "VarContainerID": 0,
                "VarInfo": {
                  "VarUnit": "",
                  "VarValDisplayFormat": "3d",
                  "VarValEditFormat": "5d",
                  "VarValRange": [
                    {
                      "VarValMax": 50,
                      "VarValMin": 1
                    }
                  ],
                  "VarValType": "UNSIGNED_INTEGER",
                  "VarValue": 0
                },
                "VarSubIndex": 0,
                "VarType": "ARITHMETIC"
              },
              "ItemLabel": "Alert Key",
              "ItemType": "VARIABLE"
            }
          ]
        },
        "ItemLabel": "WAO",
        "ItemType": "MENU"
      }
    }
  }
}


