{
  "Request":

     [  {"ItemContainerTag":"","ItemID":124554,"ItemInDD":true,"ItemType":"MENU"},
        {"ItemContainerTag":"","ItemID":131178,"ItemInDD":false,"ItemType":"MENU"},
        {"ItemContainerTag":"","ItemID":131178,"ItemInDD":true,"ItemType":"VARIABLE"}

     ],




  "Response":

  [
     {
   "CommandName" : "GetItem",
   "CommandResponse" : {
      "error" : {
         "code" : 91001,
         "message" : "Failed to fetch item information."
      }
   }
},


  {
   "CommandName" : "GetItem",
   "CommandResponse" : {
      "error" : {
         "code" : 91002,
         "message" : "Failed to fetch parameter attribute information."
      }
   }
}


]


  }









