{
  "FF": {
    "Request": {
      "ItemContainerTag": "DATATYPESTB",
      "ItemID": 21476155756,
      "ItemInDD": true,
      "ItemInfo": {
        "VarContainerID": 2147615574,
        "VarSubIndex": 1
      },
      "ItemType": "VARIABLE"
    },
    "Response": {
      "CommandName": "GetItem",
      "CommandResponse": {
        "error": {
          "code": 91002,
          "message": "Failed to fetch parameter attribute information."
        }
      }
    }
  }
}

