{
  "FF": {
    "Request": {
      "ItemContainerTag": "DATATYPESTB",
      "ItemID": 2147615575,
      "ItemInDD": true,
      "ItemInfo": {
        "VarContainerID": 2147615574,
        "VarSubIndex": 1
      },
      "ItemType": "VARIABLE"
    },
    "Response": {
      "CommandName": "GetItem",
      "CommandResponse": {
        "result": {
          "ItemContainerTag": "DATATYPESTB",
          "ItemHelp": "",
          "ItemID": 2147615575,
          "ItemInDD": true,
          "ItemInfo": {
            "ItemClass": 32768,
            "ItemReadOnly": true,
            "VarContainerID": 2147615574,
            "VarInfo": {
              "VarUnit": "",
              "VarValDisplayFormat": "u",
              "VarValEditFormat": "u",
              "VarValType": "UNSIGNED_INTEGER",
              "VarValue": 0
            },
            "VarSubIndex": 1,
            "VarType": "ARITHMETIC"
          },
          "ItemLabel": "Characteristics",
          "ItemType": "VARIABLE"
        }
      }
    }
  }
}

