{
  "FF": {
    "Request": {
      "ItemContainerTag": "DATATYPESTB",
      "ItemID": 2147615574,
      "ItemInDD": false,
      "ItemType": "ARRAY"
    },
    "Response": {
      "CommandName": "GetItem",
      "CommandResponse": {
        "error": {
          "code": 91001,
          "message": "Failed to fetch item information."
        }
      }
    }
  }
}

