{
  "INPUT": {
    "Request": {
      "ItemContainerTag": "COND1TB",
      "ItemID": 131095,
      "ItemInfo": {
        "VarContainerID": 131097,
        "VarSubIndex": 1,
        "VarValue": 4
      },
      "ItemReqType": "WRITE",
      "ItemType": "VARIABLE"
    },
    "Response": {
      "CommandName": "SetItem",
      "CommandResponse": {
        "result": "ok"
      }
    }
  },
  "EVAL": {
    "Request": {
      "ItemContainerTag": "COND1TB",
      "ItemID": 131341,
      "ItemInDD": true,
      "ItemType": "VARIABLE"
    },
    "Response": {
      "CommandName": "GetItem",
      "CommandResponse": {
        "result": {
          "ItemContainerTag": "COND1TB",
          "ItemHelp": "Verify that host properly dereferences arrays when evaluating conditionals.",
          "ItemID": 131341,
          "ItemInDD": true,
          "ItemInfo": {
            "ItemClass": 32768,
            "ItemReadOnly": false,
            "VarContainerID": 0,
            "VarInfo": {
              "VarUnit": "",
              "VarValDisplayFormat": "3.3f",
              "VarValEditFormat": "5.4f",
              "VarValIsINF": false,
              "VarValIsNAN": false,
              "VarValRange": [
                {
                  "VarValMax": 100.0,
                  "VarValMin": 0.0
                }
              ],
              "VarValType": "FLOAT",
              "VarValue": 0.0
            },
            "VarSubIndex": 0,
            "VarType": "ARITHMETIC"
          },
          "ItemLabel": "COND0012 Float Var",
          "ItemType": "VARIABLE"
        }
      }
    }
  }
}

