{
  "INPUT": {
    "Request": {
      "ItemContainerTag": "COND1TB",
      "ItemID": 131095,
      "ItemInfo": {
        "VarContainerID": 131097,
        "VarSubIndex": 1,
        "VarValue": 9
      },
      "ItemReqType": "WRITE",
      "ItemType": "VARIABLE"
    },
    "Response": {
      "CommandName": "SetItem",
      "CommandResponse": {
        "result": "ok"
      }
    }
  },
  "EVAL": {
    "Request": {
      "ItemContainerTag": "COND1TB",
      "ItemID": 131342,
      "ItemInDD": true,
      "ItemType": "VARIABLE"
    },
    "Response": {
      "CommandName": "GetItem",
      "CommandResponse": {
        "result": {
          "ItemContainerTag": "COND1TB",
          "ItemHelp": "Verify that host properly dereferences arrays when evaluating conditionals.",
          "ItemID": 131342,
          "ItemInDD": true,
          "ItemInfo": {
            "ItemClass": 32768,
            "ItemReadOnly": false,
            "VarContainerID": 0,
            "VarInfo": {
              "VarEnumInfo": [
                {
                  "VarEnumHelp": "No Help Available",
                  "VarEnumLabel": "YES",
                  "VarEnumValue": 1
                },
                {
                  "VarEnumHelp": "No Help Available",
                  "VarEnumLabel": "NO",
                  "VarEnumValue": 2
                }
              ],
              "VarValType": "ENUMERATION",
              "VarValue": 0
            },
            "VarSubIndex": 0,
            "VarType": "ENUMERATION"
          },
          "ItemLabel": "COND0012 Enum Var",
          "ItemType": "VARIABLE"
        }
      }
    }
  }
}


