{
  "FF": {
    "Request": {
      "ItemContainerTag": "__resource_block_2",
      "ItemID": 2147617520,
      "ItemInDD": true,
      "ItemType": "BLOCK"
    },
    "Response": {
      "CommandName": "GetItem",
      "CommandResponse": {
        "result": {
          "ItemContainerTag": "__resource_block_2",
          "ItemHelp": "Block Menu Options",
          "ItemID": 2,
          "ItemInDD": false,
          "ItemInfo": {
            "ItemList": [
              {
                "ItemContainerTag": "__resource_block_2",
                "ItemHelp": "",
                "ItemID": 131490,
                "ItemInDD": true,
                "ItemLabel": "|en|Handheld RB Root Menu",
                "ItemType": "MENU"
              },
              {
                "ItemContainerTag": "__resource_block_2",
                "ItemHelp": "Advanced Block Menu Options",
                "ItemID": 3,
                "ItemInDD": false,
                "ItemLabel": "Advanced Block Menu",
                "ItemType": "MENU"
              }
            ]
          },
          "ItemLabel": "Block Menu",
          "ItemType": "MENU"
        }
      }
    }
  }
}