{
  "FF": {
    "Request": {
      "ItemContainerTag": "__resource_block_2",
      "ItemID": 2147615125,
      "ItemInfo": {
        "VarContainerID": 2147615014,
        "VarSubIndex": 3,
        "VarValue": 128
      },
      "ItemReqType": "WRITE",
      "ItemType": "VARIABLE"
    },
    "Response": {
      "CommandName": "SetItem",
      "CommandResponse": {
        "result": "ok"
      }
    }
  }
}