{
  "FF": {
    "Request": {
      "ItemContainerTag": "__resource_block_2",
      "ItemID": 2147614843,
      "ItemInfo": {
        "VarContainerID": 2147614857,
        "VarSubIndex": 2,
        "VarValue": -127
      },
      "ItemReqType": "WRITE",
      "ItemType": "VARIABLE"
    },
    "Response": {
      "CommandName": "SetItem",
      "CommandResponse": {
        "result": "ok"
      }
    }
  }
}