{
  "FF": {
    "Request": {
      "ItemContainerTag": "__resource_block_2",
      "ItemID": 2147614847,
      "ItemInfo": {
        "VarContainerID": 2147614857,
        "VarSubIndex": 6,
        "VarValue": 12345678900
      },
      "ItemReqType": "WRITE",
      "ItemType": "VARIABLE"
    },
    "Response": {
      "CommandName": "SetItem",
      "CommandResponse": {
        "error": {
          "code": 91008,
          "message": "Invalid variable value."
        }
      }
    }
  }
}