{
  "FF": {
    "Request": {
      "ItemContainerTag": "__resource_block_2",
      "ItemID": 2147615014,
      "ItemInDD": true,
      "ItemType": "RECORD"
    },
    "Response": {
      "CommandName": "GetItem",
      "CommandResponse": {
        "result": {
          "ItemContainerTag": "__resource_block_2",
          "ItemHelp": "The actual, target, permitted, and normal modes of the block.",
          "ItemID": 2147615014,
          "ItemInDD": true,
          "ItemInfo": {
            "ItemList": [
              {
                "ItemContainerTag": "__resource_block_2",
                "ItemHelp": "This is the mode requested by the operator. Only one mode from those allowed by the permitted mode parameter may be requested.",
                "ItemID": 2147614751,
                "ItemInDD": true,
                "ItemInfo": {
                  "ItemClass": 98304,
                  "ItemReadOnly": false,
                  "VarContainerID": 2147615014,
                  "VarInfo": {
                    "VarEnumInfo": [
                      {
                        "VarEnumHelp": "Remote Ouput Mode",
                        "VarEnumLabel": "ROut",
                        "VarEnumValue": 1
                      },
                      {
                        "VarEnumHelp": "Remote Cascade Mode",
                        "VarEnumLabel": "RCas",
                        "VarEnumValue": 2
                      },
                      {
                        "VarEnumHelp": "Cascade Mode",
                        "VarEnumLabel": "Cas",
                        "VarEnumValue": 4
                      },
                      {
                        "VarEnumHelp": "Automatic Mode",
                        "VarEnumLabel": "Auto",
                        "VarEnumValue": 8
                      },
                      {
                        "VarEnumHelp": "Man",
                        "VarEnumLabel": "Man",
                        "VarEnumValue": 16
                      },
                      {
                        "VarEnumHelp": "Out Of Service Mode",
                        "VarEnumLabel": "OOS",
                        "VarEnumValue": 128
                      }
                    ],
                    "VarValType": "BITENUMERATION",
                    "VarValue": 0
                  },
                  "VarSubIndex": 1,
                  "VarType": "ENUMERATION"
                },
                "ItemLabel": "Target",
                "ItemType": "VARIABLE"
              },
              {
                "ItemContainerTag": "__resource_block_2",
                "ItemHelp": "This is the current mode of the block, which may differ from the target based on operating conditions. Its value is calculated as part of block execution.",
                "ItemID": 2147614752,
                "ItemInDD": true,
                "ItemInfo": {
                  "ItemClass": 98306,
                  "ItemReadOnly": true,
                  "VarContainerID": 2147615014,
                  "VarInfo": {
                    "VarEnumInfo": [
                      {
                        "VarEnumHelp": "Remote Ouput Mode",
                        "VarEnumLabel": "ROut",
                        "VarEnumValue": 1
                      },
                      {
                        "VarEnumHelp": "Remote Cascade Mode",
                        "VarEnumLabel": "RCas",
                        "VarEnumValue": 2
                      },
                      {
                        "VarEnumHelp": "Cascade Mode",
                        "VarEnumLabel": "Cas",
                        "VarEnumValue": 4
                      },
                      {
                        "VarEnumHelp": "Automatic Mode",
                        "VarEnumLabel": "Auto",
                        "VarEnumValue": 8
                      },
                      {
                        "VarEnumHelp": "Man",
                        "VarEnumLabel": "Man",
                        "VarEnumValue": 16
                      },
                      {
                        "VarEnumHelp": "Local Override Mode",
                        "VarEnumLabel": "LO",
                        "VarEnumValue": 32
                      },
                      {
                        "VarEnumHelp": "Initialization Manual Mode",
                        "VarEnumLabel": "IMan",
                        "VarEnumValue": 64
                      },
                      {
                        "VarEnumHelp": "Out Of Service Mode",
                        "VarEnumLabel": "OOS",
                        "VarEnumValue": 128
                      }
                    ],
                    "VarValType": "BITENUMERATION",
                    "VarValue": 0
                  },
                  "VarSubIndex": 2,
                  "VarType": "ENUMERATION"
                },
                "ItemLabel": "Actual",
                "ItemType": "VARIABLE"
              },
              {
                "ItemContainerTag": "__resource_block_2",
                "ItemHelp": "Defines the modes which are allowed for an instance of the block. The permitted mode is configured based on application requirement.",
                "ItemID": 2147615125,
                "ItemInDD": true,
                "ItemInfo": {
                  "ItemClass": 98304,
                  "ItemReadOnly": false,
                  "VarContainerID": 2147615014,
                  "VarInfo": {
                    "VarEnumInfo": [
                      {
                        "VarEnumHelp": "Remote Output Mode Permitted",
                        "VarEnumLabel": "ROut",
                        "VarEnumValue": 1
                      },
                      {
                        "VarEnumHelp": "Remote Cascade Mode Permitted",
                        "VarEnumLabel": "RCas",
                        "VarEnumValue": 2
                      },
                      {
                        "VarEnumHelp": "Cascade Mode Permitted",
                        "VarEnumLabel": "Cas",
                        "VarEnumValue": 4
                      },
                      {
                        "VarEnumHelp": "Automatic Mode Permitted",
                        "VarEnumLabel": "Auto",
                        "VarEnumValue": 8
                      },
                      {
                        "VarEnumHelp": "Manual Mode Permitted",
                        "VarEnumLabel": "Man",
                        "VarEnumValue": 16
                      },
                      {
                        "VarEnumHelp": "Local Override Mode Permitted",
                        "VarEnumLabel": "LO",
                        "VarEnumValue": 32
                      },
                      {
                        "VarEnumHelp": "Initialzation Manual Mode Permitted",
                        "VarEnumLabel": "IMan",
                        "VarEnumValue": 64
                      },
                      {
                        "VarEnumHelp": "Out of Service Mode Permitted",
                        "VarEnumLabel": "OOS",
                        "VarEnumValue": 128
                      }
                    ],
                    "VarValType": "BITENUMERATION",
                    "VarValue": 0
                  },
                  "VarSubIndex": 3,
                  "VarType": "ENUMERATION"
                },
                "ItemLabel": "Permitted",
                "ItemType": "VARIABLE"
              },
              {
                "ItemContainerTag": "__resource_block_2",
                "ItemHelp": "This is the mode which the block should be set to during normal operating conditions.",
                "ItemID": 2147614753,
                "ItemInDD": true,
                "ItemInfo": {
                  "ItemClass": 98304,
                  "ItemReadOnly": false,
                  "VarContainerID": 2147615014,
                  "VarInfo": {
                    "VarEnumInfo": [
                      {
                        "VarEnumHelp": "Remote Ouput Mode",
                        "VarEnumLabel": "ROut",
                        "VarEnumValue": 1
                      },
                      {
                        "VarEnumHelp": "Remote Cascade Mode",
                        "VarEnumLabel": "RCas",
                        "VarEnumValue": 2
                      },
                      {
                        "VarEnumHelp": "Cascade Mode",
                        "VarEnumLabel": "Cas",
                        "VarEnumValue": 4
                      },
                      {
                        "VarEnumHelp": "Automatic Mode",
                        "VarEnumLabel": "Auto",
                        "VarEnumValue": 8
                      },
                      {
                        "VarEnumHelp": "Man",
                        "VarEnumLabel": "Man",
                        "VarEnumValue": 16
                      },
                      {
                        "VarEnumHelp": "Local Override Mode",
                        "VarEnumLabel": "LO",
                        "VarEnumValue": 32
                      },
                      {
                        "VarEnumHelp": "Initialization Manual Mode",
                        "VarEnumLabel": "IMan",
                        "VarEnumValue": 64
                      },
                      {
                        "VarEnumHelp": "Out Of Service Mode",
                        "VarEnumLabel": "OOS",
                        "VarEnumValue": 128
                      }
                    ],
                    "VarValType": "BITENUMERATION",
                    "VarValue": 0
                  },
                  "VarSubIndex": 4,
                  "VarType": "ENUMERATION"
                },
                "ItemLabel": "Normal",
                "ItemType": "VARIABLE"
              }
            ]
          },
          "ItemLabel": "Block Mode",
          "ItemType": "RECORD"
        }
      }
    }
  }
}

