{
  "FF": {
    "Request": {
      "ItemContainerTag": "__resource_block_2",
      "ItemID": 2147615125,
      "ItemInDD": true,
      "ItemInfo": {
        "VarContainerID": 214761501445,
        "VarSubIndex": 4
      },
      "ItemType": "VARIABLE"
    },
    "Response": {
      "CommandName": "GetItem",
      "CommandResponse": {
        "error": {
          "code": 91001,
          "message": "Failed to fetch item information."
        }
      }
    }
  }
}