{
  "FF": {
    "Request": {
      "ItemContainerTag": "__resource_block_2",
      "ItemID": 2147614851,
      "ItemInfo": {
        "VarContainerID": 2147614857,
        "VarSubIndex": 10,
        "VarValue": "HelloHtk"
      },
      "ItemReqType": "WRITE",
      "ItemType": "VARIABLE"
    },
    "Response": {
      "CommandName": "SetItem",
      "CommandResponse": {
        "result": "ok"
      }
    }
  }
}