{
  "FF": {
    "Request": {
      "LangCode": "en",
      "ShortStrFlag": false
    },
    "Response": {
      "CommandName": "SetLangCode",
      "CommandResponse": {
        "result": "ok"
      }
    }
  }
}