{
  "Sub": {
    "SetVal": {
      "Request": {
        "ItemID": 169,
        "ItemInfo": {
          "VarValue": 300
        },
        "ItemReqType": "WRITE",
        "ItemType": "VARIABLE"
      },
      "Response": {
        "CommandName": "SetItem",
        "CommandResponse": {
          "result": "ok"
        }
      }
    },
    "Create": {
      "Request": {
        "ItemAction": "create",
        "ItemList": [
          {
            "ItemID": 169
          }
        ],
        "ItemRefreshRate": 4
      },
      "Response": {
        "CommandName": "ProcessSubscription",
        "CommandResponse": {
          "result": {
            "ItemSubscriptionID": 2
          }
        }
      }
    },
    "Start": {
      "Request": {
        "ItemAction": "start",
        "ItemSubscriptionID": 2
      },
      "Response": {
        "CommandName": "ProcessSubscription",
        "CommandResponse": {
          "result": "ok"
        }
      }
    },
    "Stop": {
      "Request": {
        "ItemAction": "stop",
        "ItemSubscriptionID": 2
      },
      "Response": {
        "CommandName": "ProcessSubscription",
        "CommandResponse": {
          "result": "ok"
        }
      }
    },
    "Delete": {
      "Request": {
        "ItemAction": "delete",
        "ItemSubscriptionID": 2
      },
      "Response": {
        "CommandName": "ProcessSubscription",
        "CommandResponse": {
          "result": "ok"
        }
      }
    },
    "Notify": {
      "ItemList": [
        {
          "ItemID": 169,
          "ItemInfo": {
            "VarInfo": {
              "VarValue": 300
            }
          }
        }
      ],
      "ItemSubscriptionID": 2,
      "ItemType": "VARIABLE"
    }
  },
  "Start_Error": {
    "Request": {
      "ItemAction": "start",
      "ItemSubscriptionID": 65000
    },
    "Response": {
      "CommandName": "ProcessSubscription",
      "CommandResponse": {
        "error": {
          "code": 91201,
          "message": "Failed to start subscription."
        }
      }
    }
  },
  "Stop_Error": {
    "Request": {
      "ItemAction": "stop",
      "ItemSubscriptionID": 65000
    },
    "Response": {
      "CommandName": "ProcessSubscription",
      "CommandResponse": {
        "error": {
          "code": 91201,
          "message": "Failed to stop subscription."
        }
      }
    }
  },
  "Delete_Error": {
    "Request": {
      "ItemAction": "delete",
      "ItemSubscriptionID": 65000
    },
    "Response": {
      "CommandName": "ProcessSubscription",
      "CommandResponse": {
        "error": {
          "code": 91201,
          "message": "Failed to delete subscription."
        }
      }
    }
  },
  "CreateAndDelete": {
    "Create": {
      "Request": {
        "ItemAction": "create",
        "ItemList": [
          {
            "ItemContainerTag": "DATATYPESTB",
            "ItemID": 131255
          }
        ],
        "ItemRefreshRate": 1
      },
      "Response": {
        "CommandName": "ProcessSubscription",
        "CommandResponse": {
          "result": {
            "ItemSubscriptionID": 7
          }
        }
      }
    },
    "Delete": {
      "Request": {
        "ItemAction": "delete",
        "ItemSubscriptionID": 7
      },
      "Response_1": {
        "CommandName": "ProcessSubscription",
        "CommandResponse": {
          "result": "ok"
        }
      },
      "Response_2": {
        "CommandName": "ProcessSubscription",
        "CommandResponse": {
          "error": {
            "code": 91204,
            "message": "Failed to delete subscription."
          }
        }
      }
    }
  }
}