{
  "Request": [
    {
      "ItemContainerTag": "",
      "ItemID": 17053,
      "ItemInDD": true,
      "ItemType": "MENU"
    },
    {
      "ItemContainerTag": "",
      "ItemID": 17313,
      "ItemInDD": true,
      "ItemType": "MENU"
    },
    {
      "ItemContainerTag": "",
      "ItemID": 17327,
      "ItemInDD": true,
      "ItemType": "MENU"
    },
    {
      "ItemContainerTag": "",
      "ItemID": 17332,
      "ItemInDD": true,
      "ItemType": "MENU"
    }
  ],
  "Response": [
    {
      "CommandName": "GetItem",
      "CommandResponse": {
        "result": {
          "ItemContainerTag": "",
          "ItemHelp": "",
          "ItemID": 17053,
          "ItemInDD": true,
          "ItemInfo": {
            "ItemList": [
              {
                "ItemContainerTag": "",
                "ItemHelp": "",
                "ItemID": 17312,
                "ItemInDD": true,
                "ItemInfo": {
                  "ItemClass": 0,
                  "ItemReadOnly": true
                },
                "ItemLabel": "Guided Setup",
                "ItemType": "MENU"
              },
              {
                "ItemContainerTag": "",
                "ItemHelp": "",
                "ItemID": 17313,
                "ItemInDD": true,
                "ItemInfo": {
                  "ItemClass": 0,
                  "ItemReadOnly": true
                },
                "ItemLabel": "Manual Setup",
                "ItemType": "MENU"
              },
              {
                "ItemContainerTag": "",
                "ItemHelp": "",
                "ItemID": 17314,
                "ItemInDD": true,
                "ItemInfo": {
                  "ItemClass": 0,
                  "ItemReadOnly": true
                },
                "ItemLabel": "Alert Setup",
                "ItemType": "MENU"
              }
            ]
          },
          "ItemLabel": "Configure",
          "ItemType": "MENU"
        }
      }
    },
    {
      "CommandName": "GetItem",
      "CommandResponse": {
        "result": {
          "ItemContainerTag": "",
          "ItemHelp": "",
          "ItemID": 17313,
          "ItemInDD": true,
          "ItemInfo": {
            "ItemList": [
              {
                "ItemContainerTag": "",
                "ItemHelp": "",
                "ItemID": 17327,
                "ItemInDD": true,
                "ItemInfo": {
                  "ItemClass": 0,
                  "ItemReadOnly": true
                },
                "ItemLabel": "Basic Setup",
                "ItemType": "MENU"
              },
              {
                "ItemContainerTag": "",
                "ItemHelp": "",
                "ItemID": 17319,
                "ItemInDD": true,
                "ItemInfo": {
                  "ItemClass": 0,
                  "ItemReadOnly": true
                },
                "ItemLabel": "Scaled Variable",
                "ItemType": "MENU"
              },
              {
                "ItemContainerTag": "",
                "ItemHelp": "",
                "ItemID": 17328,
                "ItemInDD": true,
                "ItemInfo": {
                  "ItemClass": 0,
                  "ItemReadOnly": true
                },
                "ItemLabel": "Display",
                "ItemType": "MENU"
              },
              {
                "ItemContainerTag": "",
                "ItemHelp": "",
                "ItemID": 17329,
                "ItemInDD": true,
                "ItemInfo": {
                  "ItemClass": 0,
                  "ItemReadOnly": true
                },
                "ItemLabel": "HART",
                "ItemType": "MENU"
              },
              {
                "ItemContainerTag": "",
                "ItemHelp": "",
                "ItemID": 17330,
                "ItemInDD": true,
                "ItemInfo": {
                  "ItemClass": 0,
                  "ItemReadOnly": true
                },
                "ItemLabel": "Device Information",
                "ItemType": "MENU"
              },
              {
                "ItemContainerTag": "",
                "ItemHelp": "",
                "ItemID": 17331,
                "ItemInDD": true,
                "ItemInfo": {
                  "ItemClass": 0,
                  "ItemReadOnly": true
                },
                "ItemLabel": "Materials of Construction",
                "ItemType": "MENU"
              },
              {
                "ItemContainerTag": "",
                "ItemHelp": "",
                "ItemID": 17311,
                "ItemInDD": true,
                "ItemInfo": {
                  "ItemClass": 0,
                  "ItemReadOnly": true
                },
                "ItemLabel": "Security",
                "ItemType": "MENU"
              }
            ]
          },
          "ItemLabel": "Manual Setup",
          "ItemType": "MENU"
        }
      }
    },
    {
      "CommandName": "GetItem",
      "CommandResponse": {
        "result": {
          "ItemContainerTag": "",
          "ItemHelp": "",
          "ItemID": 17327,
          "ItemInDD": true,
          "ItemInfo": {
            "ItemList": [
              {
                "ItemContainerTag": "",
                "ItemHelp": "Tag - An eight character free-form text field typically used to identify a field device.",
                "ItemID": 163,
                "ItemInDD": true,
                "ItemInfo": {
                  "ItemClass": 2048,
                  "ItemReadOnly": false,
                  "VarInfo": {
                    "VarCharSet": "ISO Latin-1",
                    "VarValLength": 8,
                    "VarValType": "PACKED_ASCII",
                    "VarValue": "FVJWWWWW"
                  },
                  "VarType": "STRING"
                },
                "ItemLabel": "Tag",
                "ItemType": "VARIABLE"
              },
              {
                "ItemContainerTag": "",
                "ItemHelp": "Field Device Variable Unit- Engineering units displayed with the Digital Value representation, Minimum Span, Upper Range Value, Lower Range Value, Lower Sensor Limit, Upper Sensor Limit and other variables/parameters.",
                "ItemID": 5005,
                "ItemInDD": true,
                "ItemInfo": {
                  "ItemClass": 8,
                  "ItemReadOnly": false,
                  "VarInfo": {
                    "VarEnumInfo": [
                      {
                        "VarEnumHelp": "",
                        "VarEnumLabel": "inH2O",
                        "VarEnumValue": 1
                      },
                      {
                        "VarEnumHelp": "",
                        "VarEnumLabel": "inHg",
                        "VarEnumValue": 2
                      },
                      {
                        "VarEnumHelp": "",
                        "VarEnumLabel": "ftH2O",
                        "VarEnumValue": 3
                      },
                      {
                        "VarEnumHelp": "",
                        "VarEnumLabel": "mmH2O",
                        "VarEnumValue": 4
                      },
                      {
                        "VarEnumHelp": "",
                        "VarEnumLabel": "mmHg",
                        "VarEnumValue": 5
                      },
                      {
                        "VarEnumHelp": "",
                        "VarEnumLabel": "psi",
                        "VarEnumValue": 6
                      },
                      {
                        "VarEnumHelp": "",
                        "VarEnumLabel": "bar",
                        "VarEnumValue": 7
                      },
                      {
                        "VarEnumHelp": "",
                        "VarEnumLabel": "mbar",
                        "VarEnumValue": 8
                      },
                      {
                        "VarEnumHelp": "",
                        "VarEnumLabel": "g/Sqcm",
                        "VarEnumValue": 9
                      },
                      {
                        "VarEnumHelp": "",
                        "VarEnumLabel": "kg/Sqcm",
                        "VarEnumValue": 10
                      },
                      {
                        "VarEnumHelp": "",
                        "VarEnumLabel": "Pa",
                        "VarEnumValue": 11
                      },
                      {
                        "VarEnumHelp": "",
                        "VarEnumLabel": "kPa",
                        "VarEnumValue": 12
                      },
                      {
                        "VarEnumHelp": "",
                        "VarEnumLabel": "torr",
                        "VarEnumValue": 13
                      },
                      {
                        "VarEnumHelp": "",
                        "VarEnumLabel": "atm",
                        "VarEnumValue": 14
                      },
                      {
                        "VarEnumHelp": "",
                        "VarEnumLabel": "MPa",
                        "VarEnumValue": 237
                      },
                      {
                        "VarEnumHelp": "",
                        "VarEnumLabel": "inH2O @4DegC",
                        "VarEnumValue": 238
                      },
                      {
                        "VarEnumHelp": "",
                        "VarEnumLabel": "mmH2O @4DegC",
                        "VarEnumValue": 239
                      }
                    ],
                    "VarValType": "ENUMERATION",
                    "VarValue": 1
                  },
                  "VarType": "ENUMERATION"
                },
                "ItemLabel": "Pressure Units",
                "ItemType": "VARIABLE"
              },
              {
                "ItemContainerTag": "",
                "ItemHelp": "",
                "ItemID": 17332,
                "ItemInDD": true,
                "ItemInfo": {
                  "ItemClass": 0,
                  "ItemReadOnly": true
                },
                "ItemLabel": "Range Values",
                "ItemType": "MENU"
              },
              {
                "ItemContainerTag": "",
                "ItemHelp": "Transfer Function- Defines the transformation function that will be applied from the Field Device Variable to the Analog Output, and Percent Range. The Transfer Function does not affect the Digital Value representation.",
                "ItemID": 5009,
                "ItemInDD": true,
                "ItemInfo": {
                  "ItemClass": 32,
                  "ItemReadOnly": false,
                  "VarInfo": {
                    "VarEnumInfo": [
                      {
                        "VarEnumHelp": "",
                        "VarEnumLabel": "Linear",
                        "VarEnumValue": 0
                      },
                      {
                        "VarEnumHelp": "",
                        "VarEnumLabel": "Sq root",
                        "VarEnumValue": 1
                      }
                    ],
                    "VarValType": "ENUMERATION",
                    "VarValue": 1
                  },
                  "VarType": "ENUMERATION"
                },
                "ItemLabel": "Transfer Function",
                "ItemType": "VARIABLE"
              },
              {
                "ItemContainerTag": "",
                "ItemHelp": "Damping Value- Damping time constant applied to both the Digital Value representation and Analog Value of the respective Analog Output. The units of this variable are always in seconds.",
                "ItemID": 5016,
                "ItemInDD": true,
                "ItemInfo": {
                  "ItemClass": 8,
                  "ItemReadOnly": false,
                  "VarInfo": {
                    "VarUnit": "sec",
                    "VarValDisplayFormat": ".2f",
                    "VarValEditFormat": "4.2f",
                    "VarValIsINF": false,
                    "VarValIsNAN": false,
                    "VarValType": "FLOAT",
                    "VarValue": 59.999000549316406
                  },
                  "VarType": "ARITHMETIC"
                },
                "ItemLabel": "Pressure Damping",
                "ItemType": "VARIABLE"
              },
              {
                "ItemContainerTag": "",
                "ItemHelp": "Pressure Sensor Temperature Units - Engineering unit to be displayed with Sensor Temperature.",
                "ItemID": 16386,
                "ItemInDD": true,
                "ItemInfo": {
                  "ItemClass": 8,
                  "ItemReadOnly": false,
                  "VarInfo": {
                    "VarEnumInfo": [
                      {
                        "VarEnumHelp": "",
                        "VarEnumLabel": "degC",
                        "VarEnumValue": 32
                      },
                      {
                        "VarEnumHelp": "",
                        "VarEnumLabel": "degF",
                        "VarEnumValue": 33
                      }
                    ],
                    "VarValType": "ENUMERATION",
                    "VarValue": 32
                  },
                  "VarType": "ENUMERATION"
                },
                "ItemLabel": "Module Temperature Units",
                "ItemType": "VARIABLE"
              },
              {
                "ItemContainerTag": "",
                "ItemHelp": "",
                "ItemID": 17333,
                "ItemInDD": true,
                "ItemInfo": {
                  "ItemClass": 0,
                  "ItemReadOnly": true
                },
                "ItemLabel": "Configure Alarm and Sat Levels",
                "ItemType": "MENU"
              }
            ]
          },
          "ItemLabel": "Basic Setup",
          "ItemType": "MENU"
        }
      }
    },
    {
      "CommandName": "GetItem",
      "CommandResponse": {
        "result": {
          "ItemContainerTag": "",
          "ItemHelp": "",
          "ItemID": 17332,
          "ItemInDD": true,
          "ItemInfo": {
            "ItemList": [
              {
                "ItemContainerTag": "",
                "ItemHelp": "Upper Range Value- The digital process variable at the 20 mA point.  This defines the operational endpoint for the 4-20 mA analog output, and the 100% point of the Percent Range calculation.",
                "ItemID": 5014,
                "ItemInDD": true,
                "ItemInfo": {
                  "ItemClass": 32,
                  "ItemReadOnly": false,
                  "VarInfo": {
                    "VarUnit": "inHg",
                    "VarValDisplayFormat": "7.3f",
                    "VarValEditFormat": "7.3f",
                    "VarValIsINF": false,
                    "VarValIsNAN": false,
                    "VarValType": "FLOAT",
                    "VarValue": 0.0
                  },
                  "VarType": "ARITHMETIC"
                },
                "ItemLabel": "Upper Range Value (20 mA)",
                "ItemType": "VARIABLE"
              },
              {
                "ItemContainerTag": "",
                "ItemHelp": "Lower Range Value- The digital process variable at the 4 mA point.  This defines the operational endpoint for the 4-20 mA analog output, and the 0% point of the Percent Range calculation.",
                "ItemID": 5015,
                "ItemInDD": true,
                "ItemInfo": {
                  "ItemClass": 32,
                  "ItemReadOnly": false,
                  "VarInfo": {
                    "VarUnit": "inHg",
                    "VarValDisplayFormat": "7.3f",
                    "VarValEditFormat": "7.3f",
                    "VarValIsINF": false,
                    "VarValIsNAN": false,
                    "VarValType": "FLOAT",
                    "VarValue": 0.0
                  },
                  "VarType": "ARITHMETIC"
                },
                "ItemLabel": "Lower Range Value (4 mA)",
                "ItemType": "VARIABLE"
              }
            ]
          },
          "ItemLabel": "Range Values",
          "ItemType": "MENU"
        }
      }
    }
  ]
}