{
  "Request": [
    {
      "ItemContainerTag": "",
      "ItemID": 17312,
      "ItemInDD": true,
      "ItemType": "MENU"
    },
    {
      "ItemContainerTag": "",
      "ItemID": 17315,
      "ItemInDD": true,
      "ItemType": "MENU"
    }
  ],
  "Response": [
    {
      "CommandName": "GetItem",
      "CommandResponse": {
        "result": {
          "ItemContainerTag": "",
          "ItemHelp": "",
          "ItemID": 17312,
          "ItemInDD": true,
          "ItemInfo": {
            "ItemList": [
              {
                "ItemContainerTag": "",
                "ItemHelp": "",
                "ItemID": 17315,
                "ItemInDD": true,
                "ItemInfo": {
                  "ItemClass": 0,
                  "ItemReadOnly": true
                },
                "ItemLabel": "Basic Setup",
                "ItemType": "MENU"
              },
              {
                "ItemContainerTag": "",
                "ItemHelp": "Zero trim- Make the sensor input the new zero input reference.",
                "ItemID": 4102,
                "ItemInDD": true,
                "ItemInfo": {
                  "ItemClass": 0,
                  "ItemReadOnly": true
                },
                "ItemLabel": "Zero",
                "ItemType": "METHOD"
              },
              {
                "ItemContainerTag": "",
                "ItemHelp": "",
                "ItemID": 17316,
                "ItemInDD": true,
                "ItemInfo": {
                  "ItemClass": 0,
                  "ItemReadOnly": true
                },
                "ItemLabel": "Configure Display",
                "ItemType": "MENU"
              },
              {
                "ItemContainerTag": "",
                "ItemHelp": "",
                "ItemID": 17317,
                "ItemInDD": true,
                "ItemInfo": {
                  "ItemClass": 0,
                  "ItemReadOnly": true
                },
                "ItemLabel": "Variable Mapping",
                "ItemType": "METHOD"
              },
              {
                "ItemContainerTag": "",
                "ItemHelp": "Change the analog output alarm or saturation levels of the transmitter.",
                "ItemID": 17262,
                "ItemInDD": true,
                "ItemInfo": {
                  "ItemClass": 0,
                  "ItemReadOnly": true
                },
                "ItemLabel": "Configure Alarm and Saturation Level",
                "ItemType": "METHOD"
              },
              {
                "ItemContainerTag": "",
                "ItemHelp": "",
                "ItemID": 17318,
                "ItemInDD": true,
                "ItemInfo": {
                  "ItemClass": 0,
                  "ItemReadOnly": true
                },
                "ItemLabel": "Process Alerts",
                "ItemType": "MENU"
              },
              {
                "ItemContainerTag": "",
                "ItemHelp": "",
                "ItemID": 17319,
                "ItemInDD": true,
                "ItemInfo": {
                  "ItemClass": 0,
                  "ItemReadOnly": true
                },
                "ItemLabel": "Scaled Variable",
                "ItemType": "MENU"
              }
            ]
          },
          "ItemLabel": "Guided Setup",
          "ItemType": "MENU"
        }
      }
    },
    {
      "CommandName": "GetItem",
      "CommandResponse": {
        "result": {
          "ItemContainerTag": "",
          "ItemHelp": "",
          "ItemID": 17315,
          "ItemInDD": true,
          "ItemInfo": {
            "ItemList": [
              {
                "ItemContainerTag": "",
                "ItemHelp": "Tag - An eight character free-form text field typically used to identify a field device.",
                "ItemID": 163,
                "ItemInDD": true,
                "ItemInfo": {
                  "ItemClass": 2048,
                  "ItemReadOnly": false,
                  "VarInfo": {
                    "VarCharSet": "ISO Latin-1",
                    "VarValLength": 8,
                    "VarValType": "PACKED_ASCII",
                    "VarValue": "FVJWWWWW"
                  },
                  "VarType": "STRING"
                },
                "ItemLabel": "Tag",
                "ItemType": "VARIABLE"
              },
              {
                "ItemContainerTag": "",
                "ItemHelp": "Description - A 16 character free-form text field; typically used for a description of the device.",
                "ItemID": 165,
                "ItemInDD": true,
                "ItemInfo": {
                  "ItemClass": 2048,
                  "ItemReadOnly": false,
                  "VarInfo": {
                    "VarCharSet": "ISO Latin-1",
                    "VarValLength": 16,
                    "VarValType": "PACKED_ASCII",
                    "VarValue": "TEST            "
                  },
                  "VarType": "STRING"
                },
                "ItemLabel": "Description",
                "ItemType": "VARIABLE"
              },
              {
                "ItemContainerTag": "",
                "ItemHelp": "Message - A 32 character free-form text field; typically used for device specific information.",
                "ItemID": 164,
                "ItemInDD": true,
                "ItemInfo": {
                  "ItemClass": 2048,
                  "ItemReadOnly": false,
                  "VarInfo": {
                    "VarCharSet": "ISO Latin-1",
                    "VarValLength": 32,
                    "VarValType": "PACKED_ASCII",
                    "VarValue": "HART                            "
                  },
                  "VarType": "STRING"
                },
                "ItemLabel": "Message",
                "ItemType": "VARIABLE"
              },
              {
                "ItemContainerTag": "",
                "ItemHelp": "Date - A formatted (mm/dd/yyyy) field available to enter and store a static date.",
                "ItemID": 166,
                "ItemInDD": true,
                "ItemInfo": {
                  "ItemClass": 2048,
                  "ItemReadOnly": false,
                  "VarInfo": {
                    "VarValDisplayFormat": "",
                    "VarValType": "DATE",
                    "VarValue": 0
                  },
                  "VarType": "DATE_TIME"
                },
                "ItemLabel": "Date",
                "ItemType": "VARIABLE"
              },
              {
                "ItemContainerTag": "",
                "ItemHelp": "Field Device Variable Unit- Engineering units displayed with the Digital Value representation, Minimum Span, Upper Range Value, Lower Range Value, Lower Sensor Limit, Upper Sensor Limit and other variables/parameters.",
                "ItemID": 5005,
                "ItemInDD": true,
                "ItemInfo": {
                  "ItemClass": 8,
                  "ItemReadOnly": false,
                  "VarInfo": {
                    "VarEnumInfo": [
                      {
                        "VarEnumHelp": "",
                        "VarEnumLabel": "inH2O",
                        "VarEnumValue": 1
                      },
                      {
                        "VarEnumHelp": "",
                        "VarEnumLabel": "inHg",
                        "VarEnumValue": 2
                      },
                      {
                        "VarEnumHelp": "",
                        "VarEnumLabel": "ftH2O",
                        "VarEnumValue": 3
                      },
                      {
                        "VarEnumHelp": "",
                        "VarEnumLabel": "mmH2O",
                        "VarEnumValue": 4
                      },
                      {
                        "VarEnumHelp": "",
                        "VarEnumLabel": "mmHg",
                        "VarEnumValue": 5
                      },
                      {
                        "VarEnumHelp": "",
                        "VarEnumLabel": "psi",
                        "VarEnumValue": 6
                      },
                      {
                        "VarEnumHelp": "",
                        "VarEnumLabel": "bar",
                        "VarEnumValue": 7
                      },
                      {
                        "VarEnumHelp": "",
                        "VarEnumLabel": "mbar",
                        "VarEnumValue": 8
                      },
                      {
                        "VarEnumHelp": "",
                        "VarEnumLabel": "g/Sqcm",
                        "VarEnumValue": 9
                      },
                      {
                        "VarEnumHelp": "",
                        "VarEnumLabel": "kg/Sqcm",
                        "VarEnumValue": 10
                      },
                      {
                        "VarEnumHelp": "",
                        "VarEnumLabel": "Pa",
                        "VarEnumValue": 11
                      },
                      {
                        "VarEnumHelp": "",
                        "VarEnumLabel": "kPa",
                        "VarEnumValue": 12
                      },
                      {
                        "VarEnumHelp": "",
                        "VarEnumLabel": "torr",
                        "VarEnumValue": 13
                      },
                      {
                        "VarEnumHelp": "",
                        "VarEnumLabel": "atm",
                        "VarEnumValue": 14
                      },
                      {
                        "VarEnumHelp": "",
                        "VarEnumLabel": "MPa",
                        "VarEnumValue": 237
                      },
                      {
                        "VarEnumHelp": "",
                        "VarEnumLabel": "inH2O @4DegC",
                        "VarEnumValue": 238
                      },
                      {
                        "VarEnumHelp": "",
                        "VarEnumLabel": "mmH2O @4DegC",
                        "VarEnumValue": 239
                      }
                    ],
                    "VarValType": "ENUMERATION",
                    "VarValue": 1
                  },
                  "VarType": "ENUMERATION"
                },
                "ItemLabel": "Pressure Units",
                "ItemType": "VARIABLE"
              },
              {
                "ItemContainerTag": "",
                "ItemHelp": "Pressure Sensor Temperature Units - Engineering unit to be displayed with Sensor Temperature.",
                "ItemID": 16386,
                "ItemInDD": true,
                "ItemInfo": {
                  "ItemClass": 8,
                  "ItemReadOnly": false,
                  "VarInfo": {
                    "VarEnumInfo": [
                      {
                        "VarEnumHelp": "",
                        "VarEnumLabel": "degC",
                        "VarEnumValue": 32
                      },
                      {
                        "VarEnumHelp": "",
                        "VarEnumLabel": "degF",
                        "VarEnumValue": 33
                      }
                    ],
                    "VarValType": "ENUMERATION",
                    "VarValue": 32
                  },
                  "VarType": "ENUMERATION"
                },
                "ItemLabel": "Module Temperature Units",
                "ItemType": "VARIABLE"
              },
              {
                "ItemContainerTag": "",
                "ItemHelp": "Transfer Function- Defines the transformation function that will be applied from the Field Device Variable to the Analog Output, and Percent Range. The Transfer Function does not affect the Digital Value representation.",
                "ItemID": 5009,
                "ItemInDD": true,
                "ItemInfo": {
                  "ItemClass": 32,
                  "ItemReadOnly": false,
                  "VarInfo": {
                    "VarEnumInfo": [
                      {
                        "VarEnumHelp": "",
                        "VarEnumLabel": "Linear",
                        "VarEnumValue": 0
                      },
                      {
                        "VarEnumHelp": "",
                        "VarEnumLabel": "Sq root",
                        "VarEnumValue": 1
                      }
                    ],
                    "VarValType": "ENUMERATION",
                    "VarValue": 1
                  },
                  "VarType": "ENUMERATION"
                },
                "ItemLabel": "Transfer Function",
                "ItemType": "VARIABLE"
              },
              {
                "ItemContainerTag": "",
                "ItemHelp": "Upper Range Value- The digital process variable at the 20 mA point.  This defines the operational endpoint for the 4-20 mA analog output, and the 100% point of the Percent Range calculation.",
                "ItemID": 5014,
                "ItemInDD": true,
                "ItemInfo": {
                  "ItemClass": 32,
                  "ItemReadOnly": false,
                  "VarInfo": {
                    "VarUnit": "inH2O",
                    "VarValDisplayFormat": "7.2f",
                    "VarValEditFormat": "7.2f",
                    "VarValIsINF": false,
                    "VarValIsNAN": false,
                    "VarValType": "FLOAT",
                    "VarValue": 435.8958740234375
                  },
                  "VarType": "ARITHMETIC"
                },
                "ItemLabel": "Upper Range Value (20 mA)",
                "ItemType": "VARIABLE"
              },
              {
                "ItemContainerTag": "",
                "ItemHelp": "Lower Range Value- The digital process variable at the 4 mA point.  This defines the operational endpoint for the 4-20 mA analog output, and the 0% point of the Percent Range calculation.",
                "ItemID": 5015,
                "ItemInDD": true,
                "ItemInfo": {
                  "ItemClass": 32,
                  "ItemReadOnly": false,
                  "VarInfo": {
                    "VarUnit": "inH2O",
                    "VarValDisplayFormat": "7.2f",
                    "VarValEditFormat": "7.2f",
                    "VarValIsINF": false,
                    "VarValIsNAN": false,
                    "VarValType": "FLOAT",
                    "VarValue": -14.057366371154785
                  },
                  "VarType": "ARITHMETIC"
                },
                "ItemLabel": "Lower Range Value (4 mA)",
                "ItemType": "VARIABLE"
              }
            ]
          },
          "ItemLabel": "Basic Setup",
          "ItemType": "MENU"
        }
      }
    }
  ]
}
