{
  "ReadOnly": {
    "Input": {
      "Request": {
        "ItemContainerTag": "COND1TB",
        "ItemID": 131095,
        "ItemInfo": {
          "VarContainerID": 0,
          "VarSubIndex": 0,
          "VarValue": 15
        },
        "ItemReqType": "WRITE",
        "ItemType": "VARIABLE"
      },
      "Response": {
        "CommandName": "SetItem",
        "CommandResponse": {
          "result": "ok"
        }
      }
    },
    "Evaluate": {
      "Request": {
        "ItemContainerTag": "COND1TB",
        "ItemID": 131335,
        "ItemInDD": true,
        "ItemType": "VARIABLE"
      },
      "Response": {
        "CommandName": "GetItem",
        "CommandResponse": {
          "result": {
            "ItemContainerTag": "COND1TB",
            "ItemHelp": "Verify that host properly dereferences items when evaluating conditionals.",
            "ItemID": 131335,
            "ItemInDD": true,
            "ItemInfo": {
              "VarContainerID": 0,
              "VarSubIndex": 0,
              "ItemClass": 32768,
              "ItemReadOnly": true,
              "VarContainerID": 0,
              "VarInfo": {
                "VarUnit": "",
                "VarValDisplayFormat": "3.3f",
                "VarValEditFormat": "3.3f",
                "VarValIsINF": false,
                "VarValIsNAN": false,
                "VarValRange": [
                  {
                    "VarValMax": 100.0,
                    "VarValMin": 0.0
                  }
                ],
                "VarValType": "FLOAT",
                "VarValue": 0.0
              },
              "VarSubIndex": 0,
              "VarType": "ARITHMETIC"
            },
            "ItemLabel": "COND0010 Float Var",
            "ItemType": "VARIABLE"
          }
        }
      }
    }
  },
  "ReadWrite": {
    "Input": {
      "Request": {
        "ItemContainerTag": "COND1TB",
        "ItemID": 131095,
        "ItemInfo": {
          "VarContainerID": 0,
          "VarSubIndex": 0,
          "VarValue": 16
        },
        "ItemReqType": "WRITE",
        "ItemType": "VARIABLE"
      },
      "Response": {
        "CommandName": "SetItem",
        "CommandResponse": {
          "result": "ok"
        }
      }
    },
    "Evaluate": {
      "Request": {
        "ItemContainerTag": "COND1TB",
        "ItemID": 131335,
        "ItemInDD": true,
        "ItemType": "VARIABLE"
      },
      "Response": {
        "CommandName": "GetItem",
        "CommandResponse": {
          "result": {
            "ItemContainerTag": "COND1TB",
            "ItemHelp": "Verify that host properly dereferences items when evaluating conditionals.",
            "ItemID": 131335,
            "ItemInDD": true,
            "ItemInfo": {
              "VarContainerID": 0,
              "VarSubIndex": 0,
              "ItemClass": 32768,
              "ItemReadOnly": false,
              "VarContainerID": 0,
              "VarInfo": {
                "VarUnit": "",
                "VarValDisplayFormat": "3.3f",
                "VarValEditFormat": "3.3f",
                "VarValIsINF": false,
                "VarValIsNAN": false,
                "VarValRange": [
                  {
                    "VarValMax": 100.0,
                    "VarValMin": 0.0
                  }
                ],
                "VarValType": "FLOAT",
                "VarValue": 0.0
              },
              "VarSubIndex": 0,
              "VarType": "ARITHMETIC"
            },
            "ItemLabel": "COND0010 Float Var",
            "ItemType": "VARIABLE"
          }
        }
      }
    }
  }
}