{
  "Request": [
    {
      "ItemContainerTag": "",
      "ItemID": 169,
      "ItemInDD": true,
      "ItemType": "MENU"
    },
    {
      "ItemContainerTag": "",
      "ItemID": "Menu",
      "ItemInDD": true,
      "ItemType": "MENU"
    },
    {
      "ItemContainerTag": "",
      "ItemInDD": true,
      "ItemType": "MENU"
    }
  ],
  "Response": [
    {
      "CommandName": "GetItem",
      "CommandResponse": {
        "error": {
          "code": 91004,
          "message": "Failed to fetch menu information from DD."
        }
      }
    },
    {
      "CommandName": "GetItem",
      "CommandResponse": {
        "error": {
          "code": 91004,
          "message": "Failed to fetch menu information."
        }
      }
    },
    {
      "CommandName": "GetItem",
      "CommandResponse": {
        "error": {
          "code": 90002,
          "message": "Failed to process the command. JSON request is invalid."
        }
      }
    }
  ]
}

