{
  "Request": {
    "ItemContainerTag": "",
    "ItemID": 16962,
    "ItemInDD": true,
    "ItemType": "IMAGE"
  },
  "Response": {
    "CommandName": "GetItem",
    "CommandResponse": {
      "result": {
        "ItemContainerTag": "",
        "ItemHelp": "",
        "ItemID": 16962,
        "ItemInDD": true,
        "ItemInfo": {
          "ImagePath": "/home/bhuvana/Desktop/build87/digipro/build/x86/release/bin/16962x00a5Z"
        },
        "ItemLabel": "Device Image",
        "ItemType": "IMAGE"
      }
    }
  }
}