{
  "Request": {
    "ItemContainerTag": "",
    "ItemID": 16962,
    "ItemInDD": true,
    "ItemType": "Menu"
  },
  "Response": {
    "CommandName": "GetItem",
    "CommandResponse": {
      "error": {
        "code": 91001,
        "message": "Failed to fetch item information."
      }
    }
  }
}
