{
  "IMAGE": {
    "Request": {
      "ItemContainerTag": "VISUALTB",
      "ItemID": 132039,
      "ItemInDD": true,
      "ItemType": "MENU"
    },
    "Response": {
      "CommandName": "GetItem",
      "CommandResponse": {
        "result": {
          "ItemContainerTag": "VISUALTB",
          "ItemHelp": "",
          "ItemID": 132039,
          "ItemInDD": true,
          "ItemLabel": "TC_IMG_006 Window",
          "ItemType": "MENU"
        }
      }
    }
  }
}

