{
  "IMAGE": {
    "Request": {
      "ItemContainerTag": "VISUALTB",
      "ItemID": 132035,
      "ItemInDD": true,
      "ItemType": "IMAGE"
    },
    "Response": {
      "CommandName": "GetItem",
      "CommandResponse": {
        "result": {
          "ItemContainerTag": "VISUALTB",
          "ItemHelp": "View a jpg image in a window. The jpg image shall link to a method.",
          "ItemID": 132035,
          "ItemInDD": true,
          "ItemInfo": {
            "ImagePath": "/home/devuser/latest_atf/digipro/build/x86/release/bin/0pgeSDa"
          },
          "ItemLabel": "TC_IMG_005 Image",
          "ItemType": "IMAGE"
        }
      }
    }
  }
}

