{
  "IMAGE": {
    "Request": {
      "ItemContainerTag": "VISUALTB",
      "ItemID": 132025,
      "ItemInDD": true,
      "ItemType": "IMAGE"
    },
    "Response": {
      "CommandName": "GetItem",
      "CommandResponse": {
        "result": {
          "ItemContainerTag": "VISUALTB",
          "ItemHelp": "Verify that a jpg can be displayed.",
          "ItemID": 132025,
          "ItemInDD": true,
          "ItemInfo": {
            "ImagePath": "/home/devuser/latest_atf/digipro/build/x86/release/bin/0rQomrp"
          },
          "ItemLabel": "TC_IMG_001 Image",
          "ItemType": "IMAGE"
        }
      }
    }
  }
}

