{
  "Request": {
    "ItemContainerTag": "",
    "ItemID": 16464,
    "ItemInDD": true,
    "ItemType": "MENU"
  },
  "Response": {
    "CommandName": "GetItem",
    "CommandResponse": {
      "result": {
        "ItemContainerTag": "",
        "ItemHelp": "Test Variables : INTEGER, UNSIGNED INTEGER, FLOAT, DOUBLE, ASCII,PACKED ASCII, PASSWORD, ENUMERATED, BIT_ENUMERATED, DATE, TIME_VALUE",
        "ItemID": 16464,
        "ItemInDD": true,
        "ItemInfo": {
          "ItemList": [
            {
              "ItemContainerTag": "",
              "ItemHelp": "Class:Local , Default Value, Type:Integer , Display Format , Edit Format , Min Value , Max Value",
              "ItemID": 16413,
              "ItemInDD": true,
              "ItemInfo": {
                "ItemClass": 4096,
                "ItemReadOnly": false,
                "VarInfo": {
                  "VarUnit": "degC",
                  "VarValDisplayFormat": "4d",
                  "VarValEditFormat": "4d",
                  "VarValRange": [
                    {
                      "VarValMax": -50,
                      "VarValMin": -100
                    },
                    {
                      "VarValMax": 50,
                      "VarValMin": 1
                    }
                  ],
                  "VarValType": "INTEGER",
                  "VarValue": 4
                },
                "VarType": "ARITHMETIC"
              },
              "ItemLabel": "Integer",
              "ItemType": "VARIABLE"
            },
            {
              "ItemContainerTag": "",
              "ItemHelp": "Class : Local, Type:Unsigned Integer , Display Format , Edit Format , Min Value , Max Value , Scaling Factor ,Default Value , Post Edit Actions , Pre read Actions",
              "ItemID": 16417,
              "ItemInDD": true,
              "ItemInfo": {
                "ItemClass": 4096,
                "ItemReadOnly": false,
                "VarInfo": {
                  "VarUnit": "degC",
                  "VarValDisplayFormat": "8u",
                  "VarValEditFormat": "8u",
                  "VarValRange": [
                    {
                      "VarValMax": 50,
                      "VarValMin": 5
                    },
                    {
                      "VarValMax": 100,
                      "VarValMin": 80
                    }
                  ],
                  "VarValType": "UNSIGNED_INTEGER",
                  "VarValue": 10
                },
                "VarType": "ARITHMETIC"
              },
              "ItemLabel": "Unsigned Integer",
              "ItemType": "VARIABLE"
            },
            {
              "ItemContainerTag": "",
              "ItemHelp": "Class:Local , Constant Unit , Default Value, Type:Float, Display Format, Edit Format, Min Value, Max Value",
              "ItemID": 16409,
              "ItemInDD": true,
              "ItemInfo": {
                "ItemClass": 4096,
                "ItemReadOnly": false,
                "VarInfo": {
                  "VarUnit": "degC",
                  "VarValDisplayFormat": "3.2f",
                  "VarValEditFormat": "3.2f",
                  "VarValIsINF": false,
                  "VarValIsNAN": false,
                  "VarValRange": [
                    {
                      "VarValMax": 50.0,
                      "VarValMin": 10.0
                    },
                    {
                      "VarValMax": 100.0,
                      "VarValMin": 70.0
                    }
                  ],
                  "VarValType": "FLOAT",
                  "VarValue": 14.560000419616699
                },
                "VarType": "ARITHMETIC"
              },
              "ItemLabel": "Float",
              "ItemType": "VARIABLE"
            },
            {
              "ItemContainerTag": "",
              "ItemHelp": "Class:Local , Type : Double",
              "ItemID": 16434,
              "ItemInDD": true,
              "ItemInfo": {
                "ItemClass": 4096,
                "ItemReadOnly": false,
                "VarInfo": {
                  "VarUnit": "degC",
                  "VarValDisplayFormat": "12.8g",
                  "VarValEditFormat": "12.8g",
                  "VarValIsINF": false,
                  "VarValIsNAN": false,
                  "VarValRange": [
                    {
                      "VarValMax": 50.0,
                      "VarValMin": 10.0
                    },
                    {
                      "VarValMax": 100.0,
                      "VarValMin": 70.0
                    }
                  ],
                  "VarValType": "DOUBLE",
                  "VarValue": 14.56
                },
                "VarType": "ARITHMETIC"
              },
              "ItemLabel": "Double",
              "ItemType": "VARIABLE"
            },
            {
              "ItemContainerTag": "",
              "ItemHelp": "Class : Local , Type : Ascii , Default Value, Size",
              "ItemID": 16438,
              "ItemInDD": true,
              "ItemInfo": {
                "ItemClass": 4096,
                "ItemReadOnly": false,
                "VarInfo": {
                  "VarCharSet": "ISO Latin-1",
                  "VarValLength": 8,
                  "VarValType": "ASCII",
                  "VarValue": "AB"
                },
                "VarType": "STRING"
              },
              "ItemLabel": "ASCII",
              "ItemType": "VARIABLE"
            },
            {
              "ItemContainerTag": "",
              "ItemHelp": "Class : Local, Type : Packed Ascii , Default Value",
              "ItemID": 16440,
              "ItemInDD": true,
              "ItemInfo": {
                "ItemClass": 4096,
                "ItemReadOnly": false,
                "VarInfo": {
                  "VarCharSet": "ISO Latin-1",
                  "VarValLength": 8,
                  "VarValType": "PACKED_ASCII",
                  "VarValue": "AB"
                },
                "VarType": "STRING"
              },
              "ItemLabel": "Packed ASCII",
              "ItemType": "VARIABLE"
            },
            {
              "ItemContainerTag": "",
              "ItemHelp": "Class : Local , Type : Password , Size (8)",
              "ItemID": 16442,
              "ItemInDD": true,
              "ItemInfo": {
                "ItemClass": 4096,
                "ItemReadOnly": false,
                "VarInfo": {
                  "VarCharSet": "ISO Latin-1",
                  "VarValLength": 8,
                  "VarValType": "PASSWORD",
                  "VarValue": "AB"
                },
                "VarType": "STRING"
              },
              "ItemLabel": "Password",
              "ItemType": "VARIABLE"
            },
            {
              "ItemContainerTag": "",
              "ItemHelp": "Class : Local , Type : Enumerated, Size",
              "ItemID": 16431,
              "ItemInDD": true,
              "ItemInfo": {
                "ItemClass": 4096,
                "ItemReadOnly": false,
                "VarInfo": {
                  "VarEnumInfo": [
                    {
                      "VarEnumHelp": "",
                      "VarEnumLabel": "good",
                      "VarEnumValue": 0
                    },
                    {
                      "VarEnumHelp": "",
                      "VarEnumLabel": "bad",
                      "VarEnumValue": 1
                    },
                    {
                      "VarEnumHelp": "",
                      "VarEnumLabel": "moderate",
                      "VarEnumValue": 2
                    },
                    {
                      "VarEnumHelp": "",
                      "VarEnumLabel": "emergency",
                      "VarEnumValue": 3
                    }
                  ],
                  "VarValType": "ENUMERATION",
                  "VarValue": 0
                },
                "VarType": "ENUMERATION"
              },
              "ItemLabel": "Enumeration",
              "ItemType": "VARIABLE"
            },
            {
              "ItemContainerTag": "",
              "ItemHelp": "Class : Local , Type : Bit Enumerated ,Status class",
              "ItemID": 16449,
              "ItemInDD": true,
              "ItemInfo": {
                "ItemClass": 4096,
                "ItemReadOnly": false,
                "VarInfo": {
                  "VarEnumInfo": [
                    {
                      "VarEnumHelp": "",
                      "VarEnumLabel": "Bit Index 1",
                      "VarEnumValue": 1
                    },
                    {
                      "VarEnumHelp": "",
                      "VarEnumLabel": "Bit Index 2",
                      "VarEnumValue": 2
                    },
                    {
                      "VarEnumHelp": "",
                      "VarEnumLabel": "Bit Index 3",
                      "VarEnumValue": 4
                    },
                    {
                      "VarEnumHelp": "",
                      "VarEnumLabel": "Bit Index 4",
                      "VarEnumValue": 8
                    },
                    {
                      "VarEnumHelp": "",
                      "VarEnumLabel": "Bit Index 5",
                      "VarEnumValue": 16
                    },
                    {
                      "VarEnumHelp": "",
                      "VarEnumLabel": "Bit Index 6",
                      "VarEnumValue": 32
                    },
                    {
                      "VarEnumHelp": "",
                      "VarEnumLabel": "Bit Index 7",
                      "VarEnumValue": 64
                    },
                    {
                      "VarEnumHelp": "",
                      "VarEnumLabel": "Bit Index 8",
                      "VarEnumValue": 128
                    }
                  ],
                  "VarValType": "BITENUMERATION",
                  "VarValue": 0
                },
                "VarType": "ENUMERATION"
              },
              "ItemLabel": "Bit Enumeration",
              "ItemType": "VARIABLE"
            },
            {
              "ItemContainerTag": "",
              "ItemHelp": "Class : Local , Type : Date , Default Value",
              "ItemID": 16419,
              "ItemInDD": true,
              "ItemInfo": {
                "ItemClass": 4096,
                "ItemReadOnly": false,
                "VarInfo": {
                  "VarUnit": "",
                  "VarValDisplayFormat": "",
                  "VarValEditFormat": "",
                  "VarValRange": [
                    {
                      "VarValMax": 2034943,
                      "VarValMin": 65792
                    }
                  ],
                  "VarValType": "TIME_VALUE_DIFF",
                  "VarValue": 740860200
                },
                "VarType": "DATE_TIME"
              },
              "ItemLabel": "Date",
              "ItemType": "VARIABLE"
            },
            {
              "ItemContainerTag": "",
              "ItemHelp": "Class: Local , Type:Time_value , Display format , Edit_format , Time_scale: Hours",
              "ItemID": 16423,
              "ItemInDD": true,
              "ItemInfo": {
                "ItemClass": 4096,
                "ItemReadOnly": false,
                "VarInfo": {
                  "VarUnit": "h",
                  "VarValDisplayFormat": "11u",
                  "VarValEditFormat": "11u",
                  "VarValInfo": {
                    "VarValueScaled": "h"
                  },
                  "VarValRange": [
                    {
                      "VarValMax": 4294967295,
                      "VarValMin": 0
                    }
                  ],
                  "VarValType": "TIME_VALUE_SCALED",
                  "VarValue": 1
                },
                "VarType": "DATE_TIME"
              },
              "ItemLabel": "Time In Hours",
              "ItemType": "VARIABLE"
            }
          ]
        },
        "ItemLabel": "Test Variables",
        "ItemType": "MENU"
      }
    }
  }
}