{
   "Request":{ "ItemContainerTag":"","ItemID":17380,"ItemInDD":true,"ItemType":"MENU"},


   "Response":
   {
      "CommandName" : "GetItem",
      "CommandResponse" : {
         "result" : {
            "ItemContainerTag" : "",
            "ItemHelp" : "",
            "ItemID" : 17380,
            "ItemInDD" : true,
            "ItemInfo" : {
               "ItemList" : [
                  {
                     "ItemContainerTag" : "",
                     "ItemHelp" : "R0 Resistance in Ohms at zero degrees C.",
                     "ItemID" : 17131,
                     "ItemInDD" : true,
                     "ItemInfo" : {
                        "ItemClass" : 12,
                        "ItemReadOnly" : true,
                        "VarInfo" : {
                           "VarUnit" : "",
                           "VarValDisplayFormat" : "6.3f",
                           "VarValEditFormat" : "8.4f",
                           "VarValIsINF" : false,
                           "VarValIsNAN" : false,
                           "VarValType" : "FLOAT",
                           "VarValue" : 0.0
                        },
                        "VarType" : "ARITHMETIC"
                     },
                     "ItemLabel" : "R0 Value",
                     "ItemType" : "VARIABLE"
                  },
                  {
                     "ItemContainerTag" : "",
                     "ItemHelp" : "A value - xmtr storage format. Set in snsr conn Method.",
                     "ItemID" : 17132,
                     "ItemInDD" : true,
                     "ItemInfo" : {
                        "ItemClass" : 12,
                        "ItemReadOnly" : true,
                        "VarInfo" : {
                           "VarUnit" : "",
                           "VarValDisplayFormat" : ".8E",
                           "VarValEditFormat" : "16.9E",
                           "VarValIsINF" : false,
                           "VarValIsNAN" : false,
                           "VarValType" : "FLOAT",
                           "VarValue" : 0.0
                        },
                        "VarType" : "ARITHMETIC"
                     },
                     "ItemLabel" : "A Value",
                     "ItemType" : "VARIABLE"
                  },
                  {
                     "ItemContainerTag" : "",
                     "ItemHelp" : "B value - xmtr storage format. Set in snsr conn Method.",
                     "ItemID" : 17133,
                     "ItemInDD" : true,
                     "ItemInfo" : {
                        "ItemClass" : 12,
                        "ItemReadOnly" : true,
                        "VarInfo" : {
                           "VarUnit" : "",
                           "VarValDisplayFormat" : ".8E",
                           "VarValEditFormat" : "16.9E",
                           "VarValIsINF" : false,
                           "VarValIsNAN" : false,
                           "VarValType" : "FLOAT",
                           "VarValue" : 0.0
                        },
                        "VarType" : "ARITHMETIC"
                     },
                     "ItemLabel" : "B Value",
                     "ItemType" : "VARIABLE"
                  },
                  {
                     "ItemContainerTag" : "",
                     "ItemHelp" : "C value - xmtr storage format. Set in snsr conn Method.",
                     "ItemID" : 17134,
                     "ItemInDD" : true,
                     "ItemInfo" : {
                        "ItemClass" : 12,
                        "ItemReadOnly" : true,
                        "VarInfo" : {
                           "VarUnit" : "",
                           "VarValDisplayFormat" : ".8E",
                           "VarValEditFormat" : "16.9E",
                           "VarValIsINF" : false,
                           "VarValIsNAN" : false,
                           "VarValType" : "FLOAT",
                           "VarValue" : 0.0
                        },
                        "VarType" : "ARITHMETIC"
                     },
                     "ItemLabel" : "C Value",
                     "ItemType" : "VARIABLE"
                  },
                  {
                     "ItemContainerTag" : "",
                     "ItemHelp" : "Set CVD Coefficients",
                     "ItemID" : 16712,
                     "ItemInDD" : true,
                     "ItemInfo" : {
                        "ItemClass" : 0,
                        "ItemReadOnly" : true
                     },
                     "ItemLabel" : "Set CVD Coefficients",
                     "ItemType" : "METHOD"
                  },
                  {
                     "ItemContainerTag" : "",
                     "ItemHelp" : "View CVD a,ß,d",
                     "ItemID" : 17135,
                     "ItemInDD" : true,
                     "ItemInfo" : {
                        "ItemClass" : 0,
                        "ItemReadOnly" : true
                     },
                     "ItemLabel" : "View CVD a,ß,d",
                     "ItemType" : "METHOD"
                  }
               ]
            },
            "ItemLabel" : "Sensor Matching-CVD",
            "ItemType" : "MENU"
         }
      }
   }
}