{
  "Request": [
    {
      "ItemContainerTag": "",
      "ItemID": 16522,
      "ItemInfo": {
        "VarValue": 0
      },
      "ItemReqType": "WRITE",
      "ItemType": "VARIABLE"
    },
    {
      "ItemContainerTag": "",
      "ItemID": 16522,
      "ItemInfo": {
        "VarValue": 128
      },
      "ItemReqType": "WRITE",
      "ItemType": "VARIABLE"
    },
    {
      "ItemContainerTag": "",
      "ItemID": 16522,
      "ItemInfo": {
        "VarValue": 12
      },
      "ItemReqType": "WRITE",
      "ItemType": "VARIABLE"
    },
    {
      "ItemContainerTag": "",
      "ItemID": 16522,
      "ItemInfo": {
        "VarValue": 134
      },
      "ItemReqType": "WRITE",
      "ItemType": "VARIABLE"
    }
  ],
  "Response": {
    "CommandName": "SetItem",
    "CommandResponse": {
      "result": "ok"
    }
  }
}

