{
  "Request": [
    {
      "ItemContainerTag": "",
      "ItemID": 17183,
      "ItemInDD": true,
      "ItemType": "VARIABLE"
    },
    {
      "ItemContainerTag": "",
      "ItemID": 17183,
      "ItemInfo": {
        "VarValue": 64
      },
      "ItemReqType": "WRITE",
      "ItemType": "VARIABLE"
    },
    {
      "ItemContainerTag": "",
      "ItemID": 17183,
      "ItemInfo": {
        "VarValue": 44
      },
      "ItemReqType": "WRITE",
      "ItemType": "VARIABLE"
    },
    {
      "ItemContainerTag": "",
      "ItemID": 17183,
      "ItemInfo": {
        "VarValue": 2.3
      },
      "ItemReqType": "WRITE",
      "ItemType": "VARIABLE"
    },
    {
      "ItemContainerTag": "",
      "ItemID": 17183,
      "ItemInfo": {
        "VarValue": "Three"
      },
      "ItemReqType": "WRITE",
      "ItemType": "VARIABLE"
    },
    {
      "ItemContainerTag": "",
      "ItemID": 17183,
      "ItemInfo": {
        "VarValue": -1
      },
      "ItemReqType": "WRITE",
      "ItemType": "VARIABLE"
    }
  ],
  "Response": [
    {
      "CommandName": "GetItem",
      "CommandResponse": {
        "result": {
          "ItemContainerTag": "",
          "ItemHelp": "Meter Type - Display options for the LCD Meter.\\nNote - A meter does NOT have to be present to be configured. PV will display the xmtr variable that is mapped to it.",
          "ItemID": 17183,
          "ItemInDD": true,
          "ItemInfo": {
            "ItemClass": 260,
            "ItemReadOnly": false,
            "VarInfo": {
              "VarEnumInfo": [
                {
                  "VarEnumHelp": "Sensor 1",
                  "VarEnumLabel": "Sensor 1",
                  "VarEnumValue": 1
                },
                {
                  "VarEnumHelp": "Terminal Temperature",
                  "VarEnumLabel": "Terminal Temperature",
                  "VarEnumValue": 2
                },
                {
                  "VarEnumHelp": "Primary Variable Temperature",
                  "VarEnumLabel": "Primary Variable Temperature",
                  "VarEnumValue": 32
                },
                {
                  "VarEnumHelp": "Percent of Range",
                  "VarEnumLabel": "Percent of Range",
                  "VarEnumValue": 64
                },
                {
                  "VarEnumHelp": "Analog Output",
                  "VarEnumLabel": "Analog Output",
                  "VarEnumValue": 128
                }
              ],
              "VarValType": "BITENUMERATION",
              "VarValue": 64
            },
            "VarType": "ENUMERATION"
          },
          "ItemLabel": "Variables Displayed",
          "ItemType": "VARIABLE"
        }
      }
    },
    {
      "CommandName": "SetItem",
      "CommandResponse": {
        "result": "ok"
      }
    },
    {
      "CommandName": "SetItem",
      "CommandResponse": {
        "error": {
          "code": 91101,
          "message": "Failed to write value to the device."
        }
      }
    }
  ]
}
