{
  "Request": [
    {
      "ItemContainerTag": "",
      "ItemID": 17183,
      "ItemInDD": true,
      "ItemInfo": {
        "VarBitIndex": 1
      },
      "ItemType": "VARIABLE"
    },
    {
      "ItemContainerTag": "",
      "ItemID": 17183,
      "ItemInfo": {
        "VarBitIndex": 1,
        "VarValue": true
      },
      "ItemReqType": "WRITE",
      "ItemType": "VARIABLE"
    },
    {
      "ItemContainerTag": "",
      "ItemID": 17183,
      "ItemInDD": true,
      "ItemInfo": {
        "VarBitIndex": 5
      },
      "ItemType": "VARIABLE"
    },
    {
      "ItemContainerTag": "",
      "ItemID": 17183,
      "ItemInfo": {
        "VarBitIndex": 5,
        "VarValue": 1
      },
      "ItemReqType": "WRITE",
      "ItemType": "VARIABLE"
    },
    {
      "ItemContainerTag": "",
      "ItemID": 17183,
      "ItemInfo": {
        "VarBitIndex": 1,
        "VarValue": "string"
      },
      "ItemReqType": "WRITE",
      "ItemType": "VARIABLE"
    }
  ],
  "Response": [
    {
      "CommandName": "GetItem",
      "CommandResponse": {
        "result": {
          "ItemContainerTag": "",
          "ItemHelp": "Sensor 1",
          "ItemID": 17183,
          "ItemInDD": true,
          "ItemInfo": {
            "ItemClass": 260,
            "ItemReadOnly": false,
            "VarInfo": {
              "VarBitIndex": 1,
              "VarValType": "BITENUMERATION_ITEM",
              "VarValue": true
            },
            "VarType": "ENUMERATION"
          },
          "ItemLabel": "Sensor 1",
          "ItemType": "VARIABLE"
        }
      }
    },
    {
      "CommandName": "SetItem",
      "CommandResponse": {
        "result": "ok"
      }
    },
    {
      "CommandName": "GetItem",
      "CommandResponse": {
        "error": {
          "code": 91001,
          "message": "Failed to fetch item information."
        }
      }
    },
    {
      "CommandName": "GetItem",
      "CommandResponse": {
        "error": {
          "code": 91002,
          "message": "Failed to fetch parameter attribute information."
        }
      }
    },
    {
      "CommandName": "SetItem",
      "CommandResponse": {
        "error": {
          "code": 91100,
          "message": "Failed to set item information."
        }
      }
    },
    {
      "CommandName": "SetItem",
      "CommandResponse": {
        "error": {
          "code": 91101,
          "message": "Failed to write value to the device."
        }
      }
    }
  ]
}