{
  "Subscription": {
    "Create": {
      "Request": {
        "ItemAction": "create",
        "ItemList": [
          {
            "ItemContainerTag": "",
            "ItemID": 4049,
            "ItemInfo": {
              "VarBitIndex": 0,
              "VarContainerID": 0,
              "VarSubIndex": 0
            }
          }
        ],
        "ItemRefreshRate": 2
      },
      "Response": {
        "CommandName": "ProcessSubscription",
        "CommandResponse": {
          "result": {
            "ItemSubscriptionID": 2
          }
        }
      }
    },
    "Start": {
      "Request": {
        "ItemAction": "start",
        "ItemSubscriptionID": 2
      },
      "Response": {
        "CommandName": "ProcessSubscription",
        "CommandResponse": {
          "result": "ok"
        }
      }
    },
    "Stop": {
      "Request": {
        "ItemAction": "stop",
        "ItemSubscriptionID": 2
      },
      "Response": {
        "CommandName": "ProcessSubscription",
        "CommandResponse": {
          "result": "ok"
        }
      }
    },
    "Delete": {
      "Request": {
        "ItemAction": "delete",
        "ItemSubscriptionID": 2
      },
      "Response": {
        "CommandName": "ProcessSubscription",
        "CommandResponse": {
          "result": "ok"
        }
      }
    },
    "Notify": {
      "ItemList": [
        {
          "ItemID": 4049,
          "ItemInfo": {
            "VarInfo": {
              "VarValue": 2
            }
          }
        }
      ],
      "ItemSubscriptionID": 2,
      "ItemType": "VARIABLE"
    }
  }
}








