{
  "BitEnumItemMenu": {
    "Request": {
      "ItemContainerTag": "",
      "ItemID": 17400,
      "ItemInDD": true,
      "ItemType": "MENU"
    },
    "Response": {
      "CommandName": "GetItem",
      "CommandResponse": {
        "result": {
          "ItemContainerTag": "",
          "ItemHelp": "",
          "ItemID": 17400,
          "ItemInDD": true,
          "ItemInfo": {
            "ItemList": [
              {
                "ItemContainerTag": "",
                "ItemHelp": "Sensor 1",
                "ItemID": 17183,
                "ItemInDD": true,
                "ItemInfo": {
                  "ItemClass": 260,
                  "ItemReadOnly": false,
                  "VarInfo": {
                    "VarBitIndex": 1,
                    "VarValType": "BITENUMERATION_ITEM",
                    "VarValue": true
                  },
                  "VarType": "ENUMERATION"
                },
                "ItemLabel": "Sensor 1",
                "ItemType": "VARIABLE"
              },
              {
                "ItemContainerTag": "",
                "ItemHelp": "Primary Variable Temperature",
                "ItemID": 17183,
                "ItemInDD": true,
                "ItemInfo": {
                  "ItemClass": 260,
                  "ItemReadOnly": false,
                  "VarInfo": {
                    "VarBitIndex": 32,
                    "VarValType": "BITENUMERATION_ITEM",
                    "VarValue": false
                  },
                  "VarType": "ENUMERATION"
                },
                "ItemLabel": "Primary Variable Temperature",
                "ItemType": "VARIABLE"
              },
              {
                "ItemContainerTag": "",
                "ItemHelp": "Analog Output",
                "ItemID": 17183,
                "ItemInDD": true,
                "ItemInfo": {
                  "ItemClass": 260,
                  "ItemReadOnly": false,
                  "VarInfo": {
                    "VarBitIndex": 128,
                    "VarValType": "BITENUMERATION_ITEM",
                    "VarValue": false
                  },
                  "VarType": "ENUMERATION"
                },
                "ItemLabel": "Analog Output",
                "ItemType": "VARIABLE"
              },
              {
                "ItemContainerTag": "",
                "ItemHelp": "Percent of Range",
                "ItemID": 17183,
                "ItemInDD": true,
                "ItemInfo": {
                  "ItemClass": 260,
                  "ItemReadOnly": false,
                  "VarInfo": {
                    "VarBitIndex": 64,
                    "VarValType": "BITENUMERATION_ITEM",
                    "VarValue": true
                  },
                  "VarType": "ENUMERATION"
                },
                "ItemLabel": "Percent of Range",
                "ItemType": "VARIABLE"
              },
              {
                "ItemContainerTag": "",
                "ItemHelp": "Terminal Temperature",
                "ItemID": 17183,
                "ItemInDD": true,
                "ItemInfo": {
                  "ItemClass": 260,
                  "ItemReadOnly": false,
                  "VarInfo": {
                    "VarBitIndex": 2,
                    "VarValType": "BITENUMERATION_ITEM",
                    "VarValue": false
                  },
                  "VarType": "ENUMERATION"
                },
                "ItemLabel": "Terminal Temperature",
                "ItemType": "VARIABLE"
              }
            ]
          },
          "ItemLabel": "Variables Displayed",
          "ItemType": "MENU"
        }
      }
    }
  },
  "BitEnumGetSet": {
    "SetVar": {
      "Request": {
        "ItemContainerTag": "",
        "ItemID": 17183,
        "ItemInfo": {
          "VarBitIndex": 1,
          "VarContainerID": 0,
          "VarSubIndex": 0,
          "VarValue": true
        },
        "ItemReqType": "WRITE",
        "ItemType": "VARIABLE"
      },
      "Response": {
        "CommandName": "SetItem",
        "CommandResponse": {
          "result": "ok"
        }
      }
    },
    "GetVar": {
      "Request": {
        "ItemContainerTag": "",
        "ItemID": 17183,
        "ItemInDD": true,
        "ItemInfo": {
          "ItemHasRelation": false,
          "VarBitIndex": 1,
          "VarContainerID": 0,
          "VarSubIndex": 0
        },
        "ItemType": "VARIABLE"
      },
      "Response": {
        "CommandName": "GetItem",
        "CommandResponse": {
          "result": {
            "ItemContainerTag": "",
            "ItemHelp": "Sensor 1",
            "ItemID": 17183,
            "ItemInDD": true,
            "ItemInfo": {
              "ItemClass": 260,
              "ItemReadOnly": false,
              "VarInfo": {
                "VarBitIndex": 1,
                "VarValType": "BITENUMERATION_ITEM",
                "VarValue": true
              },
              "VarType": "ENUMERATION"
            },
            "ItemLabel": "Sensor 1",
            "ItemType": "VARIABLE"
          }
        }
      }
    }
  },
  "InvalidBitIndex": {
    "Request": {
      "ItemContainerTag": "",
      "ItemID": 17183,
      "ItemInDD": true,
      "ItemInfo": {
        "ItemHasRelation": false,
        "VarBitIndex": "abc",
        "VarContainerID": 0,
        "VarSubIndex": 0
      },
      "ItemType": "VARIABLE"
    },
    "Response": {
      "CommandName": "GetItem",
      "CommandResponse": {
        "error": {
          "code": 90002,
          "message": "Failed to process the command. JSON request is invalid."
        }
      }
    }
  },
  "IncorrectBitIndex": {
    "Request": {
      "ItemContainerTag": "",
      "ItemID": 17183,
      "ItemInDD": true,
      "ItemInfo": {
        "ItemHasRelation": false,
        "VarBitIndex": 16,
        "VarContainerID": 0,
        "VarSubIndex": 0
      },
      "ItemType": "VARIABLE"
    },
    "Response": {
      "CommandName": "GetItem",
      "CommandResponse": {
        "error": {
          "code": 91001,
          "message": "Failed to fetch item information."
        }
      }
    }
  },
  "InvalidItemID": {
    "Request": {
      "ItemContainerTag": "",
      "ItemID": "abc",
      "ItemInDD": true,
      "ItemInfo": {
        "ItemHasRelation": false,
        "VarBitIndex": 1,
        "VarContainerID": 0,
        "VarSubIndex": 0
      },
      "ItemType": "VARIABLE"
    },
    "Response": {
      "CommandName": "GetItem",
      "CommandResponse": {
        "error": {
          "code": 90002,
          "message": "Failed to process the command. JSON request is invalid."
        }
      }
    }
  },
  "IncorrectItemID": {
    "Request": {
      "ItemContainerTag": "",
      "ItemID": 17102,
      "ItemInDD": true,
      "ItemInfo": {
        "ItemHasRelation": false,
        "VarBitIndex": 1,
        "VarContainerID": 0,
        "VarSubIndex": 0
      },
      "ItemType": "VARIABLE"
    },
    "Response": {
      "CommandName": "GetItem",
      "CommandResponse": {
        "error": {
          "code": 91002,
          "message": "Failed to fetch parameter attribute information."
        }
      }
    }
  },
  "IncorrectItemType": {
    "Request": {
      "ItemContainerTag": "",
      "ItemID": 17182,
      "ItemInDD": true,
      "ItemInfo": {
        "ItemHasRelation": false,
        "VarBitIndex": 1,
        "VarContainerID": 0,
        "VarSubIndex": 0
      },
      "ItemType": "MENU"
    },
    "Response": {
      "CommandName": "GetItem",
      "CommandResponse": {
        "error": {
          "code": 91001,
          "message": "Failed to fetch item information."
        }
      }
    }
  },
    "InvalidItemType": {
    "Request": {
      "ItemContainerTag": "",
      "ItemID": 17182,
      "ItemInDD": true,
      "ItemInfo": {
        "ItemHasRelation": false,
        "VarBitIndex": 1,
        "VarContainerID": 0,
        "VarSubIndex": 0
      },
      "ItemType": 1234
    },
    "Response": {
      "CommandName": "GetItem",
      "CommandResponse": {
        "error": {
          "code": 91001,
          "message": "Failed to fetch item information."
        }
      }
    }
  },
  "IncorrectVarValue": {
    "Request": {
      "ItemContainerTag": "",
      "ItemID": 17183,
      "ItemInfo": {
        "VarBitIndex": 1,
        "VarContainerID": 0,
        "VarSubIndex": 0,
        "VarValue": -1
      },
      "ItemReqType": "WRITE",
      "ItemType": "VARIABLE"
    },
    "Response": {
      "CommandName": "SetItem",
      "CommandResponse": {
        "error": {
          "code": 91101,
          "message": "Failed to write value to the device."
        }
      }
    }
  },
  "InvalidVarValue": {
    "Request": {
      "ItemContainerTag": "",
      "ItemID": 17183,
      "ItemInfo": {
        "VarBitIndex": 1,
        "VarContainerID": 0,
        "VarSubIndex": 0,
        "VarValue": "abc"
      },
      "ItemReqType": "WRITE",
      "ItemType": "VARIABLE"
    },
    "Response": {
      "CommandName": "SetItem",
      "CommandResponse": {
        "error": {
          "code": 91101,
          "message": "Failed to write value to the device."
        }
      }
    }
  }
}