{
  "Request": {},
  "Response": [
    {
      "CommandName": "GetItem",
      "CommandResponse": {
        "error": {
          "code": 90002,
          "message": "Failed to process the command. JSON request is invalid."
        }
      }
    },
    {
      "CommandName": "SetItem",
      "CommandResponse": {
        "error": {
          "code": 90002,
          "message": "Failed to process the command. JSON request is invalid."
        }
      }
    }
  ]
}