{
  "Request": {
  },
  "Response": {
    "CommandName": "GetBusParameters",
    "CommandResponse": {
      "result": {
        "FF_BUS_PARAMS": {
          "fun": 30,
          "mipd": 16,
          "mrd": 10,
          "nun": 10,
          "phge": 0,
          "phis_skew": 0,
          "phlo": 6,
          "phpe": 2,
          "set_default": 0,
          "slot_time": 16,
          "this_link": 0,
          "tsc": 3
        }
      }
    }
  }
}

