{
  "FF": {
    "Request": {
      "DeviceNodeAddress": 250
    },
    "Response": {
      "CommandName": "GetFieldDeviceConfig",
      "CommandResponse": {
        "result": {
          "DeviceNodeAddress": 250,
          "DeviceTag": "644FFV                          "
        }
      }
    }
  }
}