{
  "FF": {
    "Request": {
      "DeviceNodeAddress": 31
    },
    "Response": {
      "CommandName": "GetFieldDeviceConfig",
      "CommandResponse": {
        "result": {
          "DeviceClass": 1,
          "DeviceNodeAddress": 31,
          "DeviceTag": "644FFV                          "
        }
      }
    }
  }
}