{
  "Request": {
  },
  "Response": {
    "CommandName": "Initialize",
    "CommandResponse": {
      "error": {
        "code": 90103,
        "message": "Protocol stack is already initialized in CPM application."
      }
    }
  }
}
