{
  "FF": {
    "Request": {
      "Protocol": "qwert"
    },
    "Response": {
      "CommandName": "SetProtocolType",
      "CommandResponse": {
        "error": {
          "code": 90002,
          "message": "Failed to process the command. JSON request is invalid."
        }
      }
    }
  }
}