{
  "StopScan": {
    "Request": {
    },
    "Response": {
      "CommandName": "StopScan",
      "CommandResponse": {
        "error": {
          "code": 90202,
          "message": "Failed to stop scanning in CPM application."
        }
      }
    }
  }
}