{
  "Request": {
    "Protocol": "FF"
  },
  "Response": {
    "CommandName": "SetProtocolType",
    "CommandResponse": {
      "error": {
        "code": 90101,
        "message": "Protocol is already set in CPM application."
      }
    }
  }
}
