{
  "FF": {
    "Request": {
      "DeviceClass": 1,
      "DeviceConfig": "DEVICECLASS",
      "DeviceNodeAddress": 31,
      "NewDeviceNodeAddress": 164,
      "NewDeviceTag": ""
    },
    "Response": {
      "CommandName": "SetFieldDeviceConfig",
      "CommandResponse": {
        "result": "ok"
      }
    }
  }
}