{
  "AlarmList": {
    "Request": {
      "ItemContainerTag": "__analog_input_block",
      "ItemID": 12,
      "ItemInDD": false,
      "ItemType": "MENU"
    },
    "Response": {
      "CommandName": "GetItem",
      "CommandResponse": {
        "result": {
          "ItemContainerTag": "__analog_input_block",
          "ItemHelp": "Block Alarms",
          "ItemID": 12,
          "ItemInDD": false,
          "ItemInfo": {
            "ItemList": [
              {
                "ItemContainerTag": "__analog_input_block",
                "ItemHelp": "Selection of whether alarms associated with the function block will be automatically acknowledged.",
                "ItemID": 2147614864,
                "ItemInDD": true,
                "ItemInfo": {
                  "ItemClass": 163840,
                  "ItemReadOnly": false,
                  "VarContainerID": 0,
                  "VarInfo": {
                    "VarEnumInfo": [
                      {
                        "VarEnumHelp": "Operator must Acknowledge Alarm Condition",
                        "VarEnumLabel": "Unack Alarm 1",
                        "VarEnumValue": 1
                      },
                      {
                        "VarEnumHelp": "Operator must Acknowledge Alarm Condition",
                        "VarEnumLabel": "Unack Alarm 2",
                        "VarEnumValue": 2
                      },
                      {
                        "VarEnumHelp": "Operator must Acknowledge Alarm Condition",
                        "VarEnumLabel": "Unack Alarm 3",
                        "VarEnumValue": 4
                      },
                      {
                        "VarEnumHelp": "Operator must Acknowledge Alarm Condition",
                        "VarEnumLabel": "Unack Alarm 4",
                        "VarEnumValue": 8
                      },
                      {
                        "VarEnumHelp": "Operator must Acknowledge Alarm Condition",
                        "VarEnumLabel": "Unack Alarm 5",
                        "VarEnumValue": 16
                      },
                      {
                        "VarEnumHelp": "Operator must Acknowledge Alarm Condition",
                        "VarEnumLabel": "Unack Alarm 6",
                        "VarEnumValue": 32
                      },
                      {
                        "VarEnumHelp": "Operator must Acknowledge Alarm Condition",
                        "VarEnumLabel": "Unack Alarm 7",
                        "VarEnumValue": 64
                      },
                      {
                        "VarEnumHelp": "Operator must Acknowledge Alarm Condition",
                        "VarEnumLabel": "Unack Alarm 8",
                        "VarEnumValue": 128
                      },
                      {
                        "VarEnumHelp": "Operator must Acknowledge Alarm Condition",
                        "VarEnumLabel": "Unack Alarm 9",
                        "VarEnumValue": 256
                      },
                      {
                        "VarEnumHelp": "Operator must Acknowledge Alarm Condition",
                        "VarEnumLabel": "Unack Alarm 10",
                        "VarEnumValue": 512
                      },
                      {
                        "VarEnumHelp": "Operator must Acknowledge Alarm Condition",
                        "VarEnumLabel": "Unack Alarm 11",
                        "VarEnumValue": 1024
                      },
                      {
                        "VarEnumHelp": "Operator must Acknowledge Alarm Condition",
                        "VarEnumLabel": "Unack Alarm 12",
                        "VarEnumValue": 2048
                      },
                      {
                        "VarEnumHelp": "Operator must Acknowledge Alarm Condition",
                        "VarEnumLabel": "Unack Alarm 13",
                        "VarEnumValue": 4096
                      },
                      {
                        "VarEnumHelp": "Operator must Acknowledge Alarm Condition",
                        "VarEnumLabel": "Unack Alarm 14",
                        "VarEnumValue": 8192
                      },
                      {
                        "VarEnumHelp": "Operator must Acknowledge Alarm Condition",
                        "VarEnumLabel": "Unack Alarm 15",
                        "VarEnumValue": 16384
                      },
                      {
                        "VarEnumHelp": "Operator must Acknowledge Alarm Condition",
                        "VarEnumLabel": "Unack Alarm 16",
                        "VarEnumValue": 32768
                      }
                    ],
                    "VarValType": "BITENUMERATION",
                    "VarValue": 0
                  },
                  "VarSubIndex": 0,
                  "VarType": "ENUMERATION"
                },
                "ItemLabel": "Acknowledge Option",
                "ItemType": "VARIABLE"
              },
              {
                "ItemContainerTag": "__analog_input_block",
                "ItemHelp": "Priority of the high high alarm.",
                "ItemID": 2147614976,
                "ItemInDD": true,
                "ItemInfo": {
                  "ItemClass": 163840,
                  "ItemReadOnly": false,
                  "VarContainerID": 0,
                  "VarInfo": {
                    "VarUnit": "",
                    "VarValDisplayFormat": "u",
                    "VarValEditFormat": "u",
                    "VarValRange": [
                      {
                        "VarValMax": 15
                      }
                    ],
                    "VarValType": "UNSIGNED_INTEGER",
                    "VarValue": 0
                  },
                  "VarSubIndex": 0,
                  "VarType": "ARITHMETIC"
                },
                "ItemLabel": "High High Priority",
                "ItemType": "VARIABLE"
              },
              {
                "ItemContainerTag": "__analog_input_block",
                "ItemHelp": "The setting for high high alarm in engineering units.",
                "ItemID": 2147614974,
                "ItemInDD": true,
                "ItemInfo": {
                  "ItemClass": 163840,
                  "ItemReadOnly": false,
                  "VarContainerID": 0,
                  "VarInfo": {
                    "VarUnit": "%",
                    "VarValDisplayFormat": "f",
                    "VarValEditFormat": "f",
                    "VarValIsINF": false,
                    "VarValIsNAN": false,
                    "VarValType": "FLOAT",
                    "VarValue": 0.0
                  },
                  "VarSubIndex": 0,
                  "VarType": "ARITHMETIC"
                },
                "ItemLabel": "High High Limit",
                "ItemType": "VARIABLE"
              },
              {
                "ItemContainerTag": "__analog_input_block",
                "ItemHelp": "Priority of the high alarm.",
                "ItemID": 2147614980,
                "ItemInDD": true,
                "ItemInfo": {
                  "ItemClass": 163840,
                  "ItemReadOnly": false,
                  "VarContainerID": 0,
                  "VarInfo": {
                    "VarUnit": "",
                    "VarValDisplayFormat": "u",
                    "VarValEditFormat": "u",
                    "VarValRange": [
                      {
                        "VarValMax": 15
                      }
                    ],
                    "VarValType": "UNSIGNED_INTEGER",
                    "VarValue": 0
                  },
                  "VarSubIndex": 0,
                  "VarType": "ARITHMETIC"
                },
                "ItemLabel": "High Priority",
                "ItemType": "VARIABLE"
              },
              {
                "ItemContainerTag": "__analog_input_block",
                "ItemHelp": "The setting for high alarm in engineering units.",
                "ItemID": 2147614978,
                "ItemInDD": true,
                "ItemInfo": {
                  "ItemClass": 163840,
                  "ItemReadOnly": false,
                  "VarContainerID": 0,
                  "VarInfo": {
                    "VarUnit": "%",
                    "VarValDisplayFormat": "f",
                    "VarValEditFormat": "f",
                    "VarValIsINF": false,
                    "VarValIsNAN": false,
                    "VarValType": "FLOAT",
                    "VarValue": 0.0
                  },
                  "VarSubIndex": 0,
                  "VarType": "ARITHMETIC"
                },
                "ItemLabel": "High Limit",
                "ItemType": "VARIABLE"
              },
              {
                "ItemContainerTag": "__analog_input_block",
                "ItemHelp": "Priority of the low low alarm.",
                "ItemID": 2147615004,
                "ItemInDD": true,
                "ItemInfo": {
                  "ItemClass": 163840,
                  "ItemReadOnly": false,
                  "VarContainerID": 0,
                  "VarInfo": {
                    "VarUnit": "",
                    "VarValDisplayFormat": "u",
                    "VarValEditFormat": "u",
                    "VarValRange": [
                      {
                        "VarValMax": 15
                      }
                    ],
                    "VarValType": "UNSIGNED_INTEGER",
                    "VarValue": 0
                  },
                  "VarSubIndex": 0,
                  "VarType": "ARITHMETIC"
                },
                "ItemLabel": "Low Low Priority",
                "ItemType": "VARIABLE"
              },
              {
                "ItemContainerTag": "__analog_input_block",
                "ItemHelp": "The setting of the low low alarm in engineering units.",
                "ItemID": 2147615002,
                "ItemInDD": true,
                "ItemInfo": {
                  "ItemClass": 163840,
                  "ItemReadOnly": false,
                  "VarContainerID": 0,
                  "VarInfo": {
                    "VarUnit": "%",
                    "VarValDisplayFormat": "f",
                    "VarValEditFormat": "f",
                    "VarValIsINF": false,
                    "VarValIsNAN": false,
                    "VarValType": "FLOAT",
                    "VarValue": 0.0
                  },
                  "VarSubIndex": 0,
                  "VarType": "ARITHMETIC"
                },
                "ItemLabel": "Low Low Limit",
                "ItemType": "VARIABLE"
              },
              {
                "ItemContainerTag": "__analog_input_block",
                "ItemHelp": "Priority of the low alarm.",
                "ItemID": 2147614998,
                "ItemInDD": true,
                "ItemInfo": {
                  "ItemClass": 163840,
                  "ItemReadOnly": false,
                  "VarContainerID": 0,
                  "VarInfo": {
                    "VarUnit": "",
                    "VarValDisplayFormat": "u",
                    "VarValEditFormat": "u",
                    "VarValRange": [
                      {
                        "VarValMax": 15
                      }
                    ],
                    "VarValType": "UNSIGNED_INTEGER",
                    "VarValue": 0
                  },
                  "VarSubIndex": 0,
                  "VarType": "ARITHMETIC"
                },
                "ItemLabel": "Low Priority",
                "ItemType": "VARIABLE"
              },
              {
                "ItemContainerTag": "__analog_input_block",
                "ItemHelp": "The setting for the low alarm in engineering units.",
                "ItemID": 2147614996,
                "ItemInDD": true,
                "ItemInfo": {
                  "ItemClass": 163840,
                  "ItemReadOnly": false,
                  "VarContainerID": 0,
                  "VarInfo": {
                    "VarUnit": "%",
                    "VarValDisplayFormat": "f",
                    "VarValEditFormat": "f",
                    "VarValIsINF": false,
                    "VarValIsNAN": false,
                    "VarValType": "FLOAT",
                    "VarValue": 0.0
                  },
                  "VarSubIndex": 0,
                  "VarType": "ARITHMETIC"
                },
                "ItemLabel": "Low Limit",
                "ItemType": "VARIABLE"
              },
              {
                "ItemContainerTag": "__analog_input_block",
                "ItemHelp": "The block alarm is used for all configuration, hardware, connection failure or system problems in the block. The cause of the alert is entered in the subcode field. The first alert to become active will set the Active status in the Status attribute. As soon as the Unreported status is cleared by the alert reporting task, another block alert may be reported without clearing the Active status, if the subcode has changed.",
                "ItemID": 2147614890,
                "ItemInDD": true,
                "ItemLabel": "Block Alarm",
                "ItemType": "RECORD"
              },
              {
                "ItemContainerTag": "__analog_input_block",
                "ItemHelp": "The current alert status, unacknowledged states, unreported states, and disabled states of the alarms associated with the function block.",
                "ItemID": 2147614773,
                "ItemInDD": true,
                "ItemLabel": "Alarm Summary",
                "ItemType": "RECORD"
              },
              {
                "ItemContainerTag": "__analog_input_block",
                "ItemHelp": "This alert is generated by any change to the static data.",
                "ItemID": 2147614768,
                "ItemInDD": true,
                "ItemLabel": "Update Event",
                "ItemType": "RECORD"
              },
              {
                "ItemContainerTag": "__analog_input_block",
                "ItemHelp": "The status for high high alarm and its associated time stamp.",
                "ItemID": 2147614972,
                "ItemInDD": true,
                "ItemLabel": "High High Alarm",
                "ItemType": "RECORD"
              },
              {
                "ItemContainerTag": "__analog_input_block",
                "ItemHelp": "The status for high alarm and its associated time stamp.",
                "ItemID": 2147614970,
                "ItemInDD": true,
                "ItemLabel": "High Alarm",
                "ItemType": "RECORD"
              },
              {
                "ItemContainerTag": "__analog_input_block",
                "ItemHelp": "The status of the low low alarm and its associated time stamp.",
                "ItemID": 2147615000,
                "ItemInDD": true,
                "ItemLabel": "Low Low Alarm",
                "ItemType": "RECORD"
              },
              {
                "ItemContainerTag": "__analog_input_block",
                "ItemHelp": "The status of the low alarm and its associated time stamp.",
                "ItemID": 2147614994,
                "ItemInDD": true,
                "ItemLabel": "Low Alarm",
                "ItemType": "RECORD"
              }
            ]
          },
          "ItemLabel": "Alarms",
          "ItemType": "MENU"
        }
      }
    }
  },
  "AckOption": {
    "SetVar": {
      "Request": {
        "ItemContainerTag": "__analog_input_block",
        "ItemID": 2147614864,
        "ItemInfo": {
          "VarValue": 195
        },
        "ItemReqType": "UPDATE",
        "ItemType": "VARIABLE"
      },
      "Response": {
        "CommandName": "SetItem",
        "CommandResponse": {
          "result": "ok"
        }
      }
    },
    "GetVar": {
      "Request": {
        "ItemContainerTag": "__analog_input_block",
        "ItemID": 2147614864,
        "ItemInDD": true,
        "ItemType": "VARIABLE"
      },
      "Response": {
        "CommandName": "GetItem",
        "CommandResponse": {
          "result": {
            "ItemContainerTag": "__analog_input_block",
            "ItemHelp": "Selection of whether alarms associated with the function block will be automatically acknowledged.",
            "ItemID": 2147614864,
            "ItemInDD": true,
            "ItemInfo": {
              "ItemClass": 163840,
              "ItemReadOnly": false,
              "VarContainerID": 0,
              "VarInfo": {
                "VarEnumInfo": [
                  {
                    "VarEnumHelp": "Operator must Acknowledge Alarm Condition",
                    "VarEnumLabel": "Unack Alarm 1",
                    "VarEnumValue": 1
                  },
                  {
                    "VarEnumHelp": "Operator must Acknowledge Alarm Condition",
                    "VarEnumLabel": "Unack Alarm 2",
                    "VarEnumValue": 2
                  },
                  {
                    "VarEnumHelp": "Operator must Acknowledge Alarm Condition",
                    "VarEnumLabel": "Unack Alarm 3",
                    "VarEnumValue": 4
                  },
                  {
                    "VarEnumHelp": "Operator must Acknowledge Alarm Condition",
                    "VarEnumLabel": "Unack Alarm 4",
                    "VarEnumValue": 8
                  },
                  {
                    "VarEnumHelp": "Operator must Acknowledge Alarm Condition",
                    "VarEnumLabel": "Unack Alarm 5",
                    "VarEnumValue": 16
                  },
                  {
                    "VarEnumHelp": "Operator must Acknowledge Alarm Condition",
                    "VarEnumLabel": "Unack Alarm 6",
                    "VarEnumValue": 32
                  },
                  {
                    "VarEnumHelp": "Operator must Acknowledge Alarm Condition",
                    "VarEnumLabel": "Unack Alarm 7",
                    "VarEnumValue": 64
                  },
                  {
                    "VarEnumHelp": "Operator must Acknowledge Alarm Condition",
                    "VarEnumLabel": "Unack Alarm 8",
                    "VarEnumValue": 128
                  },
                  {
                    "VarEnumHelp": "Operator must Acknowledge Alarm Condition",
                    "VarEnumLabel": "Unack Alarm 9",
                    "VarEnumValue": 256
                  },
                  {
                    "VarEnumHelp": "Operator must Acknowledge Alarm Condition",
                    "VarEnumLabel": "Unack Alarm 10",
                    "VarEnumValue": 512
                  },
                  {
                    "VarEnumHelp": "Operator must Acknowledge Alarm Condition",
                    "VarEnumLabel": "Unack Alarm 11",
                    "VarEnumValue": 1024
                  },
                  {
                    "VarEnumHelp": "Operator must Acknowledge Alarm Condition",
                    "VarEnumLabel": "Unack Alarm 12",
                    "VarEnumValue": 2048
                  },
                  {
                    "VarEnumHelp": "Operator must Acknowledge Alarm Condition",
                    "VarEnumLabel": "Unack Alarm 13",
                    "VarEnumValue": 4096
                  },
                  {
                    "VarEnumHelp": "Operator must Acknowledge Alarm Condition",
                    "VarEnumLabel": "Unack Alarm 14",
                    "VarEnumValue": 8192
                  },
                  {
                    "VarEnumHelp": "Operator must Acknowledge Alarm Condition",
                    "VarEnumLabel": "Unack Alarm 15",
                    "VarEnumValue": 16384
                  },
                  {
                    "VarEnumHelp": "Operator must Acknowledge Alarm Condition",
                    "VarEnumLabel": "Unack Alarm 16",
                    "VarEnumValue": 32768
                  }
                ],
                "VarValType": "BITENUMERATION",
                "VarValue": 195
              },
              "VarSubIndex": 0,
              "VarType": "ENUMERATION"
            },
            "ItemLabel": "Acknowledge Option",
            "ItemType": "VARIABLE"
          }
        }
      }
    }
  },
  "HighHighPriority": {
    "SetVar": {
      "Request": {
        "ItemContainerTag": "__analog_input_block",
        "ItemID": 2147614976,
        "ItemInfo": {
          "VarValue": 15
        },
        "ItemReqType": "UPDATE",
        "ItemType": "VARIABLE"
      },
      "Response": {
        "CommandName": "SetItem",
        "CommandResponse": {
          "result": "ok"
        }
      }
    },
    "GetVar": {
      "Request": {
        "ItemContainerTag": "__analog_input_block",
        "ItemID": 2147614976,
        "ItemInDD": true,
        "ItemType": "VARIABLE"
      },
      "Response": {
        "CommandName": "GetItem",
        "CommandResponse": {
          "result": {
            "ItemContainerTag": "__analog_input_block",
            "ItemHelp": "Priority of the high high alarm.",
            "ItemID": 2147614976,
            "ItemInDD": true,
            "ItemInfo": {
              "ItemClass": 163840,
              "ItemReadOnly": false,
              "VarContainerID": 0,
              "VarInfo": {
                "VarUnit": "",
                "VarValDisplayFormat": "u",
                "VarValEditFormat": "u",
                "VarValRange": [
                  {
                    "VarValMax": 15
                  }
                ],
                "VarValType": "UNSIGNED_INTEGER",
                "VarValue": 15
              },
              "VarSubIndex": 0,
              "VarType": "ARITHMETIC"
            },
            "ItemLabel": "High High Priority",
            "ItemType": "VARIABLE"
          }
        }
      }
    }
  },
  "HighHighLimit": {
    "SetVar": {
      "Request": {
        "ItemContainerTag": "__analog_input_block",
        "ItemID": 2147614974,
        "ItemInfo": {
          "VarValue": 45.25
        },
        "ItemReqType": "UPDATE",
        "ItemType": "VARIABLE"
      },
      "Response": {
        "CommandName": "SetItem",
        "CommandResponse": {
          "result": "ok"
        }
      }
    },
    "GetVar": {
      "Request": {
        "ItemContainerTag": "__analog_input_block",
        "ItemID": 2147614974,
        "ItemInDD": true,
        "ItemType": "VARIABLE"
      },
      "Response": {
        "CommandName": "GetItem",
        "CommandResponse": {
          "result": {
            "ItemContainerTag": "__analog_input_block",
            "ItemHelp": "The setting for high high alarm in engineering units.",
            "ItemID": 2147614974,
            "ItemInDD": true,
            "ItemInfo": {
              "ItemClass": 163840,
              "ItemReadOnly": false,
              "VarContainerID": 0,
              "VarInfo": {
                "VarUnit": "%",
                "VarValDisplayFormat": "f",
                "VarValEditFormat": "f",
                "VarValIsINF": false,
                "VarValIsNAN": false,
                "VarValType": "FLOAT",
                "VarValue": 45.25
              },
              "VarSubIndex": 0,
              "VarType": "ARITHMETIC"
            },
            "ItemLabel": "High High Limit",
            "ItemType": "VARIABLE"
          }
        }
      }
    }
  }
}