{
  "Request": [
    {
      "ItemContainerTag": "DATATYPESTB",
      "ItemID": 132287,
      "ItemInDD": true,
      "ItemType": "METHOD"
    },
    {
      "ItemContainerTag": "DATATYPESTB",
      "ItemID": 132288,
      "ItemInDD": true,
      "ItemType": "METHOD"
    },
    {
      "ItemContainerTag": "",
      "ItemID": 0,
      "ItemInfo": {
        "VarValue": "0"
      },
      "ItemReqType": "pqwerty",
      "ItemType": "METHOD"
    },
    {
      "ItemContainerTag": "",
      "ItemID": 0,
      "ItemInfo": {
        "VarValue": "0"
      },
      "ItemReqType": "",
      "ItemType": "METHOD"
    }
  ],
  "Response": [
    {
      "CommandName": "GetItem",
      "CommandResponse": {
        "result": "ok"
      }
    },
    {
      "CommandName": "GetItem",
      "CommandResponse": {
        "result": "ok"
      }
    },
    {
      "CommandName": "SetItem",
      "CommandResponse": {
        "result": "ok"
      }
    },
    {
      "CommandName": "SetItem",
      "CommandResponse": {
        "result": "ok"
      }
    }
  ],
  "Notification_1": [
    {
      "ItemContainerTag": "DATATYPESTB",
      "ItemHelp": "No Help Available",
      "ItemID": 132287,
      "ItemInDD": true,
      "ItemInfo": {
        "Message": "",
        "NotificationType": "START"
      },
      "ItemLabel": "TC_File_001 step 1",
      "ItemType": "METHOD"
    },
    {
      "ItemContainerTag": "DATATYPESTB",
      "ItemHelp": "No Help Available",
      "ItemID": 132287,
      "ItemInDD": true,
      "ItemInfo": {
        "Message": "Writing variables to file...",
        "NotificationType": "DISPLAY"
      },
      "ItemLabel": "TC_File_001 step 1",
      "ItemType": "METHOD"
    },
    {
      "ItemContainerTag": "DATATYPESTB",
      "ItemHelp": "No Help Available",
      "ItemID": 132287,
      "ItemInDD": true,
      "ItemInfo": {
        "Message": "Set float variable = 1",
        "NotificationType": "DISPLAY"
      },
      "ItemLabel": "TC_File_001 step 1",
      "ItemType": "METHOD"
    },
    {
      "ItemContainerTag": "DATATYPESTB",
      "ItemHelp": "No Help Available",
      "ItemID": 132287,
      "ItemInDD": true,
      "ItemInfo": {
        "Message": "Set enumerated variable = 2",
        "NotificationType": "DISPLAY"
      },
      "ItemLabel": "TC_File_001 step 1",
      "ItemType": "METHOD"
    },
    {
      "ItemContainerTag": "DATATYPESTB",
      "ItemHelp": "No Help Available",
      "ItemID": 132287,
      "ItemInDD": true,
      "ItemInfo": {
        "Message": "Set bit enumerated variable = 0x0004",
        "NotificationType": "DISPLAY"
      },
      "ItemLabel": "TC_File_001 step 1",
      "ItemType": "METHOD"
    },
    {
      "ItemContainerTag": "DATATYPESTB",
      "ItemHelp": "No Help Available",
      "ItemID": 132287,
      "ItemInDD": true,
      "ItemInfo": {
        "Message": "Exit the host application, then run TC_FILE_001 step 2.",
        "NotificationType": "DISPLAY"
      },
      "ItemLabel": "TC_File_001 step 1",
      "ItemType": "METHOD"
    },
    {
      "ItemContainerTag": "DATATYPESTB",
      "ItemHelp": "No Help Available",
      "ItemID": 132287,
      "ItemInDD": true,
      "ItemInfo": {
        "Message": "",
        "NotificationType": "COMPLETED"
      },
      "ItemLabel": "TC_File_001 step 1",
      "ItemType": "METHOD"
    }
  ],
  "Notification_2": [
    {
      "ItemContainerTag": "DATATYPESTB",
      "ItemHelp": "No Help Available",
      "ItemID": 132288,
      "ItemInDD": true,
      "ItemInfo": {
        "Message": "",
        "NotificationType": "START"
      },
      "ItemLabel": "TC_File_001 step 2",
      "ItemType": "METHOD"
    },
    {
      "ItemContainerTag": "DATATYPESTB",
      "ItemHelp": "No Help Available",
      "ItemID": 132288,
      "ItemInDD": true,
      "ItemInfo": {
        "Message": "Reading variables from file...",
        "NotificationType": "DISPLAY"
      },
      "ItemLabel": "TC_File_001 step 2",
      "ItemType": "METHOD"
    },
    {
      "ItemContainerTag": "DATATYPESTB",
      "ItemHelp": "No Help Available",
      "ItemID": 132288,
      "ItemInDD": true,
      "ItemInfo": {
        "Message": "Float variable = 1.000000",
        "NotificationType": "DISPLAY"
      },
      "ItemLabel": "TC_File_001 step 2",
      "ItemType": "METHOD"
    },
    {
      "ItemContainerTag": "DATATYPESTB",
      "ItemHelp": "No Help Available",
      "ItemID": 132288,
      "ItemInDD": true,
      "ItemInfo": {
        "Message": "Enumerated variable = 2",
        "NotificationType": "DISPLAY"
      },
      "ItemLabel": "TC_File_001 step 2",
      "ItemType": "METHOD"
    },
    {
      "ItemContainerTag": "DATATYPESTB",
      "ItemHelp": "No Help Available",
      "ItemID": 132288,
      "ItemInDD": true,
      "ItemInfo": {
        "Message": "Bit enumumerated variable = 4",
        "NotificationType": "DISPLAY"
      },
      "ItemLabel": "TC_File_001 step 2",
      "ItemType": "METHOD"
    },
    {
      "ItemContainerTag": "DATATYPESTB",
      "ItemHelp": "No Help Available",
      "ItemID": 132288,
      "ItemInDD": true,
      "ItemInfo": {
        "Message": "Test Passed !!!!:  File access succeeded",
        "NotificationType": "ACK"
      },
      "ItemLabel": "TC_File_001 step 2",
      "ItemType": "METHOD"
    }
  ],
  "Notification_3": [
    {
      "ItemContainerTag": "DATATYPESTB",
      "ItemHelp": "No Help Available",
      "ItemID": 132288,
      "ItemInDD": true,
      "ItemInfo": {
        "Message": "Continue...\n\n",
        "NotificationType": "ACK"
      },
      "ItemLabel": "TC_File_001 step 2",
      "ItemType": "METHOD"
    }
  ],
  "Notification_4": [
    {
      "ItemContainerTag": "DATATYPESTB",
      "ItemHelp": "No Help Available",
      "ItemID": 132288,
      "ItemInDD": true,
      "ItemInfo": {
        "Message": "",
        "NotificationType": "COMPLETED"
      },
      "ItemLabel": "TC_File_001 step 2",
      "ItemType": "METHOD"
    }
  ]
}