{
  "Request": [
    {
      "ItemContainerTag": "DATATYPESTB",
      "ItemID": 132288,
      "ItemInDD": true,
      "ItemType": "METHOD"
    },
    {
      "ItemContainerTag": "",
      "ItemID": 0,
      "ItemInfo": {
        "VarValue": "0"
      },
      "ItemReqType": "",
      "ItemType": "METHOD"
    },
    {
      "ItemContainerTag": "",
      "ItemID": 0,
      "ItemInfo": {
        "VarValue": "0"
      },
      "ItemReqType": "",
      "ItemType": "METHOD"
    }
  ],
  "Response": [
    {
      "CommandName": "GetItem",
      "CommandResponse": {
        "result": "ok"
      }
    },
    {
      "CommandName": "SetItem",
      "CommandResponse": {
        "result": "ok"
      }
    },
    {
      "CommandName": "SetItem",
      "CommandResponse": {
        "result": "ok"
      }
    }
  ],
  "Notification_1": [
    {
      "ItemContainerTag": "DATATYPESTB",
      "ItemHelp": "No Help Available",
      "ItemID": 132288,
      "ItemInDD": true,
      "ItemInfo": {
        "Message": "",
        "NotificationType": "START"
      },
      "ItemLabel": "TC_File_001 step 2",
      "ItemType": "METHOD"
    },
    {
      "ItemContainerTag": "DATATYPESTB",
      "ItemHelp": "No Help Available",
      "ItemID": 132288,
      "ItemInDD": true,
      "ItemInfo": {
        "Message": "Reading variables from file...",
        "NotificationType": "DISPLAY"
      },
      "ItemLabel": "TC_File_001 step 2",
      "ItemType": "METHOD"
    },
    {
      "ItemContainerTag": "DATATYPESTB",
      "ItemHelp": "No Help Available",
      "ItemID": 132288,
      "ItemInDD": true,
      "ItemInfo": {
        "Message": "Float variable = 0.000000",
        "NotificationType": "DISPLAY"
      },
      "ItemLabel": "TC_File_001 step 2",
      "ItemType": "METHOD"
    },
    {
      "ItemContainerTag": "DATATYPESTB",
      "ItemHelp": "No Help Available",
      "ItemID": 132288,
      "ItemInDD": true,
      "ItemInfo": {
        "Message": "Enumerated variable = 0",
        "NotificationType": "DISPLAY"
      },
      "ItemLabel": "TC_File_001 step 2",
      "ItemType": "METHOD"
    },
    {
      "ItemContainerTag": "DATATYPESTB",
      "ItemHelp": "No Help Available",
      "ItemID": 132288,
      "ItemInDD": true,
      "ItemInfo": {
        "Message": "Bit enumumerated variable = 0",
        "NotificationType": "DISPLAY"
      },
      "ItemLabel": "TC_File_001 step 2",
      "ItemType": "METHOD"
    },
    {
      "ItemContainerTag": "DATATYPESTB",
      "ItemHelp": "No Help Available",
      "ItemID": 132288,
      "ItemInDD": true,
      "ItemInfo": {
        "Message": "Test Failed:  Values read did not match what was written",
        "NotificationType": "ACK"
      },
      "ItemLabel": "TC_File_001 step 2",
      "ItemType": "METHOD"
    }
  ],
  "Notification_2": [
    {
      "ItemContainerTag": "DATATYPESTB",
      "ItemHelp": "No Help Available",
      "ItemID": 132288,
      "ItemInDD": true,
      "ItemInfo": {
        "Message": "Continue...\n\n",
        "NotificationType": "ACK"
      },
      "ItemLabel": "TC_File_001 step 2",
      "ItemType": "METHOD"
    }
  ],
  "Notification_3": [
    {
      "ItemContainerTag": "DATATYPESTB",
      "ItemHelp": "No Help Available",
      "ItemID": 132288,
      "ItemInDD": true,
      "ItemInfo": {
        "Message": "",
        "NotificationType": "COMPLETED"
      },
      "ItemLabel": "TC_File_001 step 2",
      "ItemType": "METHOD"
    }
  ]
}