{
  "Request": [
    {
      "ItemContainerTag": "sensor_transducer_block",
      "ItemID": 131090,
      "ItemInDD": true,
      "ItemType": "METHOD"
    },
    {
      "ItemContainerTag": "",
      "ItemID": 0,
      "ItemInfo": {
        "VarValue": "0"
      },
      "ItemReqType": "",
      "ItemType": "METHOD"
    },
    {
      "ItemContainerTag": "",
      "ItemID": 0,
      "ItemInfo": {
        "VarValue": "0"
      },
      "ItemReqType": "",
      "ItemType": "METHOD"
    },
    {
      "ItemContainerTag": "",
      "ItemID": 0,
      "ItemInfo": {
        "VarValue": "0"
      },
      "ItemReqType": "",
      "ItemType": "METHOD"
    },
    {
      "ItemContainerTag": "",
      "ItemID": 0,
      "ItemInfo": {
        "VarValue": 1001
      },
      "ItemReqType": "",
      "ItemType": "METHOD"
    }
  ],
  "Response": [
    {
      "CommandName": "GetItem",
      "CommandResponse": {
        "result": "ok"
      }
    },
    {
      "CommandName": "SetItem",
      "CommandResponse": {
        "result": "ok"
      }
    },
    {
      "CommandName": "SetItem",
      "CommandResponse": {
        "result": "ok"
      }
    },
    {
      "CommandName": "SetItem",
      "CommandResponse": {
        "result": "ok"
      }
    },
    {
      "CommandName": "SetItem",
      "CommandResponse": {
        "result": "ok"
      }
    }
  ],
  "Notification_1": [
    {
      "ItemContainerTag": "__resource_block_2",
      "ItemHelp": "|en|Master Reset- Commands the electronics to reset and perform a self test. Reports any errors that occured.",
      "ItemID": 131090,
      "ItemInDD": true,
      "ItemInfo": {
        "Message": "",
        "NotificationType": "START"
      },
      "ItemLabel": "|en|Master reset",
      "ItemType": "METHOD"
    },
    {
      "ItemContainerTag": "__resource_block_2",
      "ItemHelp": "|en|Master Reset- Commands the electronics to reset and perform a self test. Reports any errors that occured.",
      "ItemID": 131090,
      "ItemInDD": true,
      "ItemInfo": {
        "Message": "WARN-Loop should be removed from automatic control\n",
        "NotificationType": "ACK"
      },
      "ItemLabel": "|en|Master reset",
      "ItemType": "METHOD"
    }
  ],
  "Notification_2": [
    {
      "ItemContainerTag": "__resource_block_2",
      "ItemHelp": "|en|Master Reset- Commands the electronics to reset and perform a self test. Reports any errors that occured.",
      "ItemID": 131090,
      "ItemInDD": true,
      "ItemInfo": {
        "ItemClass": 32770,
        "Message": "Type of Reset:\n",
        "MethodVarInfo": {
          "ItemContainerTag": "__resource_block_2",
          "ItemHelp": "Allows a manual restart to be initiated.  Several degrees of restart are possible. They are 1: Run, 2: Restart resource, 3: Restart with defaults, and 4: Restart processor.",
          "ItemID": 2147615058,
          "ItemInDD": true,
          "ItemInfo": {
            "ItemClass": 32770,
            "ItemReadOnly": false,
            "VarContainerID": 0,
            "VarInfo": {
              "VarEnumInfo": [
                {
                  "VarEnumHelp": "",
                  "VarEnumLabel": "Uninitialized",
                  "VarEnumValue": 0
                },
                {
                  "VarEnumHelp": "Setting for normal operation",
                  "VarEnumLabel": "Run",
                  "VarEnumValue": 1
                },
                {
                  "VarEnumHelp": "Restart resource as though power fail had occurred using NVM values",
                  "VarEnumLabel": "Resource",
                  "VarEnumValue": 2
                },
                {
                  "VarEnumHelp": "Restart resource as through power fail had occurred using default values",
                  "VarEnumLabel": "Defaults",
                  "VarEnumValue": 3
                },
                {
                  "VarEnumHelp": "Reset processor and initiate execution as though power fail had occurred",
                  "VarEnumLabel": "Processor",
                  "VarEnumValue": 4
                }
              ],
              "VarValType": "ENUMERATION",
              "VarValue": 1
            },
            "VarSubIndex": 0,
            "VarType": "ENUMERATION"
          },
          "ItemLabel": "Restart",
          "ItemType": "VARIABLE"
        },
        "NotificationType": "GETVALUE"
      },
      "ItemLabel": "|en|Master reset",
      "ItemType": "METHOD"
    }
  ],
  "Notification_3": [
    {
      "ItemContainerTag": "__resource_block_2",
      "ItemHelp": "|en|Master Reset- Commands the electronics to reset and perform a self test. Reports any errors that occured.",
      "ItemID": 131090,
      "ItemInDD": true,
      "ItemInfo": {
        "Message": "Sending reset request\n",
        "NotificationType": "DISPLAY"
      },
      "ItemLabel": "|en|Master reset",
      "ItemType": "METHOD"
    },
    {
      "ItemContainerTag": "__resource_block_2",
      "ItemHelp": "|en|Master Reset- Commands the electronics to reset and perform a self test. Reports any errors that occured.",
      "ItemID": 131090,
      "ItemInDD": true,
      "ItemInfo": {
        "Message": "Reset completed -- check the Resource Block status display for current operating condition.\n\nThere may be some delay before the device is recognized again by the host.\n",
        "NotificationType": "ACK"
      },
      "ItemLabel": "|en|Master reset",
      "ItemType": "METHOD"
    }
  ],
  "Notification_4": [
    {
      "ItemContainerTag": "__resource_block_2",
      "ItemHelp": "|en|Master Reset- Commands the electronics to reset and perform a self test. Reports any errors that occured.",
      "ItemID": 131090,
      "ItemInDD": true,
      "ItemInfo": {
        "Message": "",
        "NotificationType": "COMPLETED"
      },
      "ItemLabel": "|en|Master reset",
      "ItemType": "METHOD"
    }
  ]
}