{
  "Request": {
    "FF_BUS_PARAMS": {
      "slot_time": 20
    }
  },
  "Response": {
    "CommandName": "SetBusParameters",
    "CommandResponse": {
      "error": {
        "code": 90302,
        "message": "Failed to set bus parameters, slot time is invalid."
      }
    }
  }
}



