{
  "Request": {
    "FF_BUS_PARAMS": {
      "nun": 300
    }
  },
  "Response": {
    "CommandName": "SetBusParameters",
    "CommandResponse": {
      "error": {
        "code": 90301,
        "message": "Failed to set bus parameters, NUN & FUN are out of range."
      }
    }
  }
}



