{
  "Request": {
    "ItemContainerTag": "",
    "ItemID": 0,
    "ItemInfo": {
      "VarValue": ""
    },
    "ItemReqType": "ABORT",
    "ItemType": "METHOD"
  },
  "Response": {
    "CommandName": "SetItem",
    "CommandResponse": {
      "result": "ok"
    }
  },
  "Notification": [
    {
      "ItemContainerTag": "",
      "ItemHelp": "Loop test- Allows the User to manually manipulate the Analog Output to a selected constant output value.",
      "ItemID": 4098,
      "ItemInDD": true,
      "ItemInfo": {
        "Message": "Note-loop may be returned to automatic control.",
        "NotificationType": "ACK"
      },
      "ItemLabel": "Loop Test",
      "ItemType": "METHOD"
    },
    {
      "ItemContainerTag": "",
      "ItemHelp": "Loop test- Allows the User to manually manipulate the Analog Output to a selected constant output value.",
      "ItemID": 4098,
      "ItemInDD": true,
      "ItemInfo": {
        "Message": "",
        "NotificationType": "COMPLETED"
      },
      "ItemLabel": "Loop Test",
      "ItemType": "METHOD"
    }
  ]
}