{
  "Request": {
    "ItemContainerTag": "",
    "ItemID": 0,
    "ItemInfo": {
      "VarValue": ""
    },
    "ItemReqType": "ABORT",
    "ItemType": "METHOD"
  },
  "Response": {
    "CommandName": "GetItem",
    "CommandResponse": {
      "error": {
        "code": 90002,
        "message": "Failed to process the command. JSON request is invalid."
      }
    }
  }
}