{
  "Request": [
    {
      "ItemContainerTag": "",
      "ItemID": 5677118,
      "ItemInDD": true,
      "ItemType": "METHOD"
    },
    {
      "ItemContainerTag": "",
      "ItemID": "",
      "ItemInDD": true,
      "ItemType": "METHOD"
    }
  ],
  "Response": [
    {
      "CommandName": "GetItem",
      "CommandResponse": {
        "error": {
          "code": 91006,
          "message": "Failed to execute the method."
        }
      }
    },
    {
      "CommandName": "GetItem",
      "CommandResponse": {
        "error": {
          "code": 91001,
          "message": "Failed to get item information"
        }
      }
    }
  ]
}