{
  "LibraryPath": "/media/devuser/extended/fluke_dev/digipro/atf/testlib/",
  "TestOutputDir": "/media/devuser/extended/atf_results/",
  "TestSuitePath": "/media/devuser/extended/fluke_dev/digipro/atf/testsuite/",
  "HostAppSetup": "LOCAL",
  "HostConfig": {
    "HostIpAddress": "134.64.245.249",
    "HostPort": 55557
  },
  "TestSetUp": [
    {
      "TestSuite": "hartsuite",
      "TestDevice": "super_dd",
      "TestFeatureList": [

        {
          "TestFeature": "EDIT_DISPLAY"
        }
      ]
    }
  ]
}